Sample	uniquely_mapped_percent	num_splices	num_GCAG_splices	insertion_length	deletion_length	unmapped_tooshort_percent	avg_mapped_read_length	deletion_rate	mismatch_rate	avg_input_read_length	num_ATAC_splices	num_annotated_splices	num_GTAG_splices	uniquely_mapped	multimapped_toomany	unmapped_mismatches	unmapped_mismatches_percent	total_reads	unmapped_other	insertion_rate	unmapped_other_percent	multimapped_percent	multimapped	num_noncanonical_splices	unmapped_tooshort	multimapped_toomany_percent
5317STDY8020097	29.9	110.0	1.0	1.14	1.33	44.43	145.85	0.01	0.57	150.0	0.0	109.0	109.0	290.0	1.0	0	0.0	970.0	2	0.02	0.21	25.36	246.0	0.0	431	0.1
5317STDY8020098	35.09	81.0	0.0	1.0	1.0	46.52	145.63	0.01	0.65	150.0	0.0	80.0	80.0	227.0	2.0	0	0.0	647.0	0	0.01	0.0	18.08	117.0	1.0	301	0.31
5317STDY8020099	39.74	144.0	2.0	1.0	1.0	31.84	146.68	0.01	0.6	150.0	0.0	143.0	142.0	453.0	2.0	0	0.0	1140.0	1	0.01	0.09	28.16	321.0	0.0	363	0.18
5317STDY8020100	26.28	220.0	2.0	1.2	1.29	52.37	143.39	0.01	0.63	150.0	1.0	220.0	217.0	670.0	8.0	0	0.0	2549.0	4	0.01	0.16	20.87	532.0	0.0	1335	0.31
5317STDY8020101	46.38	714.0	9.0	1.27	1.62	41.49	142.02	0.01	0.62	150.0	0.0	700.0	696.0	3204.0	16.0	0	0.0	6908.0	5	0.02	0.07	11.83	817.0	9.0	2866	0.23
5317STDY8020102	68.95	97636.0	450.0	1.24	1.69	17.76	145.66	0.01	0.47	150.0	72.0	97364.0	96636.0	167333.0	924.0	0	0.0	242691.0	146	0.01	0.06	12.85	31176.0	478.0	43112	0.38
5317STDY8020103	54.64	18097.0	28.0	1.21	1.54	35.36	142.96	0.01	0.57	150.0	8.0	17977.0	17942.0	59969.0	427.0	0	0.0	109744.0	88	0.01	0.08	9.53	10464.0	119.0	38796	0.39
5317STDY8020104	54.3	91655.0	413.0	1.21	1.45	7.19	147.89	0.01	0.51	150.0	68.0	91421.0	90758.0	211124.0	1180.0	0	0.0	388802.0	155	0.01	0.04	38.17	148395.0	416.0	27948	0.3
5317STDY8020105	59.16	4409.0	60.0	1.19	1.31	33.94	142.91	0.01	0.57	150.0	0.0	4384.0	4342.0	12776.0	103.0	0	0.0	21594.0	13	0.01	0.06	6.37	1375.0	7.0	7327	0.48
5317STDY8020106	74.15	13278.0	193.0	1.23	1.37	16.71	144.58	0.02	0.66	150.0	28.0	12657.0	12373.0	197405.0	1314.0	0	0.0	266206.0	1065	0.02	0.4	8.24	21932.0	684.0	44490	0.49
5317STDY8020107	43.22	261.0	0.0	1.17	1.5	29.98	145.95	0.01	0.61	150.0	0.0	260.0	260.0	666.0	4.0	0	0.0	1541.0	1	0.01	0.06	26.48	408.0	1.0	462	0.26
5317STDY8020108	34.49	152.0	3.0	1.14	1.0	52.41	143.31	0.01	0.9	150.0	0.0	145.0	148.0	1122.0	45.0	0	0.0	3253.0	39	0.0	1.2	10.51	342.0	1.0	1705	1.38
5317STDY8020109	55.04	81192.0	573.0	1.21	1.48	8.47	147.69	0.01	0.52	150.0	37.0	80879.0	80134.0	211021.0	828.0	0	0.0	383385.0	192	0.01	0.05	36.22	138871.0	448.0	32473	0.22
5317STDY8020110	55.39	129683.0	625.0	1.28	1.53	9.04	147.36	0.01	0.44	150.0	31.0	129389.0	128502.0	288154.0	1494.0	0	0.0	520198.0	312	0.01	0.06	35.21	183170.0	525.0	47068	0.29
5317STDY8020111	51.23	110439.0	896.0	1.23	1.54	9.04	148.07	0.01	0.46	150.0	75.0	110152.0	108699.0	291774.0	1490.0	0	0.0	569570.0	284	0.01	0.05	39.43	224584.0	769.0	51438	0.26
5317STDY8020112	50.69	81885.0	574.0	1.22	1.49	9.55	147.89	0.01	0.49	150.0	43.0	81648.0	80856.0	206984.0	867.0	0	0.0	408339.0	123	0.01	0.03	39.51	161350.0	412.0	39015	0.21
5317STDY8020113	50.86	106458.0	748.0	1.22	1.54	7.48	148.05	0.01	0.5	150.0	105.0	106079.0	105082.0	262677.0	2460.0	0	0.0	516432.0	207	0.01	0.04	41.14	212455.0	523.0	38633	0.48
5317STDY8020114	49.33	88246.0	663.0	1.27	1.56	8.9	148.09	0.01	0.5	150.0	53.0	87938.0	87123.0	223773.0	1517.0	0	0.0	453666.0	182	0.01	0.04	41.39	187794.0	407.0	40400	0.33
5317STDY8020115	53.87	81526.0	697.0	1.25	1.52	8.3	148.19	0.01	0.5	150.0	43.0	81262.0	80416.0	219473.0	883.0	0	0.0	407405.0	122	0.01	0.03	37.58	153105.0	370.0	33822	0.22
5317STDY8020116	48.29	111888.0	1133.0	1.29	1.49	8.43	148.3	0.01	0.46	150.0	90.0	111588.0	110097.0	285566.0	2766.0	0	0.0	591351.0	237	0.01	0.04	42.77	252912.0	568.0	49870	0.47
5317STDY8020117	52.69	172491.0	1192.0	1.22	1.42	5.57	148.26	0.01	0.46	150.0	138.0	172120.0	170588.0	317201.0	2411.0	0	0.0	602033.0	121	0.01	0.02	41.31	248728.0	573.0	33572	0.4
5317STDY8020118	53.83	83516.0	609.0	1.25	1.46	9.81	147.79	0.01	0.5	150.0	34.0	83230.0	82317.0	234795.0	1026.0	0	0.0	436203.0	218	0.01	0.05	36.07	157358.0	556.0	42806	0.24
5317STDY8020119	48.26	278.0	2.0	1.25	1.9	29.31	145.53	0.02	0.56	150.0	0.0	274.0	272.0	667.0	4.0	0	0.0	1382.0	2	0.01	0.14	22.0	304.0	4.0	405	0.29
5317STDY8020120	19.58	225.0	0.0	1.1	1.25	49.63	143.41	0.01	0.67	150.0	0.0	220.0	220.0	744.0	123.0	0	0.0	3800.0	0	0.01	0.0	27.55	1047.0	5.0	1886	3.24
5317STDY8020121	49.4	103388.0	607.0	1.25	1.54	7.08	148.02	0.01	0.49	150.0	69.0	103131.0	102298.0	231111.0	1394.0	0	0.0	467812.0	140	0.01	0.03	43.19	202065.0	414.0	33102	0.3
5317STDY8020122	53.81	93013.0	676.0	1.28	1.53	8.16	147.99	0.01	0.49	150.0	52.0	92717.0	91728.0	218674.0	865.0	0	0.0	406372.0	203	0.01	0.05	37.77	153474.0	557.0	33156	0.21
5317STDY8020123	52.79	96815.0	621.0	1.25	1.47	7.7	147.68	0.01	0.49	150.0	99.0	96420.0	95568.0	233688.0	1634.0	0	0.0	442714.0	221	0.01	0.05	39.1	173100.0	527.0	34071	0.37
5317STDY8020124	49.44	103094.0	575.0	1.22	1.49	8.93	147.47	0.01	0.48	150.0	54.0	102828.0	101912.0	219273.0	1371.0	0	0.0	443554.0	178	0.01	0.04	41.28	183094.0	553.0	39638	0.31
5317STDY8020125	52.35	69763.0	557.0	1.25	1.43	10.66	147.79	0.01	0.5	150.0	46.0	69538.0	68803.0	165058.0	915.0	0	0.0	315288.0	126	0.01	0.04	36.66	115589.0	357.0	33600	0.29
5317STDY8020126	55.67	95032.0	692.0	1.25	1.56	9.98	147.89	0.01	0.49	150.0	46.0	94703.0	93747.0	264709.0	1653.0	0	0.0	475501.0	285	0.01	0.06	33.95	161422.0	547.0	47432	0.35
5317STDY8020127	50.35	102914.0	792.0	1.28	1.53	8.56	148.07	0.01	0.48	150.0	57.0	102602.0	101559.0	256115.0	2079.0	0	0.0	508679.0	203	0.01	0.04	40.64	206742.0	506.0	43540	0.41
5317STDY8020128	48.67	81771.0	610.0	1.27	1.56	9.97	148.23	0.01	0.48	150.0	85.0	81491.0	80632.0	233342.0	1099.0	0	0.0	479402.0	240	0.01	0.05	41.08	196942.0	444.0	47779	0.23
5317STDY8020129	62.04	132960.0	1001.0	1.21	1.45	18.88	147.4	0.01	0.4	150.0	104.0	132618.0	131255.0	265498.0	420.0	0	0.0	427958.0	43	0.01	0.01	18.98	81211.0	600.0	80786	0.1
5317STDY8020130	47.13	84605.0	606.0	1.27	1.57	11.68	148.22	0.01	0.49	150.0	56.0	84369.0	83571.0	208770.0	1261.0	0	0.0	442976.0	177	0.01	0.04	40.87	181038.0	372.0	51730	0.28
5317STDY8020131	36.79	167.0	2.0	1.25	2.14	34.04	146.91	0.02	0.59	150.0	0.0	166.0	164.0	522.0	0.0	0	0.0	1419.0	2	0.01	0.14	29.03	412.0	1.0	483	0.0
5317STDY8020132	29.69	158.0	0.0	1.0	1.5	52.62	145.78	0.01	0.63	150.0	0.0	158.0	158.0	408.0	7.0	0	0.0	1374.0	0	0.01	0.0	17.18	236.0	0.0	723	0.51
5317STDY8020133	62.23	127225.0	1076.0	1.28	1.59	8.72	147.94	0.01	0.48	150.0	98.0	126926.0	125493.0	323661.0	1403.0	0	0.0	520069.0	312	0.01	0.06	28.72	149342.0	558.0	45351	0.27
5317STDY8020134	55.02	142649.0	881.0	1.26	1.55	6.14	148.14	0.01	0.48	150.0	151.0	142307.0	141107.0	328552.0	1479.0	0	0.0	597181.0	119	0.01	0.02	38.57	230358.0	510.0	36673	0.25
5317STDY8020135	53.86	105887.0	740.0	1.26	1.52	7.73	147.9	0.01	0.49	150.0	75.0	105567.0	104509.0	270537.0	1041.0	0	0.0	502256.0	151	0.01	0.03	38.17	191708.0	563.0	38819	0.21
5317STDY8020136	52.08	135100.0	874.0	1.26	1.49	6.49	147.92	0.01	0.48	150.0	57.0	134790.0	133698.0	290111.0	1050.0	0	0.0	557074.0	223	0.01	0.04	41.21	229571.0	471.0	36119	0.19
5317STDY8020137	42.98	77330.0	552.0	1.24	1.3	17.24	147.49	0.01	0.51	150.0	55.0	77002.0	76351.0	216586.0	1285.0	0	0.0	503921.0	151	0.02	0.03	39.5	199048.0	372.0	86851	0.26
5317STDY8020138	52.28	112865.0	781.0	1.29	1.4	6.05	148.22	0.01	0.49	150.0	131.0	112565.0	111427.0	278352.0	1804.0	0	0.0	532397.0	266	0.01	0.05	41.28	219768.0	526.0	32207	0.34
5317STDY8020139	54.89	88800.0	549.0	1.21	1.49	5.84	148.19	0.01	0.49	150.0	46.0	88535.0	87855.0	226104.0	1264.0	0	0.0	411889.0	82	0.01	0.02	38.94	160391.0	350.0	24048	0.31
5317STDY8020140	54.87	98846.0	729.0	1.25	1.48	7.08	148.14	0.01	0.49	150.0	53.0	98492.0	97536.0	251802.0	918.0	0	0.0	458873.0	229	0.01	0.05	37.8	173451.0	528.0	32473	0.2
5317STDY8020141	51.76	92925.0	703.0	1.27	1.43	8.43	148.09	0.01	0.48	150.0	68.0	92642.0	91753.0	223265.0	1098.0	0	0.0	431382.0	173	0.01	0.04	39.52	170471.0	401.0	36375	0.25
5317STDY8020142	50.56	66750.0	464.0	1.33	1.54	7.62	147.96	0.01	0.52	150.0	30.0	66537.0	65942.0	164887.0	1005.0	0	0.0	326132.0	130	0.01	0.04	41.48	135276.0	314.0	24834	0.31
5317STDY8020143	33.82	282.0	0.0	1.2	1.33	50.77	146.81	0.01	0.54	150.0	0.0	280.0	280.0	856.0	6.0	0	0.0	2531.0	3	0.0	0.12	15.05	381.0	2.0	1285	0.24
5317STDY8020144	37.56	268.0	4.0	1.38	1.0	46.28	146.48	0.0	0.52	150.0	0.0	265.0	263.0	646.0	1.0	0	0.0	1720.0	0	0.01	0.0	16.1	277.0	1.0	796	0.06
5317STDY8020145	50.77	114877.0	738.0	1.29	1.53	7.12	148.05	0.01	0.47	150.0	83.0	114600.0	113560.0	276578.0	1675.0	0	0.0	544718.0	163	0.01	0.03	41.77	227531.0	496.0	38771	0.31
5317STDY8020146	56.72	106255.0	870.0	1.29	1.44	6.05	148.15	0.01	0.46	150.0	88.0	105919.0	104790.0	261204.0	1105.0	0	0.0	460554.0	138	0.01	0.03	36.96	170242.0	507.0	27865	0.24
5317STDY8020147	66.88	149304.0	1063.0	1.25	1.44	4.9	148.04	0.01	0.46	150.0	74.0	148994.0	147585.0	319349.0	905.0	0	0.0	477480.0	143	0.01	0.03	28.0	133676.0	582.0	23407	0.19
5317STDY8020148	54.26	116603.0	924.0	1.3	1.41	7.37	147.95	0.01	0.5	150.0	78.0	116298.0	115109.0	271162.0	1401.0	0	0.0	499704.0	200	0.01	0.04	38.05	190122.0	492.0	36819	0.28
5317STDY8020149	55.29	90356.0	656.0	1.25	1.44	8.27	147.54	0.01	0.45	150.0	59.0	90083.0	89326.0	255585.0	1136.0	0	0.0	462269.0	185	0.01	0.04	36.16	167144.0	315.0	38219	0.25
5317STDY8020150	36.05	63953.0	605.0	1.24	1.54	38.0	147.08	0.01	0.43	150.0	59.0	63836.0	62991.0	140389.0	649.0	0	0.0	389443.0	234	0.01	0.06	25.72	100183.0	298.0	147988	0.17
5317STDY8020151	51.31	118198.0	784.0	1.26	1.51	7.01	148.27	0.01	0.46	150.0	98.0	117971.0	116916.0	256013.0	1080.0	0	0.0	498914.0	249	0.01	0.05	41.41	206603.0	400.0	34969	0.22
5317STDY8020152	50.67	83125.0	497.0	1.29	1.54	7.87	148.08	0.01	0.49	150.0	51.0	82796.0	82124.0	218273.0	1234.0	0	0.0	430764.0	215	0.01	0.05	41.12	177141.0	453.0	33901	0.29
5317STDY8020153	51.5	59496.0	507.0	1.32	1.45	8.36	148.35	0.01	0.51	150.0	38.0	59301.0	58671.0	159942.0	1226.0	0	0.0	310590.0	124	0.01	0.04	39.7	123309.0	280.0	25989	0.39
5317STDY8020154	54.06	123806.0	708.0	1.26	1.61	5.64	147.74	0.01	0.47	150.0	70.0	123495.0	122685.0	199576.0	882.0	0	0.0	369172.0	74	0.01	0.02	40.04	147805.0	343.0	20835	0.24
5317STDY8020155	25.43	231.0	1.0	1.08	2.29	60.93	145.82	0.02	0.54	150.0	0.0	230.0	230.0	634.0	5.0	0	0.0	2493.0	0	0.01	0.0	13.44	335.0	0.0	1519	0.2
5317STDY8020156	39.27	162.0	0.0	1.33	1.25	44.68	146.45	0.01	0.54	150.0	0.0	161.0	160.0	487.0	1.0	0	0.0	1240.0	1	0.01	0.08	15.89	197.0	2.0	554	0.08
5317STDY8020157	49.82	77033.0	547.0	1.28	1.48	7.98	148.02	0.01	0.5	150.0	31.0	76813.0	76126.0	224188.0	1672.0	0	0.0	449990.0	315	0.01	0.07	41.75	187868.0	329.0	35947	0.37
5317STDY8020158	51.58	81139.0	465.0	1.29	1.42	10.6	148.03	0.01	0.51	150.0	76.0	80830.0	80015.0	243138.0	1249.0	0	0.0	471387.0	142	0.01	0.03	37.52	176851.0	583.0	50007	0.26
5317STDY8020159	56.6	35781.0	321.0	1.29	1.38	14.15	147.17	0.01	0.55	150.0	11.0	35577.0	35177.0	141258.0	571.0	0	0.0	249571.0	225	0.01	0.09	28.93	72211.0	272.0	35306	0.23
5317STDY8020160	57.78	111859.0	786.0	1.24	1.52	7.54	148.17	0.01	0.47	150.0	66.0	111561.0	110521.0	303766.0	1117.0	0	0.0	525766.0	210	0.01	0.04	34.43	181013.0	486.0	39660	0.21
5317STDY8020161	54.35	89222.0	881.0	1.26	1.37	13.62	147.26	0.01	0.45	150.0	21.0	88980.0	87931.0	263367.0	939.0	0	0.0	484612.0	291	0.01	0.06	31.78	154018.0	389.0	65997	0.19
5317STDY8020162	56.71	99043.0	744.0	1.26	1.57	7.69	148.03	0.01	0.49	150.0	65.0	98782.0	97783.0	247333.0	1042.0	0	0.0	436151.0	174	0.01	0.04	35.33	154073.0	451.0	33529	0.24
5317STDY8020163	61.5	97536.0	672.0	1.26	1.47	5.83	148.2	0.01	0.48	150.0	39.0	97271.0	96383.0	246799.0	776.0	0	0.0	401310.0	161	0.01	0.04	32.43	130157.0	442.0	23417	0.19
5317STDY8020164	55.32	86423.0	633.0	1.24	1.55	5.36	148.29	0.01	0.49	150.0	86.0	86146.0	85249.0	222341.0	935.0	0	0.0	401890.0	121	0.01	0.03	39.06	156963.0	455.0	21530	0.23
5317STDY8020165	60.02	122380.0	935.0	1.23	1.44	5.22	148.35	0.01	0.47	150.0	73.0	122119.0	120939.0	322863.0	1287.0	0	0.0	537961.0	215	0.01	0.04	34.49	185547.0	433.0	28049	0.24
5317STDY8020166	55.08	75473.0	425.0	1.18	1.46	7.56	148.05	0.01	0.5	150.0	27.0	75238.0	74684.0	154230.0	798.0	0	0.0	280035.0	84	0.01	0.03	37.06	103769.0	337.0	21154	0.28
5317STDY8020167	34.99	216.0	1.0	1.0	1.6	50.59	146.01	0.01	0.56	150.0	0.0	216.0	215.0	597.0	4.0	0	0.0	1706.0	0	0.01	0.0	14.19	242.0	0.0	863	0.23
5317STDY8020168	30.06	140.0	0.0	1.5	1.0	60.51	146.13	0.01	0.51	150.0	0.0	140.0	140.0	389.0	3.0	0	0.0	1294.0	0	0.01	0.0	9.2	119.0	0.0	783	0.23
5317STDY8020169	10.92	1155.0	8.0	1.39	1.9	82.1	142.64	0.02	0.59	150.0	1.0	1145.0	1138.0	2885.0	81.0	0	0.0	26413.0	5	0.01	0.02	6.66	1758.0	8.0	21684	0.31
5317STDY8020170	66.71	124831.0	812.0	1.25	1.43	6.92	148.08	0.01	0.49	150.0	35.0	124506.0	123472.0	313602.0	1047.0	0	0.0	470102.0	235	0.01	0.05	26.09	122648.0	512.0	32570	0.22
5317STDY8020171	67.82	95588.0	763.0	1.25	1.54	9.62	147.82	0.02	0.49	150.0	44.0	95303.0	94298.0	278936.0	614.0	0	0.0	411279.0	329	0.01	0.08	22.34	91873.0	483.0	39527	0.15
5317STDY8020172	67.05	96580.0	780.0	1.28	1.5	12.13	148.17	0.01	0.49	150.0	60.0	96261.0	95137.0	331603.0	1218.0	0	0.0	494563.0	346	0.01	0.07	20.5	101393.0	603.0	60003	0.25
5317STDY8020173	54.36	110428.0	710.0	1.26	1.43	10.07	147.37	0.01	0.49	150.0	48.0	110093.0	108954.0	273180.0	1492.0	0	0.0	502502.0	100	0.01	0.02	35.25	177130.0	716.0	50600	0.3
5317STDY8020174	70.41	77769.0	664.0	1.31	1.57	7.94	148.41	0.01	0.52	150.0	57.0	77556.0	76630.0	248891.0	755.0	0	0.0	353492.0	141	0.01	0.04	21.4	75654.0	418.0	28051	0.21
5317STDY8020175	63.83	73645.0	573.0	1.28	1.49	9.86	148.03	0.01	0.51	150.0	30.0	73346.0	72676.0	206072.0	942.0	0	0.0	322833.0	323	0.01	0.1	25.92	83681.0	366.0	31815	0.29
5317STDY8020176	64.06	93451.0	614.0	1.27	1.51	6.26	148.06	0.01	0.5	150.0	61.0	93166.0	92313.0	268171.0	844.0	0	0.0	418646.0	209	0.01	0.05	29.43	123210.0	463.0	26212	0.2
5317STDY8020177	66.4	93321.0	530.0	1.23	1.48	6.7	148.14	0.01	0.49	150.0	72.0	93024.0	92341.0	222564.0	608.0	0	0.0	335180.0	201	0.01	0.06	26.66	89345.0	378.0	22462	0.18
5317STDY8020178	59.55	44677.0	310.0	1.38	1.75	7.72	147.75	0.01	0.51	150.0	20.0	44560.0	44224.0	74984.0	238.0	0	0.0	125908.0	63	0.01	0.05	32.48	40900.0	123.0	9723	0.19
5317STDY8020179	48.54	146.0	1.0	1.0	1.71	30.9	146.68	0.02	0.67	150.0	0.0	146.0	145.0	399.0	0.0	0	0.0	822.0	0	0.0	0.0	20.56	169.0	0.0	254	0.0
5317STDY8020180	24.46	119.0	0.0	1.0	1.0	68.42	145.61	0.01	0.51	150.0	0.0	111.0	113.0	340.0	3.0	0	0.0	1390.0	1	0.01	0.07	6.83	95.0	6.0	951	0.22
5317STDY8020181	25.31	208.0	0.0	1.25	1.0	63.12	146.6	0.0	0.62	150.0	0.0	208.0	208.0	599.0	5.0	0	0.0	2367.0	1	0.01	0.04	11.32	268.0	0.0	1494	0.21
5317STDY8020182	15.42	210.0	0.0	1.12	2.33	75.87	146.38	0.02	0.59	150.0	0.0	210.0	210.0	646.0	2.0	0	0.0	4190.0	0	0.01	0.0	8.66	363.0	0.0	3179	0.05
5317STDY8020183	17.79	246.0	0.0	1.08	1.0	74.78	146.99	0.01	0.57	150.0	0.0	245.0	245.0	725.0	7.0	0	0.0	4076.0	1	0.01	0.02	7.24	295.0	1.0	3048	0.17
5317STDY8020184	18.64	156.0	2.0	1.67	1.0	71.76	146.4	0.0	0.58	150.0	0.0	154.0	152.0	542.0	7.0	0	0.0	2907.0	0	0.01	0.0	9.36	272.0	2.0	2086	0.24
5317STDY8020185	16.17	216.0	2.0	1.0	1.5	74.83	146.57	0.01	0.58	150.0	0.0	213.0	210.0	534.0	3.0	0	0.0	3302.0	0	0.01	0.0	8.9	294.0	4.0	2471	0.09
5317STDY8020186	45.39	169.0	2.0	1.2	1.75	29.7	146.45	0.01	0.53	150.0	0.0	167.0	165.0	483.0	4.0	0	0.0	1064.0	0	0.01	0.0	24.53	261.0	2.0	316	0.38
5317STDY8020187	57.12	95964.0	235.0	1.21	1.42	21.39	145.57	0.01	0.43	150.0	2.0	95743.0	95250.0	168174.0	812.0	0	0.0	294444.0	59	0.01	0.02	21.2	62430.0	477.0	62969	0.28
5317STDY8020188	65.78	128971.0	816.0	1.19	1.45	8.19	147.43	0.02	0.46	150.0	110.0	128566.0	127075.0	232774.0	1662.0	0	0.0	353890.0	354	0.01	0.1	25.46	90112.0	970.0	28988	0.47
5317STDY8020189	55.49	218572.0	1347.0	1.25	1.46	4.19	148.18	0.01	0.42	150.0	162.0	218127.0	216356.0	445276.0	1617.0	0	0.0	802505.0	401	0.01	0.05	40.07	321596.0	707.0	33615	0.2
5317STDY8020190	29.52	21086.0	172.0	1.27	1.46	19.27	146.52	0.01	0.65	150.0	13.0	20858.0	20690.0	76487.0	1145.0	0	0.0	259093.0	104	0.01	0.04	50.74	131451.0	211.0	49906	0.44
5317STDY8020191	36.27	61549.0	382.0	1.25	1.46	13.82	146.0	0.01	0.57	150.0	33.0	61182.0	60673.0	159069.0	1618.0	0	0.0	438621.0	88	0.02	0.02	49.52	217226.0	461.0	60620	0.37
5317STDY8020192	26.75	51888.0	392.0	1.23	1.41	18.62	146.36	0.01	0.51	150.0	44.0	51640.0	50606.0	182789.0	2131.0	0	0.0	683302.0	205	0.02	0.03	54.29	370995.0	846.0	127182	0.31
5317STDY8020193	27.52	24698.0	154.0	1.27	1.52	17.09	146.1	0.01	0.57	150.0	19.0	24573.0	24328.0	82501.0	1022.0	0	0.0	299757.0	60	0.02	0.02	55.02	164923.0	197.0	51251	0.34
5317STDY8020194	22.39	24682.0	153.0	1.19	1.61	26.31	145.86	0.01	0.55	150.0	11.0	24506.0	24240.0	103851.0	1473.0	0	0.0	463754.0	139	0.01	0.03	50.95	236261.0	278.0	122030	0.32
5317STDY8020195	19.19	17208.0	153.0	1.22	1.39	33.48	145.0	0.01	0.49	150.0	1.0	17098.0	16768.0	82101.0	1072.0	0	0.0	427862.0	428	0.01	0.1	46.98	201028.0	286.0	143233	0.25
5317STDY8020196	11.0	3267.0	10.0	1.39	2.17	73.06	145.17	0.02	0.49	150.0	1.0	3218.0	3176.0	16282.0	342.0	0	0.0	147995.0	44	0.02	0.03	15.68	23210.0	80.0	108117	0.23
5317STDY8020197	35.26	37891.0	271.0	1.24	1.39	13.54	147.28	0.01	0.59	150.0	32.0	37661.0	37341.0	111608.0	1070.0	0	0.0	316517.0	127	0.01	0.04	50.82	160867.0	247.0	42845	0.34
5317STDY8020198	32.48	17660.0	142.0	1.28	1.45	15.24	146.65	0.01	0.61	150.0	10.0	17522.0	17366.0	63725.0	849.0	0	0.0	196194.0	59	0.02	0.03	51.81	101655.0	142.0	29906	0.43
5317STDY8020199	51.81	170710.0	1251.0	1.3	1.43	8.65	148.12	0.01	0.43	150.0	164.0	170268.0	168543.0	398788.0	1439.0	0	0.0	769689.0	385	0.01	0.05	39.31	302552.0	752.0	66525	0.19
5317STDY8020200	45.88	121357.0	661.0	1.29	1.55	9.69	146.82	0.01	0.51	150.0	33.0	120866.0	119968.0	256620.0	2209.0	0	0.0	559367.0	280	0.01	0.05	43.99	246079.0	695.0	54179	0.39
5317STDY8020201	58.72	53763.0	323.0	1.16	1.4	30.18	144.86	0.01	0.5	150.0	26.0	53586.0	53103.0	130437.0	435.0	0	0.0	222136.0	111	0.01	0.05	10.85	24102.0	311.0	67051	0.2
5317STDY8020202	60.75	218466.0	1375.0	1.27	1.55	9.1	147.3	0.01	0.46	150.0	112.0	217983.0	215877.0	471784.0	1442.0	0	0.0	776646.0	388	0.01	0.05	29.93	232414.0	1102.0	70618	0.19
5317STDY8020203	54.42	193976.0	1350.0	1.27	1.49	9.19	147.73	0.01	0.46	150.0	110.0	193411.0	190872.0	479655.0	2293.0	0	0.0	881468.0	528	0.01	0.06	36.08	318050.0	1644.0	80942	0.26
5317STDY8020204	53.48	26428.0	166.0	1.25	1.55	12.92	147.66	0.01	0.6	150.0	14.0	26275.0	26113.0	77047.0	366.0	0	0.0	144069.0	29	0.01	0.02	33.33	48012.0	135.0	18615	0.25
5317STDY8020205	28.44	30555.0	199.0	1.28	1.47	13.62	146.73	0.01	0.59	150.0	24.0	30364.0	30144.0	92861.0	1503.0	0	0.0	326515.0	65	0.02	0.02	57.47	187635.0	188.0	44451	0.46
5317STDY8020206	24.9	31522.0	231.0	1.25	1.49	16.15	146.63	0.01	0.59	150.0	41.0	31323.0	31034.0	108756.0	2000.0	0	0.0	436757.0	131	0.02	0.03	58.46	255342.0	216.0	70528	0.46
5317STDY8020207	24.29	38584.0	352.0	1.25	1.46	14.98	146.77	0.01	0.57	150.0	30.0	38325.0	37765.0	145950.0	3454.0	0	0.0	600919.0	120	0.02	0.02	60.14	361411.0	437.0	89984	0.57
5317STDY8020208	22.87	13648.0	84.0	1.25	1.51	22.14	145.98	0.02	0.6	150.0	22.0	13505.0	13393.0	55966.0	897.0	0	0.0	244742.0	73	0.01	0.03	54.6	133630.0	149.0	54176	0.37
5317STDY8020209	22.09	25971.0	351.0	1.27	1.48	18.43	146.45	0.01	0.59	150.0	17.0	25743.0	25356.0	103750.0	2376.0	0	0.0	469599.0	141	0.02	0.03	58.95	276819.0	247.0	86513	0.51
5317STDY8020210	34.69	39146.0	331.0	1.29	1.56	15.17	147.03	0.01	0.59	150.0	29.0	38903.0	38526.0	138798.0	1655.0	0	0.0	400115.0	200	0.02	0.05	49.68	198771.0	260.0	60691	0.41
5317STDY8020211	58.9	128060.0	983.0	1.27	1.49	8.26	148.15	0.01	0.5	150.0	76.0	127671.0	126267.0	335266.0	1172.0	0	0.0	569165.0	284	0.01	0.05	32.58	185462.0	734.0	46981	0.21
5317STDY8020212	53.72	114779.0	747.0	1.26	1.56	12.94	146.92	0.01	0.47	150.0	73.0	114335.0	113136.0	303690.0	1362.0	0	0.0	565286.0	396	0.01	0.07	33.02	186674.0	823.0	73164	0.24
5317STDY8020213	57.48	96836.0	530.0	1.28	1.54	11.87	146.06	0.01	0.47	150.0	20.0	96524.0	95785.0	196228.0	1217.0	0	0.0	341409.0	205	0.01	0.06	30.24	103252.0	501.0	40507	0.36
5317STDY8020214	55.0	162958.0	1070.0	1.29	1.46	7.36	147.77	0.01	0.48	150.0	84.0	162505.0	161075.0	367715.0	1596.0	0	0.0	668586.0	468	0.01	0.07	37.33	249602.0	729.0	49205	0.24
5317STDY8020215	50.56	57160.0	474.0	1.26	1.45	11.33	147.36	0.01	0.54	150.0	26.0	56859.0	56353.0	149249.0	830.0	0	0.0	295217.0	89	0.01	0.03	37.81	111621.0	307.0	33428	0.28
5317STDY8020216	54.92	150565.0	1052.0	1.27	1.45	9.15	147.57	0.01	0.47	150.0	142.0	150077.0	148417.0	370739.0	1064.0	0	0.0	675056.0	202	0.01	0.03	35.75	241307.0	954.0	61744	0.16
5317STDY8020217	58.56	153669.0	1199.0	1.27	1.52	9.98	147.31	0.01	0.47	150.0	44.0	153128.0	151353.0	389548.0	2099.0	0	0.0	665194.0	466	0.01	0.07	31.07	206688.0	1073.0	66393	0.32
5317STDY8020218	52.73	71794.0	270.0	1.25	1.54	14.83	145.86	0.01	0.49	150.0	21.0	71502.0	71072.0	158589.0	918.0	0	0.0	300745.0	90	0.02	0.03	32.1	96537.0	431.0	44611	0.31
5317STDY8020219	52.08	124896.0	824.0	1.3	1.48	9.07	147.39	0.01	0.5	150.0	57.0	124452.0	123178.0	296881.0	2020.0	0	0.0	570030.0	285	0.01	0.05	38.44	219136.0	837.0	51708	0.35
5317STDY8020220	42.96	98202.0	656.0	1.3	1.58	8.6	147.24	0.04	0.55	150.0	64.0	97738.0	96805.0	233503.0	2871.0	0	0.0	543578.0	163	0.01	0.03	47.89	260330.0	677.0	46711	0.53
5317STDY8020221	17.8	313.0	1.0	1.74	1.26	75.52	140.63	0.01	0.72	150.0	0.0	306.0	307.0	1315.0	24.0	0	0.0	7387.0	1	0.02	0.01	6.34	468.0	5.0	5579	0.32
5317STDY8020222	36.22	52156.0	310.0	1.25	1.46	19.53	147.45	0.01	0.55	150.0	38.0	51873.0	51513.0	162609.0	1456.0	0	0.0	448921.0	224	0.01	0.05	43.87	196955.0	295.0	87677	0.32
5317STDY8020223	30.23	50403.0	354.0	1.29	1.39	18.49	146.8	0.01	0.51	150.0	43.0	50158.0	49553.0	200868.0	2405.0	0	0.0	664357.0	332	0.01	0.05	50.86	337913.0	453.0	122839	0.36
5317STDY8020224	32.69	53365.0	437.0	1.25	1.4	19.7	145.66	0.01	0.52	150.0	30.0	53121.0	52354.0	164380.0	1593.0	0	0.0	502842.0	201	0.02	0.04	47.25	237594.0	544.0	99074	0.32
5317STDY8020225	30.99	46506.0	300.0	1.27	1.36	14.62	146.34	0.01	0.55	150.0	41.0	46280.0	45892.0	145264.0	2264.0	0	0.0	468800.0	281	0.02	0.06	53.85	252448.0	273.0	68543	0.48
5317STDY8020226	28.37	4336.0	35.0	1.19	1.49	21.84	145.75	0.01	0.7	150.0	3.0	4277.0	4258.0	16589.0	226.0	0	0.0	58472.0	18	0.01	0.03	49.38	28872.0	40.0	12767	0.39
5317STDY8020227	29.37	39279.0	275.0	1.24	1.46	15.82	146.97	0.01	0.58	150.0	12.0	39051.0	38664.0	122190.0	1524.0	0	0.0	416069.0	83	0.01	0.02	54.43	226457.0	328.0	65815	0.37
5317STDY8020228	30.01	47433.0	424.0	1.23	1.48	17.37	146.92	0.01	0.56	150.0	30.0	47121.0	46446.0	163673.0	2064.0	0	0.0	545374.0	164	0.02	0.03	52.21	284729.0	533.0	94744	0.38
5317STDY8020229	30.29	47594.0	391.0	1.23	1.5	20.65	146.89	0.01	0.53	150.0	46.0	47265.0	46709.0	191618.0	2818.0	0	0.0	632690.0	253	0.02	0.04	48.58	307346.0	448.0	130655	0.45
5317STDY8020230	21.79	18282.0	132.0	1.26	1.41	35.37	146.81	0.01	0.61	150.0	15.0	18096.0	17943.0	67571.0	993.0	0	0.0	310113.0	62	0.01	0.02	42.5	131800.0	192.0	109687	0.32
5317STDY8020231	34.29	61850.0	481.0	1.29	1.54	14.29	147.24	0.01	0.54	150.0	40.0	61421.0	60687.0	214526.0	3145.0	0	0.0	625645.0	250	0.01	0.04	50.88	318309.0	642.0	89415	0.5
5317STDY8020232	23.58	41250.0	313.0	1.28	1.58	30.19	147.4	0.02	0.55	150.0	47.0	40922.0	40504.0	139079.0	1684.0	0	0.0	589716.0	59	0.01	0.01	45.92	270816.0	386.0	178078	0.29
5317STDY8020233	43.31	10350.0	94.0	1.25	1.43	43.61	142.75	0.02	0.66	150.0	0.0	10223.0	10151.0	34789.0	127.0	0	0.0	80334.0	48	0.02	0.06	12.87	10336.0	105.0	35034	0.16
5317STDY8020234	56.32	55090.0	409.0	1.25	1.46	10.9	147.64	0.01	0.57	150.0	36.0	54768.0	54304.0	173903.0	788.0	0	0.0	308776.0	185	0.01	0.06	32.46	100222.0	341.0	33678	0.26
5317STDY8020235	62.71	142585.0	1047.0	1.31	1.5	9.66	148.06	0.01	0.51	150.0	110.0	142167.0	140923.0	343115.0	1111.0	0	0.0	547129.0	383	0.01	0.07	27.35	149658.0	505.0	52862	0.2
5317STDY8020236	56.24	178157.0	1254.0	1.31	1.61	8.37	147.77	0.01	0.43	150.0	170.0	177731.0	175562.0	417980.0	1941.0	0	0.0	743191.0	371	0.01	0.05	35.08	260728.0	1171.0	62171	0.26
5317STDY8020237	36.99	37777.0	353.0	1.21	1.46	20.24	147.31	0.01	0.54	150.0	40.0	37586.0	37131.0	108082.0	938.0	0	0.0	292183.0	58	0.02	0.02	42.42	123944.0	253.0	59161	0.32
5317STDY8020238	48.31	121980.0	938.0	1.27	1.45	17.5	147.93	0.01	0.43	150.0	72.0	121586.0	120176.0	311519.0	1435.0	0	0.0	644776.0	387	0.01	0.06	33.91	218614.0	794.0	112821	0.22
5317STDY8020239	62.45	129310.0	1020.0	1.29	1.5	7.93	148.06	0.01	0.48	150.0	92.0	128928.0	127612.0	355174.0	1613.0	0	0.0	568706.0	284	0.01	0.05	29.29	166586.0	586.0	45049	0.28
5317STDY8020240	29.5	28355.0	202.0	1.3	1.52	20.67	147.02	0.01	0.61	150.0	42.0	28149.0	27870.0	87056.0	1190.0	0	0.0	295088.0	89	0.01	0.03	49.39	145748.0	241.0	61005	0.4
5317STDY8020241	45.08	137302.0	1004.0	1.26	1.49	9.22	147.86	0.01	0.48	150.0	81.0	136833.0	135506.0	356416.0	2091.0	0	0.0	790570.0	395	0.01	0.05	45.38	358748.0	711.0	72920	0.26
5317STDY8020242	54.83	145674.0	1000.0	1.27	1.46	12.3	147.83	0.01	0.49	150.0	135.0	145220.0	143706.0	390625.0	1911.0	0	0.0	712461.0	356	0.01	0.05	32.55	231930.0	833.0	87639	0.27
5317STDY8020243	44.76	100256.0	660.0	1.26	1.47	17.44	147.72	0.01	0.5	150.0	99.0	99836.0	98758.0	280387.0	2096.0	0	0.0	626394.0	250	0.01	0.04	37.43	234464.0	739.0	109197	0.33
5317STDY8020244	47.25	94029.0	725.0	1.24	1.46	11.5	147.22	0.01	0.51	150.0	54.0	93614.0	92647.0	306419.0	2459.0	0	0.0	648476.0	195	0.01	0.03	40.84	264822.0	603.0	74581	0.38
5317STDY8020245	57.74	86815.0	694.0	1.26	1.53	9.94	147.73	0.01	0.52	150.0	55.0	86495.0	85591.0	235722.0	1286.0	0	0.0	408261.0	204	0.01	0.05	31.96	130488.0	475.0	40561	0.31
5317STDY8020246	60.0	203019.0	1557.0	1.28	1.46	8.14	147.94	0.01	0.45	150.0	187.0	202552.0	200335.0	504054.0	1359.0	0	0.0	840106.0	504	0.01	0.06	31.64	265786.0	940.0	68403	0.16
5317STDY8020247	59.32	140175.0	1054.0	1.33	1.47	8.61	148.17	0.01	0.5	150.0	90.0	139759.0	138281.0	386579.0	1179.0	0	0.0	651712.0	326	0.01	0.05	31.85	207548.0	750.0	56080	0.18
5317STDY8020248	62.55	35683.0	176.0	1.28	1.73	19.84	145.44	0.01	0.48	150.0	20.0	35527.0	35223.0	95522.0	516.0	0	0.0	152715.0	229	0.02	0.15	17.13	26159.0	264.0	30289	0.34
5317STDY8020249	62.1	117192.0	952.0	1.3	1.46	8.04	148.08	0.01	0.48	150.0	42.0	116796.0	115357.0	348102.0	1165.0	0	0.0	560578.0	448	0.01	0.08	29.58	165793.0	841.0	45070	0.21
5317STDY8020250	55.21	130840.0	832.0	1.27	1.48	7.15	147.69	0.02	0.43	150.0	69.0	130437.0	129276.0	304641.0	1838.0	0	0.0	551789.0	331	0.01	0.06	37.24	205488.0	663.0	39491	0.33
5317STDY8020251	53.73	125033.0	926.0	1.26	1.48	8.45	147.91	0.01	0.42	150.0	94.0	124703.0	123342.0	306893.0	1171.0	0	0.0	571212.0	286	0.01	0.05	37.57	214597.0	671.0	48265	0.21
5317STDY8020252	58.46	39608.0	257.0	1.25	1.56	9.87	147.89	0.01	0.58	150.0	35.0	39445.0	39121.0	101835.0	529.0	0	0.0	174209.0	70	0.01	0.04	31.33	54573.0	195.0	17202	0.3
5317STDY8020253	49.21	130073.0	939.0	1.27	1.44	11.22	147.88	0.01	0.47	150.0	90.0	129661.0	128361.0	357436.0	1659.0	0	0.0	726389.0	291	0.01	0.04	39.3	285491.0	683.0	81512	0.23
5317STDY8020254	56.92	113564.0	984.0	1.26	1.49	10.39	147.95	0.01	0.5	150.0	53.0	113219.0	111842.0	347885.0	1350.0	0	0.0	611144.0	489	0.01	0.08	32.38	197913.0	685.0	63507	0.22
5317STDY8020255	48.19	85153.0	623.0	1.25	1.54	12.99	147.5	0.01	0.54	150.0	58.0	84798.0	84040.0	220630.0	1258.0	0	0.0	457852.0	183	0.01	0.04	38.51	176303.0	432.0	59478	0.27
5317STDY8020256	56.76	157417.0	884.0	1.3	1.48	10.44	147.49	0.01	0.48	150.0	79.0	157013.0	155638.0	353265.0	1314.0	0	0.0	622359.0	249	0.01	0.04	32.54	202538.0	816.0	64993	0.21
5317STDY8020257	63.96	69189.0	459.0	1.23	1.53	7.78	147.94	0.01	0.54	150.0	62.0	68940.0	68394.0	180713.0	605.0	0	0.0	282558.0	141	0.01	0.05	28.0	79124.0	274.0	21975	0.21
5317STDY8020258	67.02	104024.0	809.0	1.28	1.57	6.7	148.08	0.01	0.52	150.0	81.0	103714.0	102666.0	253407.0	656.0	0	0.0	378104.0	151	0.01	0.04	26.07	98566.0	468.0	25324	0.17
5317STDY8020259	60.33	88515.0	737.0	1.27	1.57	10.47	148.1	0.01	0.53	150.0	45.0	88171.0	87292.0	258053.0	988.0	0	0.0	427714.0	256	0.01	0.06	28.91	123663.0	441.0	44754	0.23
5317STDY8020260	38.0	141.0	2.0	1.0	1.62	37.8	147.16	0.02	0.49	150.0	0.0	141.0	139.0	383.0	1.0	0	0.0	1008.0	0	0.01	0.0	24.11	243.0	0.0	381	0.1
5317STDY8020261	65.4	45016.0	160.0	1.24	1.79	19.7	144.93	0.01	0.46	150.0	3.0	44843.0	44575.0	102496.0	312.0	0	0.0	156723.0	94	0.01	0.06	14.64	22946.0	278.0	30875	0.2
5317STDY8020262	63.41	77022.0	328.0	1.3	1.6	19.59	145.77	0.01	0.44	150.0	13.0	76841.0	76333.0	148665.0	607.0	0	0.0	234450.0	70	0.01	0.03	16.71	39184.0	348.0	45924	0.26
5317STDY8020263	61.61	160038.0	857.0	1.27	1.41	7.86	147.48	0.01	0.45	150.0	117.0	159668.0	158082.0	373277.0	1099.0	0	0.0	605878.0	242	0.01	0.04	30.31	183627.0	982.0	47633	0.18
5317STDY8020264	64.41	166355.0	1307.0	1.28	1.6	9.56	147.23	0.01	0.46	150.0	24.0	165889.0	164093.0	369813.0	997.0	0	0.0	574174.0	172	0.01	0.03	25.82	148265.0	931.0	54927	0.17
5317STDY8020265	58.3	156704.0	1134.0	1.34	1.44	8.12	148.04	0.01	0.49	150.0	108.0	156260.0	154595.0	398086.0	1424.0	0	0.0	682787.0	546	0.01	0.08	33.29	227303.0	867.0	55428	0.21
5317STDY8020266	59.11	143868.0	1060.0	1.24	1.52	9.76	147.87	0.01	0.47	150.0	142.0	143459.0	141914.0	347978.0	914.0	0	0.0	588669.0	295	0.01	0.05	30.92	181988.0	752.0	57494	0.16
5317STDY8020267	58.54	122822.0	869.0	1.32	1.5	9.44	147.08	0.01	0.45	150.0	69.0	122540.0	121142.0	305216.0	1084.0	0	0.0	521360.0	313	0.01	0.06	31.75	165531.0	742.0	49216	0.21
5317STDY8020268	62.2	59067.0	369.0	1.3	1.54	9.14	147.71	0.01	0.55	150.0	29.0	58816.0	58400.0	165919.0	527.0	0	0.0	266742.0	133	0.01	0.05	28.42	75798.0	269.0	24365	0.2
5317STDY8020269	50.58	21248.0	72.0	1.2	1.74	36.43	142.61	0.01	0.59	150.0	9.0	21072.0	21017.0	58500.0	261.0	0	0.0	115657.0	58	0.02	0.05	12.71	14702.0	150.0	42136	0.23
5317STDY8020270	62.02	122228.0	885.0	1.31	1.56	7.42	148.07	0.01	0.51	150.0	130.0	121891.0	120556.0	309836.0	868.0	0	0.0	499614.0	150	0.01	0.03	30.37	151719.0	657.0	37041	0.17
5317STDY8020271	59.89	126055.0	941.0	1.25	1.45	11.12	148.07	0.01	0.51	150.0	100.0	125696.0	124256.0	359659.0	1149.0	0	0.0	600555.0	360	0.01	0.06	28.74	172611.0	758.0	66776	0.19
5317STDY8020272	61.75	200348.0	1388.0	1.27	1.55	6.74	147.84	0.01	0.46	150.0	127.0	199917.0	197838.0	458397.0	976.0	0	0.0	742313.0	371	0.01	0.05	31.33	232547.0	995.0	50022	0.13
5317STDY8020273	65.06	131819.0	1093.0	1.24	1.57	8.54	147.94	0.01	0.5	150.0	81.0	131493.0	129940.0	343393.0	1028.0	0	0.0	527806.0	317	0.01	0.06	26.15	138008.0	705.0	45060	0.19
5317STDY8020274	64.15	199183.0	1565.0	1.25	1.44	6.64	148.14	0.01	0.47	150.0	123.0	198760.0	196349.0	498699.0	1439.0	0	0.0	777449.0	233	0.01	0.03	29.0	225450.0	1146.0	51628	0.19
5317STDY8020275	61.33	144832.0	967.0	1.27	1.49	6.78	148.35	0.01	0.5	150.0	101.0	144433.0	143016.0	387198.0	1383.0	0	0.0	631337.0	379	0.01	0.06	31.61	199543.0	748.0	42834	0.22
5317STDY8020276	43.99	99.0	0.0	1.0	0.0	21.49	145.98	0.0	0.58	150.0	0.0	99.0	99.0	260.0	4.0	0	0.0	591.0	1	0.01	0.17	33.67	199.0	0.0	127	0.68
5317STDY8020277	70.68	64596.0	469.0	1.25	1.6	10.97	146.83	0.01	0.57	150.0	36.0	63782.0	62487.0	357547.0	1446.0	0	0.0	505891.0	911	0.01	0.18	17.89	90486.0	1604.0	55501	0.29
5317STDY8020278	52.68	162980.0	1215.0	1.26	1.5	7.37	147.93	0.01	0.43	150.0	149.0	162664.0	160780.0	354680.0	1520.0	0	0.0	673256.0	471	0.01	0.07	39.65	266944.0	836.0	49641	0.23
5317STDY8020279	52.54	23680.0	122.0	1.33	1.57	12.55	147.74	0.01	0.58	150.0	13.0	23570.0	23425.0	64141.0	361.0	0	0.0	122076.0	61	0.01	0.05	34.57	42203.0	120.0	15310	0.3
5317STDY8020280	50.12	7167.0	50.0	1.26	1.57	30.63	147.11	0.01	0.6	150.0	12.0	7128.0	7072.0	24285.0	108.0	0	0.0	48453.0	29	0.02	0.06	18.97	9190.0	33.0	14841	0.22
5317STDY8020281	64.24	78758.0	569.0	1.29	1.52	21.19	146.88	0.01	0.5	150.0	111.0	78499.0	77459.0	180884.0	511.0	0	0.0	281557.0	56	0.01	0.02	14.36	40441.0	619.0	59665	0.18
5317STDY8020282	79.17	228289.0	1723.0	1.25	1.51	8.45	147.73	0.01	0.48	150.0	196.0	227962.0	225191.0	471875.0	575.0	0	0.0	596015.0	119	0.01	0.02	12.26	73095.0	1179.0	50351	0.1
5317STDY8020283	73.05	224390.0	1409.0	1.2	1.54	10.44	147.47	0.01	0.49	150.0	138.0	223963.0	221808.0	435411.0	729.0	0	0.0	596067.0	358	0.01	0.06	16.33	97340.0	1035.0	62229	0.12
5317STDY8020284	75.65	222926.0	1093.0	1.32	1.55	8.54	147.87	0.01	0.46	150.0	233.0	222528.0	220538.0	442741.0	556.0	0	0.0	585243.0	58	0.01	0.01	15.71	91933.0	1062.0	49955	0.1
5317STDY8020285	75.87	184666.0	1252.0	1.38	1.44	11.0	147.8	0.01	0.5	150.0	112.0	184159.0	182092.0	400980.0	453.0	0	0.0	528514.0	53	0.01	0.01	13.03	68891.0	1210.0	58137	0.09
5317STDY8020286	77.43	84646.0	584.0	1.39	1.54	9.86	147.69	0.01	0.53	150.0	86.0	84471.0	83507.0	198298.0	490.0	0	0.0	256094.0	154	0.01	0.06	12.46	31908.0	469.0	25244	0.19
5317STDY8020287	71.44	140750.0	964.0	1.33	1.56	13.74	147.62	0.01	0.5	150.0	221.0	140355.0	138319.0	384003.0	642.0	0	0.0	537547.0	215	0.01	0.04	14.66	78779.0	1246.0	73908	0.12
5317STDY8020288	72.07	70906.0	584.0	1.36	1.56	10.6	147.3	0.01	0.5	150.0	31.0	70694.0	69802.0	223325.0	515.0	0	0.0	309881.0	155	0.01	0.05	17.12	53052.0	489.0	32834	0.17
5317STDY8020289	73.27	143288.0	1104.0	1.26	1.53	13.22	147.82	0.01	0.51	150.0	67.0	142986.0	141628.0	287264.0	724.0	0	0.0	392064.0	235	0.01	0.06	13.26	52005.0	489.0	51836	0.18
5317STDY8020290	67.58	67512.0	562.0	1.3	1.54	16.99	147.71	0.01	0.53	150.0	50.0	67324.0	66542.0	183255.0	443.0	0	0.0	271182.0	190	0.01	0.07	15.2	41231.0	358.0	46063	0.16
5317STDY8020291	65.88	218270.0	1391.0	1.3	1.68	8.4	147.62	0.01	0.47	150.0	107.0	217859.0	216100.0	384313.0	914.0	0	0.0	583312.0	175	0.01	0.03	25.53	148899.0	672.0	49011	0.16
5317STDY8020292	61.3	34443.0	262.0	1.22	1.49	31.91	142.82	0.01	0.53	150.0	1.0	34219.0	33884.0	105082.0	388.0	0	0.0	171434.0	34	0.01	0.02	6.55	11234.0	296.0	54696	0.23
5317STDY8020293	72.71	212995.0	1314.0	1.31	1.53	15.12	147.06	0.01	0.46	150.0	68.0	212295.0	210353.0	525130.0	769.0	0	0.0	722222.0	217	0.01	0.03	12.04	86928.0	1260.0	109178	0.11
5317STDY8020294	76.58	161234.0	494.0	1.23	1.53	15.17	145.84	0.01	0.46	150.0	33.0	160866.0	160076.0	330915.0	840.0	0	0.0	432111.0	173	0.01	0.04	8.02	34650.0	631.0	65533	0.19
5317STDY8020295	73.4	170135.0	489.0	1.22	1.49	18.29	145.16	0.01	0.46	150.0	147.0	169717.0	168474.0	369510.0	576.0	0	0.0	503399.0	151	0.01	0.03	8.17	41117.0	1025.0	92045	0.11
5317STDY8020296	62.38	52438.0	307.0	1.22	1.47	30.57	143.83	0.01	0.49	150.0	1.0	52240.0	51473.0	187529.0	469.0	0	0.0	300642.0	180	0.01	0.06	6.84	20574.0	657.0	91890	0.16
5317STDY8020297	72.25	264426.0	1258.0	1.23	1.51	18.18	146.7	0.01	0.45	150.0	297.0	263990.0	261894.0	494971.0	704.0	0	0.0	685063.0	69	0.01	0.01	9.45	64745.0	977.0	124574	0.1
5317STDY8020298	67.5	174670.0	1235.0	1.17	1.5	19.93	147.16	0.01	0.46	150.0	229.0	174188.0	172244.0	428239.0	497.0	0	0.0	634457.0	254	0.01	0.04	12.45	78993.0	962.0	126474	0.08
5317STDY8020299	44.32	82941.0	237.0	1.17	1.39	51.04	144.91	0.01	0.45	150.0	9.0	82529.0	81859.0	207920.0	508.0	0	0.0	469185.0	188	0.01	0.04	4.49	21087.0	836.0	239482	0.11
5317STDY8020300	64.63	25697.0	81.0	1.35	1.79	28.66	144.09	0.01	0.45	150.0	10.0	25635.0	25353.0	57989.0	543.0	0	0.0	89721.0	36	0.01	0.04	6.07	5443.0	253.0	25710	0.61
5317STDY8020301	32.31	666.0	1.0	1.3	1.17	62.9	144.37	0.01	0.5	150.0	0.0	660.0	662.0	1668.0	3.0	0	0.0	5162.0	2	0.01	0.04	4.69	242.0	3.0	3247	0.06
5317STDY8020302	75.54	222322.0	1244.0	1.32	1.52	13.6	147.1	0.01	0.47	150.0	75.0	221722.0	219732.0	484109.0	1067.0	0	0.0	640875.0	256	0.01	0.04	10.66	68294.0	1271.0	87149	0.17
5317STDY8020303	68.14	175105.0	1319.0	1.28	1.46	10.29	147.16	0.01	0.49	150.0	24.0	174646.0	172820.0	360293.0	645.0	0	0.0	528737.0	317	0.01	0.06	21.38	113067.0	942.0	54415	0.12
5317STDY8020304	60.41	28803.0	115.0	1.42	1.38	28.57	143.88	0.01	0.47	150.0	4.0	28706.0	28570.0	67492.0	424.0	0	0.0	111724.0	78	0.01	0.07	10.58	11818.0	114.0	31912	0.38
5317STDY8020305	74.13	216530.0	1201.0	1.21	1.56	13.92	146.12	0.01	0.44	150.0	185.0	215983.0	214196.0	433069.0	846.0	0	0.0	584219.0	117	0.01	0.02	11.79	68858.0	948.0	81329	0.14
5317STDY8020306	71.51	135321.0	984.0	1.28	1.57	12.26	147.18	0.01	0.48	150.0	147.0	134966.0	133492.0	340380.0	802.0	0	0.0	475966.0	190	0.01	0.04	16.01	76211.0	698.0	58383	0.17
5317STDY8020307	70.66	185776.0	1153.0	1.18	1.55	14.9	146.75	0.01	0.46	150.0	163.0	185309.0	183661.0	390077.0	415.0	0	0.0	552075.0	221	0.01	0.04	14.32	79084.0	799.0	82278	0.08
5317STDY8020308	68.9	98922.0	599.0	1.21	1.47	12.21	146.59	0.01	0.48	150.0	57.0	98606.0	97839.0	267486.0	838.0	0	0.0	388229.0	155	0.01	0.04	18.64	72358.0	427.0	47392	0.22
5317STDY8020309	69.13	171629.0	954.0	1.29	1.55	10.51	147.69	0.01	0.48	150.0	119.0	171212.0	169526.0	422569.0	776.0	0	0.0	611225.0	428	0.01	0.07	20.15	123189.0	1030.0	64263	0.13
5317STDY8020310	70.94	109780.0	551.0	1.26	1.6	10.24	147.23	0.01	0.49	150.0	83.0	109497.0	108762.0	229030.0	449.0	0	0.0	322852.0	97	0.01	0.03	18.65	60217.0	384.0	33059	0.14
5317STDY8020311	70.25	201106.0	1146.0	1.28	1.61	15.28	146.54	0.01	0.45	150.0	41.0	200621.0	198756.0	433446.0	378.0	0	0.0	616966.0	62	0.01	0.01	14.4	88830.0	1163.0	94250	0.06
5317STDY8020312	75.65	231709.0	771.0	1.27	1.63	14.97	146.02	0.01	0.43	150.0	139.0	231272.0	229658.0	448234.0	1413.0	0	0.0	592477.0	178	0.01	0.03	9.11	53958.0	1141.0	88694	0.24
5317STDY8020313	24.81	385.0	3.0	1.29	1.23	70.52	143.82	0.01	0.53	150.0	0.0	382.0	380.0	1121.0	7.0	0	0.0	4518.0	4	0.02	0.09	4.43	200.0	2.0	3186	0.15
5317STDY8020314	66.06	145009.0	1435.0	1.2	1.5	21.87	147.47	0.01	0.48	150.0	55.0	144635.0	142826.0	428221.0	545.0	0	0.0	648242.0	130	0.02	0.02	11.97	77578.0	693.0	141768	0.08
5317STDY8020315	61.84	199900.0	1453.0	1.25	1.54	11.04	147.53	0.01	0.47	150.0	134.0	199520.0	197493.0	359909.0	988.0	0	0.0	582044.0	233	0.01	0.04	26.91	156635.0	820.0	64279	0.17
5317STDY8020316	77.98	257029.0	681.0	1.27	1.53	12.89	146.09	0.01	0.43	150.0	254.0	256586.0	254977.0	458357.0	930.0	0	0.0	587824.0	353	0.01	0.06	8.92	52421.0	1117.0	75763	0.16
5317STDY8020317	74.9	199144.0	1121.0	1.29	1.56	12.84	146.98	0.01	0.45	150.0	73.0	198798.0	197237.0	464023.0	497.0	0	0.0	619487.0	248	0.01	0.04	12.13	75162.0	713.0	79557	0.08
5317STDY8020318	69.31	117270.0	882.0	1.28	1.55	11.4	147.38	0.01	0.48	150.0	106.0	116927.0	115681.0	315656.0	467.0	0	0.0	455457.0	228	0.01	0.05	19.15	87208.0	601.0	51898	0.1
5317STDY8020319	69.21	163128.0	919.0	1.28	1.36	13.27	147.36	0.01	0.47	150.0	96.0	162808.0	161423.0	357360.0	769.0	0	0.0	516354.0	155	0.01	0.03	17.34	89552.0	690.0	68518	0.15
5317STDY8020320	72.68	61870.0	366.0	1.29	1.47	12.0	147.01	0.01	0.5	150.0	25.0	61650.0	61108.0	181954.0	417.0	0	0.0	250358.0	225	0.01	0.09	15.07	37726.0	371.0	30036	0.17
5317STDY8020321	61.72	121368.0	925.0	1.21	1.54	12.39	147.64	0.01	0.49	150.0	35.0	121091.0	119947.0	279335.0	796.0	0	0.0	452603.0	181	0.01	0.04	25.68	116214.0	461.0	56077	0.18
5317STDY8020322	57.85	214039.0	1195.0	1.34	1.58	14.75	147.0	0.01	0.45	150.0	103.0	213688.0	211978.0	351705.0	1171.0	0	0.0	607924.0	122	0.01	0.02	27.19	165281.0	763.0	89645	0.19
5317STDY8020323	40.4	6264.0	58.0	1.24	1.4	51.88	144.86	0.02	0.65	150.0	8.0	6102.0	6029.0	52850.0	297.0	0	0.0	130813.0	196	0.02	0.15	7.34	9601.0	169.0	67869	0.23
5317STDY8020324	64.82	81617.0	437.0	1.48	1.81	11.89	147.6	0.01	0.54	150.0	90.0	81280.0	80629.0	197387.0	590.0	0	0.0	304504.0	61	0.01	0.02	23.07	70263.0	461.0	36203	0.19
5317STDY8020325	39.53	1576.0	11.0	1.13	1.32	54.03	142.69	0.01	0.63	150.0	0.0	1563.0	1550.0	5220.0	27.0	0	0.0	13206.0	4	0.01	0.03	6.21	820.0	15.0	7135	0.2
5317STDY8020326	64.24	60740.0	369.0	1.22	1.54	12.19	147.39	0.01	0.54	150.0	38.0	60515.0	59980.0	173818.0	514.0	0	0.0	270591.0	216	0.01	0.08	23.31	63081.0	353.0	32962	0.19
5317STDY8020327	63.12	154351.0	1232.0	1.28	1.6	13.45	147.11	0.01	0.47	150.0	34.0	153974.0	152445.0	302275.0	389.0	0	0.0	478894.0	96	0.01	0.02	23.32	111685.0	640.0	64449	0.08
5317STDY8020328	77.29	159019.0	871.0	1.36	1.66	10.04	146.65	0.01	0.46	150.0	26.0	158670.0	157039.0	473610.0	1224.0	0	0.0	612735.0	490	0.01	0.08	12.39	75891.0	1083.0	61520	0.2
5317STDY8020329	60.67	72318.0	544.0	1.21	1.35	25.55	146.72	0.01	0.52	150.0	44.0	72047.0	71235.0	202295.0	488.0	0	0.0	333427.0	233	0.02	0.07	13.56	45201.0	495.0	85210	0.15
5317STDY8020330	71.19	161749.0	1050.0	1.28	1.53	13.43	147.18	0.01	0.45	150.0	92.0	161459.0	159710.0	410123.0	1060.0	0	0.0	576068.0	115	0.01	0.02	15.18	87435.0	897.0	77335	0.18
5317STDY8020331	74.49	209116.0	1213.0	1.27	1.57	10.81	147.35	0.01	0.44	150.0	161.0	208577.0	206845.0	430366.0	590.0	0	0.0	577715.0	173	0.01	0.03	14.56	84120.0	897.0	62466	0.1
5317STDY8020332	73.93	197080.0	1561.0	1.36	1.79	15.53	147.07	0.01	0.43	150.0	23.0	196700.0	194499.0	488989.0	1742.0	0	0.0	661427.0	595	0.01	0.09	10.19	67423.0	997.0	102678	0.26
5317STDY8020333	74.02	249337.0	1980.0	1.31	1.49	11.71	147.48	0.01	0.46	150.0	161.0	248763.0	246008.0	533338.0	764.0	0	0.0	720539.0	216	0.01	0.03	14.13	101818.0	1188.0	84403	0.11
5317STDY8020334	69.62	155290.0	805.0	1.19	1.58	16.23	147.03	0.01	0.47	150.0	9.0	154905.0	153558.0	391082.0	690.0	0	0.0	561766.0	281	0.01	0.05	13.98	78553.0	918.0	91160	0.12
5317STDY8020335	65.81	130724.0	703.0	1.26	1.53	20.38	146.81	0.01	0.45	150.0	7.0	130358.0	129164.0	326814.0	734.0	0	0.0	496636.0	149	0.01	0.03	13.64	67728.0	850.0	101211	0.15
5317STDY8020336	74.39	242877.0	1261.0	1.23	1.6	14.12	146.96	0.01	0.46	150.0	187.0	242363.0	240213.0	462241.0	956.0	0	0.0	621407.0	186	0.01	0.03	11.31	70253.0	1216.0	87771	0.15
5317STDY8020337	75.23	144575.0	617.0	1.25	1.67	15.67	146.19	0.01	0.46	150.0	90.0	144115.0	143016.0	276752.0	784.0	0	0.0	367892.0	147	0.01	0.04	8.85	32572.0	852.0	57637	0.21
5317STDY8020338	67.76	113664.0	515.0	1.23	1.62	21.2	145.83	0.01	0.49	150.0	18.0	113156.0	112223.0	244823.0	684.0	0	0.0	361319.0	217	0.01	0.06	10.79	38978.0	908.0	76617	0.19
5317STDY8020339	69.46	224667.0	917.0	1.36	1.6	14.36	146.37	0.01	0.45	150.0	97.0	224145.0	222861.0	340712.0	443.0	0	0.0	490540.0	49	0.01	0.01	16.08	78858.0	792.0	70478	0.09
5317STDY8020340	62.53	65223.0	237.0	1.2	1.42	27.01	144.95	0.01	0.45	150.0	5.0	65040.0	64392.0	132410.0	540.0	0	0.0	211750.0	85	0.01	0.04	10.16	21524.0	589.0	57191	0.26
5317STDY8020341	71.58	248027.0	1650.0	1.28	1.65	14.12	146.68	0.01	0.45	150.0	42.0	247515.0	245104.0	461711.0	1490.0	0	0.0	645051.0	323	0.01	0.05	14.02	90453.0	1231.0	91074	0.23
5317STDY8020342	68.99	108868.0	694.0	1.23	1.6	17.59	146.49	0.01	0.48	150.0	81.0	108466.0	107380.0	278157.0	1085.0	0	0.0	403172.0	161	0.01	0.04	13.11	52848.0	713.0	70921	0.27
5317STDY8020343	72.49	227863.0	1843.0	1.25	1.46	10.29	147.63	0.01	0.47	150.0	241.0	227443.0	224734.0	526437.0	799.0	0	0.0	726178.0	363	0.01	0.05	17.06	123888.0	1045.0	74691	0.11
5317STDY8020344	70.76	192658.0	1304.0	1.31	1.66	12.21	146.99	0.01	0.46	150.0	28.0	192250.0	190082.0	424387.0	998.0	0	0.0	599771.0	300	0.01	0.05	16.82	100876.0	1244.0	73210	0.17
5317STDY8020345	53.03	184.0	2.0	1.67	3.0	33.37	146.12	0.01	0.54	150.0	0.0	183.0	181.0	472.0	2.0	0	0.0	890.0	0	0.01	0.0	13.37	119.0	1.0	297	0.22
5317STDY8020346	70.62	184544.0	937.0	1.25	1.43	13.85	146.9	0.01	0.46	150.0	39.0	184094.0	182655.0	403450.0	872.0	0	0.0	571281.0	228	0.01	0.04	15.34	87642.0	913.0	79089	0.15
5317STDY8020347	73.97	211834.0	934.0	1.31	1.48	12.25	146.83	0.01	0.45	150.0	91.0	211499.0	210030.0	447553.0	657.0	0	0.0	605037.0	363	0.01	0.06	13.61	82336.0	779.0	74128	0.11
5317STDY8020348	73.38	246872.0	1866.0	1.23	1.62	15.05	146.77	0.01	0.44	150.0	72.0	246112.0	243603.0	561973.0	1323.0	0	0.0	765828.0	230	0.01	0.03	11.36	87026.0	1331.0	115276	0.17
5317STDY8020349	65.02	42808.0	180.0	1.29	1.61	28.86	143.72	0.01	0.5	150.0	19.0	42671.0	42029.0	111861.0	285.0	0	0.0	172052.0	86	0.02	0.05	5.91	10164.0	580.0	49656	0.17
5317STDY8020350	67.15	38132.0	277.0	1.3	1.53	12.42	146.91	0.01	0.54	150.0	12.0	37988.0	37628.0	82517.0	332.0	0	0.0	122891.0	61	0.01	0.05	20.11	24719.0	215.0	15262	0.27
5317STDY8020351	63.57	80058.0	404.0	1.24	1.82	12.89	146.08	0.01	0.51	150.0	20.0	79805.0	79327.0	128145.0	238.0	0	0.0	201566.0	40	0.01	0.02	23.4	47161.0	307.0	25982	0.12
5317STDY8020352	52.32	7515.0	6.0	1.14	2.18	41.12	143.04	0.01	0.53	150.0	0.0	7466.0	7479.0	21282.0	214.0	0	0.0	40679.0	20	0.01	0.05	5.98	2434.0	30.0	16729	0.53
5317STDY8020353	72.68	250547.0	1074.0	1.23	1.65	17.52	145.4	0.02	0.45	150.0	26.0	249828.0	248637.0	424424.0	762.0	0	0.0	583992.0	58	0.01	0.01	9.67	56464.0	810.0	102284	0.13
5317STDY8020354	69.8	165780.0	1135.0	1.22	1.69	21.64	144.79	0.02	0.47	150.0	177.0	165218.0	163425.0	365690.0	771.0	0	0.0	523927.0	157	0.01	0.03	8.39	43955.0	1043.0	113354	0.15
5317STDY8020355	73.0	234991.0	937.0	1.23	1.48	15.9	146.05	0.01	0.44	150.0	72.0	234622.0	232693.0	416324.0	815.0	0	0.0	570294.0	228	0.01	0.04	10.92	62258.0	1289.0	90669	0.14
5317STDY8020356	74.9	209556.0	829.0	1.21	1.5	16.64	145.67	0.01	0.45	150.0	25.0	209147.0	208013.0	424828.0	1623.0	0	0.0	567166.0	227	0.01	0.04	8.13	46128.0	689.0	94360	0.29
5317STDY8020357	60.13	179148.0	592.0	1.24	1.62	22.86	145.8	0.01	0.46	150.0	129.0	178752.0	177850.0	327548.0	932.0	0	0.0	544752.0	218	0.01	0.04	16.8	91499.0	577.0	124555	0.17
5317STDY8020358	69.02	151017.0	463.0	1.24	1.72	21.2	145.09	0.01	0.47	150.0	131.0	150652.0	149701.0	312027.0	1544.0	0	0.0	452093.0	181	0.01	0.04	9.4	42511.0	722.0	95830	0.34
5317STDY8020359	70.91	117015.0	502.0	1.17	1.56	21.47	144.5	0.01	0.47	150.0	47.0	116615.0	115981.0	235363.0	1659.0	0	0.0	331931.0	199	0.01	0.06	7.06	23445.0	485.0	71265	0.5
5317STDY8020360	66.07	101959.0	789.0	1.3	1.38	25.85	143.67	0.01	0.49	150.0	0.0	101588.0	100356.0	276412.0	1673.0	0	0.0	418349.0	377	0.01	0.09	7.58	31729.0	814.0	108158	0.4
5317STDY8020361	51.37	17708.0	235.0	1.22	1.35	40.61	141.62	0.02	0.56	150.0	0.0	17538.0	17220.0	69746.0	427.0	0	0.0	135768.0	68	0.01	0.05	7.66	10397.0	253.0	55130	0.31
5317STDY8020362	65.64	195763.0	1224.0	1.22	1.52	12.89	147.12	0.01	0.49	150.0	119.0	195433.0	193702.0	435145.0	1161.0	0	0.0	662880.0	331	0.01	0.05	21.24	140828.0	718.0	85415	0.18
5317STDY8020363	40.26	569.0	1.0	1.3	1.25	31.53	145.21	0.0	0.66	150.0	0.0	567.0	566.0	1604.0	13.0	0	0.0	3984.0	7	0.01	0.18	27.71	1104.0	2.0	1256	0.33
5317STDY8020364	64.38	64937.0	287.0	1.31	1.65	26.03	142.21	0.01	0.55	150.0	9.0	64663.0	64394.0	151944.0	269.0	0	0.0	236005.0	71	0.01	0.03	9.44	22290.0	247.0	61431	0.11
5317STDY8020365	67.03	170236.0	1146.0	1.23	1.54	13.1	146.85	0.01	0.53	150.0	79.0	169733.0	167997.0	336480.0	860.0	0	0.0	501957.0	301	0.01	0.06	19.63	98556.0	1014.0	65760	0.17
5317STDY8020366	53.15	214344.0	1483.0	1.31	1.57	6.88	148.22	0.01	0.5	150.0	134.0	214048.0	212163.0	423440.0	2209.0	0	0.0	796644.0	239	0.01	0.03	39.66	315983.0	564.0	54773	0.28
5317STDY8020367	68.9	212069.0	1307.0	1.24	1.48	13.75	146.84	0.01	0.49	150.0	48.0	211579.0	209578.0	461509.0	756.0	0	0.0	669869.0	335	0.01	0.05	17.19	115148.0	1136.0	92121	0.11
5317STDY8020368	66.66	3081.0	48.0	1.14	1.15	26.35	141.98	0.04	1.03	150.0	1.0	2821.0	2902.0	42970.0	180.0	0	0.0	64460.0	64	0.01	0.1	6.61	4262.0	130.0	16984	0.28
5317STDY8020369	2.51	87.0	0.0	1.0	1.0	96.62	146.13	0.01	0.63	150.0	0.0	86.0	87.0	359.0	2.0	0	0.0	14292.0	3	0.01	0.02	0.83	119.0	0.0	13809	0.01
5317STDY8020370	5.69	91.0	0.0	1.0	2.0	90.16	144.94	0.01	0.58	150.0	0.0	89.0	90.0	406.0	4.0	0	0.0	7134.0	1	0.01	0.01	4.08	291.0	1.0	6432	0.06
5317STDY8020371	6.14	56.0	1.0	1.0	1.0	91.88	146.9	0.0	0.57	150.0	0.0	55.0	54.0	266.0	2.0	0	0.0	4333.0	0	0.01	0.0	1.94	84.0	1.0	3981	0.05
5317STDY8020372	15.24	348.0	2.0	1.14	1.67	74.51	145.58	0.02	0.52	150.0	0.0	340.0	339.0	1176.0	5.0	0	0.0	7718.0	3	0.02	0.04	10.15	783.0	7.0	5751	0.06
5317STDY8020373	57.02	32628.0	216.0	1.27	1.51	8.31	148.02	0.01	0.47	150.0	20.0	32489.0	32256.0	80345.0	414.0	0	0.0	140901.0	84	0.01	0.06	34.32	48358.0	136.0	11700	0.29
5317STDY8020374	57.86	40746.0	331.0	1.24	1.46	11.15	147.58	0.01	0.49	150.0	22.0	40533.0	40117.0	123584.0	727.0	0	0.0	213589.0	107	0.01	0.05	30.6	65350.0	276.0	23821	0.34
5317STDY8020375	50.75	134436.0	841.0	1.23	1.58	9.41	148.08	0.01	0.47	150.0	79.0	133909.0	132346.0	368478.0	4280.0	0	0.0	726065.0	363	0.01	0.05	39.19	284579.0	1170.0	68365	0.59
5317STDY8020376	61.85	158542.0	1182.0	1.23	1.43	8.78	147.72	0.01	0.44	150.0	128.0	158074.0	156667.0	393467.0	1213.0	0	0.0	636165.0	254	0.01	0.04	29.14	185388.0	565.0	55843	0.19
5317STDY8020377	55.28	143126.0	1228.0	1.27	1.48	9.26	148.01	0.01	0.45	150.0	101.0	142677.0	140795.0	424511.0	2510.0	0	0.0	767920.0	384	0.01	0.05	35.08	269406.0	1002.0	71109	0.33
5317STDY8020378	57.67	151898.0	956.0	1.28	1.42	7.23	147.92	0.01	0.46	150.0	89.0	151475.0	150214.0	390507.0	1807.0	0	0.0	677156.0	338	0.01	0.05	34.79	235566.0	639.0	48938	0.27
5317STDY8020379	56.62	150444.0	1088.0	1.26	1.48	10.76	147.9	0.01	0.46	150.0	100.0	149979.0	148128.0	414553.0	2390.0	0	0.0	732189.0	366	0.01	0.05	32.24	236073.0	1128.0	78807	0.33
5317STDY8020380	54.61	117586.0	981.0	1.23	1.48	9.22	147.95	0.01	0.46	150.0	91.0	117238.0	115710.0	365569.0	1767.0	0	0.0	669472.0	268	0.01	0.04	35.86	240095.0	804.0	61773	0.26
5317STDY8020381	60.03	149113.0	946.0	1.26	1.5	10.63	147.89	0.01	0.46	150.0	119.0	148718.0	147337.0	387886.0	1441.0	0	0.0	646207.0	388	0.01	0.06	29.05	187748.0	711.0	68744	0.22
5317STDY8020382	60.26	1517.0	13.0	1.23	1.65	12.45	147.8	0.01	0.48	150.0	2.0	1506.0	1494.0	4696.0	21.0	0	0.0	7793.0	6	0.01	0.08	26.95	2100.0	8.0	970	0.27
5317STDY8020383	51.31	129458.0	833.0	1.25	1.5	10.92	147.54	0.01	0.48	150.0	92.0	129047.0	127888.0	296568.0	2477.0	0	0.0	577982.0	289	0.01	0.05	37.29	215550.0	645.0	63098	0.43
5317STDY8020384	59.77	175361.0	1292.0	1.27	1.42	10.94	147.3	0.01	0.43	150.0	85.0	175049.0	173361.0	356818.0	1332.0	0	0.0	596978.0	298	0.01	0.05	29.02	173228.0	623.0	65302	0.22
5317STDY8020385	57.28	143536.0	996.0	1.26	1.48	10.15	147.94	0.01	0.47	150.0	94.0	143076.0	141656.0	389902.0	2045.0	0	0.0	680706.0	409	0.01	0.06	32.21	219242.0	790.0	69108	0.3
5317STDY8020386	55.15	154831.0	1374.0	1.25	1.46	9.86	148.06	0.01	0.43	150.0	135.0	154403.0	152573.0	439335.0	2410.0	0	0.0	796666.0	557	0.01	0.07	34.63	275869.0	749.0	78495	0.3
5317STDY8020387	36.9	93742.0	521.0	1.25	1.4	33.2	147.69	0.01	0.48	150.0	71.0	93387.0	92655.0	267937.0	1483.0	0	0.0	726104.0	218	0.01	0.03	29.67	215451.0	495.0	241015	0.2
5317STDY8020388	52.95	160367.0	899.0	1.26	1.48	9.74	148.0	0.01	0.45	150.0	77.0	159885.0	158416.0	428312.0	3378.0	0	0.0	808885.0	566	0.01	0.07	36.82	297865.0	975.0	78764	0.42
5317STDY8020389	55.04	173376.0	1261.0	1.23	1.55	8.35	148.05	0.01	0.44	150.0	69.0	172919.0	171056.0	433884.0	2461.0	0	0.0	788321.0	237	0.01	0.03	36.27	285912.0	990.0	65827	0.31
5317STDY8020390	52.94	126006.0	799.0	1.24	1.43	21.93	147.0	0.01	0.42	150.0	54.0	125644.0	124516.0	335287.0	742.0	0	0.0	633306.0	190	0.01	0.03	24.98	158212.0	637.0	138875	0.12
5317STDY8020391	54.5	14855.0	75.0	1.2	1.5	17.37	146.61	0.01	0.38	150.0	16.0	14761.0	14680.0	39092.0	294.0	0	0.0	71733.0	36	0.01	0.05	27.67	19850.0	84.0	12461	0.41
5317STDY8020392	56.28	126927.0	743.0	1.29	1.51	8.22	147.33	0.01	0.46	150.0	93.0	126473.0	125409.0	332037.0	983.0	0	0.0	589946.0	354	0.01	0.06	35.27	208050.0	682.0	48522	0.17
5317STDY8020393	64.79	152453.0	457.0	1.26	1.56	15.41	146.24	0.01	0.43	150.0	153.0	152034.0	150917.0	294794.0	1124.0	0	0.0	455018.0	182	0.01	0.04	19.51	88773.0	926.0	70145	0.25
5317STDY8020394	57.47	120636.0	1370.0	1.28	1.56	9.96	148.01	0.01	0.45	150.0	65.0	120148.0	118269.0	444023.0	2148.0	0	0.0	772604.0	386	0.01	0.05	32.24	249076.0	932.0	76971	0.28
5317STDY8020395	64.04	156155.0	1111.0	1.25	1.54	6.87	147.95	0.01	0.45	150.0	94.0	155719.0	154262.0	344312.0	1247.0	0	0.0	537657.0	215	0.01	0.04	28.82	154954.0	688.0	36929	0.23
5317STDY8020396	54.81	84657.0	572.0	1.29	1.49	10.89	147.68	0.01	0.47	150.0	80.0	84272.0	83522.0	246574.0	1212.0	0	0.0	449832.0	180	0.01	0.04	33.99	152890.0	483.0	48976	0.27
5317STDY8020397	53.24	77873.0	647.0	1.24	1.57	14.82	147.2	0.01	0.5	150.0	32.0	77474.0	76522.0	253141.0	1529.0	0	0.0	475483.0	285	0.01	0.06	31.56	150053.0	672.0	70475	0.32
5317STDY8020398	37.8	59166.0	403.0	1.25	1.49	17.16	147.22	0.01	0.51	150.0	30.0	58824.0	58183.0	185138.0	2229.0	0	0.0	489819.0	196	0.02	0.04	44.55	218212.0	550.0	84044	0.46
5317STDY8020399	56.26	132021.0	1079.0	1.25	1.51	10.28	147.85	0.01	0.46	150.0	77.0	131591.0	130059.0	350587.0	1814.0	0	0.0	623123.0	312	0.01	0.05	33.11	206332.0	806.0	64078	0.29
5317STDY8020400	47.53	120066.0	928.0	1.24	1.39	9.79	147.66	0.01	0.43	150.0	104.0	119707.0	118218.0	307780.0	2111.0	0	0.0	647611.0	194	0.01	0.03	42.33	274152.0	816.0	63374	0.33
5317STDY8020401	45.47	92600.0	641.0	1.24	1.53	21.4	147.55	0.01	0.46	150.0	55.0	92300.0	91396.0	269616.0	1577.0	0	0.0	592908.0	356	0.01	0.06	32.79	194430.0	508.0	126929	0.27
5317STDY8020402	52.79	118102.0	825.0	1.26	1.51	8.65	147.96	0.01	0.46	150.0	60.0	117708.0	116605.0	311065.0	2217.0	0	0.0	589279.0	236	0.01	0.04	38.15	224784.0	612.0	50977	0.38
5317STDY8020403	52.09	143466.0	953.0	1.26	1.51	9.82	147.92	0.01	0.43	150.0	119.0	143008.0	141584.0	370865.0	2182.0	0	0.0	712029.0	356	0.01	0.05	37.74	268708.0	810.0	69918	0.31
5317STDY8020404	49.92	90998.0	744.0	1.24	1.5	14.81	147.51	0.01	0.47	150.0	43.0	90570.0	89641.0	318307.0	1539.0	0	0.0	637674.0	319	0.01	0.05	34.98	223049.0	570.0	94460	0.24
5317STDY8020405	55.42	136896.0	930.0	1.24	1.57	10.39	147.86	0.01	0.45	150.0	99.0	136525.0	135099.0	370292.0	2250.0	0	0.0	668105.0	468	0.01	0.07	33.77	225644.0	768.0	69451	0.34
5317STDY8020406	51.02	129665.0	802.0	1.28	1.5	9.04	147.79	0.01	0.46	150.0	89.0	129260.0	128101.0	327365.0	1462.0	0	0.0	641696.0	257	0.01	0.04	39.68	254628.0	673.0	57984	0.23
5317STDY8020407	56.79	97033.0	763.0	1.25	1.47	10.42	147.81	0.01	0.48	150.0	90.0	96644.0	95476.0	302311.0	1603.0	0	0.0	532327.0	426	0.01	0.08	32.4	172468.0	704.0	55519	0.3
5317STDY8020408	54.67	104551.0	724.0	1.21	1.5	11.64	147.6	0.01	0.47	150.0	67.0	104181.0	103208.0	294022.0	1845.0	0	0.0	537806.0	269	0.01	0.05	33.3	179085.0	552.0	62585	0.34
5317STDY8020409	53.83	150068.0	941.0	1.25	1.5	11.96	147.37	0.01	0.46	150.0	91.0	149740.0	148520.0	302563.0	957.0	0	0.0	562086.0	56	0.01	0.01	34.03	191262.0	516.0	67248	0.17
5317STDY8020410	44.66	71265.0	491.0	1.29	1.42	16.87	147.08	0.01	0.49	150.0	43.0	70902.0	70261.0	231137.0	1372.0	0	0.0	517501.0	207	0.02	0.04	38.16	197458.0	470.0	87327	0.27
5317STDY8020411	51.48	129833.0	961.0	1.25	1.47	9.23	147.85	0.01	0.45	150.0	138.0	129479.0	128034.0	347901.0	1938.0	0	0.0	675816.0	473	0.01	0.07	38.94	263130.0	700.0	62374	0.29
5317STDY8020412	51.57	121460.0	923.0	1.26	1.51	11.27	147.48	0.01	0.46	150.0	51.0	121122.0	119678.0	310686.0	1556.0	0	0.0	602472.0	301	0.01	0.05	36.85	222019.0	808.0	67910	0.26
5317STDY8020413	55.26	129043.0	982.0	1.25	1.54	9.74	147.7	0.01	0.46	150.0	72.0	128610.0	127298.0	358619.0	1889.0	0	0.0	649013.0	260	0.01	0.04	34.68	225054.0	691.0	63191	0.29
5317STDY8020414	59.76	156476.0	962.0	1.22	1.55	7.25	147.73	0.01	0.45	150.0	129.0	156060.0	154852.0	340771.0	1200.0	0	0.0	570229.0	171	0.01	0.03	32.75	186773.0	533.0	41314	0.21
5317STDY8020415	53.06	132232.0	833.0	1.23	1.5	9.09	147.79	0.01	0.47	150.0	66.0	131839.0	130592.0	322414.0	2477.0	0	0.0	607590.0	243	0.01	0.04	37.4	227243.0	741.0	55213	0.41
5317STDY8020416	57.54	119245.0	890.0	1.26	1.46	11.41	147.64	0.01	0.48	150.0	95.0	118770.0	117418.0	345367.0	1402.0	0	0.0	600201.0	240	0.01	0.04	30.78	184752.0	842.0	68440	0.23
5317STDY8020417	52.85	113787.0	845.0	1.28	1.43	11.2	147.6	0.01	0.49	150.0	74.0	113425.0	112294.0	293433.0	1229.0	0	0.0	555257.0	167	0.01	0.03	35.7	198247.0	574.0	62181	0.22
5317STDY8020418	53.39	122625.0	787.0	1.22	1.56	9.35	147.82	0.01	0.47	150.0	144.0	122203.0	121025.0	310511.0	1884.0	0	0.0	581545.0	291	0.01	0.05	36.88	214482.0	669.0	54377	0.32
5317STDY8020419	54.86	112669.0	715.0	1.25	1.46	7.99	147.74	0.01	0.47	150.0	90.0	112287.0	111391.0	285353.0	2097.0	0	0.0	520160.0	156	0.01	0.03	36.72	190986.0	473.0	41568	0.4
5317STDY8020420	47.49	139449.0	908.0	1.27	1.58	13.41	147.65	0.01	0.46	150.0	86.0	139084.0	137774.0	289929.0	1192.0	0	0.0	610532.0	183	0.01	0.03	38.88	237399.0	681.0	81829	0.2
5317STDY8020421	50.79	159872.0	838.0	1.23	1.44	9.2	147.43	0.01	0.43	150.0	83.0	159488.0	158114.0	365257.0	2225.0	0	0.0	719106.0	216	0.01	0.03	39.67	285270.0	837.0	66138	0.31
5317STDY8020422	6.22	628.0	17.0	1.12	1.4	89.65	144.73	0.02	0.62	150.0	0.0	610.0	600.0	7102.0	102.0	0	0.0	114107.0	23	0.02	0.02	4.01	4580.0	11.0	102300	0.09
5317STDY8020423	51.84	158717.0	880.0	1.25	1.5	7.93	147.76	0.01	0.44	150.0	68.0	158266.0	157003.0	361474.0	1654.0	0	0.0	697274.0	279	0.01	0.04	39.94	278521.0	766.0	55346	0.24
5317STDY8020424	60.07	176100.0	1089.0	1.24	1.56	6.48	147.82	0.01	0.43	150.0	99.0	175636.0	174130.0	398897.0	1584.0	0	0.0	664036.0	199	0.01	0.03	33.18	220324.0	782.0	43032	0.24
5317STDY8020425	50.22	143308.0	1152.0	1.3	1.45	9.16	147.99	0.01	0.43	150.0	96.0	142867.0	141286.0	367687.0	1453.0	0	0.0	732081.0	439	0.01	0.06	40.36	295461.0	774.0	67041	0.2
5317STDY8020426	52.03	113252.0	958.0	1.25	1.47	10.88	147.68	0.01	0.45	150.0	43.0	112892.0	111668.0	306601.0	1732.0	0	0.0	589321.0	177	0.01	0.03	36.77	216668.0	583.0	64143	0.29
5317STDY8020427	56.58	140799.0	660.0	1.25	1.48	13.7	147.02	0.01	0.45	150.0	88.0	140420.0	139256.0	353127.0	1631.0	0	0.0	624082.0	187	0.01	0.03	29.42	183627.0	795.0	85510	0.26
5317STDY8020428	56.58	139180.0	927.0	1.23	1.47	9.82	147.86	0.01	0.45	150.0	63.0	138778.0	137440.0	409823.0	1517.0	0	0.0	724306.0	290	0.01	0.04	33.35	241540.0	750.0	71136	0.21
5317STDY8020429	42.4	75268.0	600.0	1.24	1.43	15.75	147.15	0.01	0.49	150.0	30.0	74880.0	74238.0	231368.0	1999.0	0	0.0	545666.0	273	0.01	0.05	41.43	226078.0	400.0	85948	0.37
5317STDY8020430	56.73	132105.0	990.0	1.24	1.49	11.35	147.88	0.01	0.45	150.0	91.0	131709.0	130249.0	361572.0	2128.0	0	0.0	637314.0	446	0.01	0.07	31.51	200795.0	775.0	72373	0.33
5317STDY8020431	54.74	74534.0	535.0	1.23	1.46	20.61	147.3	0.01	0.47	150.0	79.0	74190.0	73428.0	250422.0	941.0	0	0.0	457508.0	275	0.01	0.06	24.38	111550.0	492.0	94320	0.21
5317STDY8020432	46.43	75739.0	462.0	1.26	1.42	20.79	146.82	0.01	0.5	150.0	33.0	75394.0	74685.0	195606.0	1186.0	0	0.0	421293.0	169	0.01	0.04	32.46	136740.0	559.0	87592	0.28
5317STDY8020433	53.5	130553.0	789.0	1.31	1.48	10.79	147.31	0.01	0.46	150.0	48.0	130224.0	129050.0	299672.0	1215.0	0	0.0	560102.0	224	0.01	0.04	35.46	198600.0	666.0	60391	0.22
5317STDY8020434	58.63	165489.0	1321.0	1.24	1.51	7.88	147.85	0.01	0.45	150.0	198.0	165137.0	163430.0	380038.0	1386.0	0	0.0	648177.0	259	0.01	0.04	33.24	215434.0	540.0	51060	0.21
5317STDY8020435	43.17	119796.0	615.0	1.2	1.4	14.01	147.57	0.01	0.46	150.0	68.0	119516.0	118589.0	284713.0	1715.0	0	0.0	659471.0	66	0.01	0.01	42.55	280586.0	524.0	92391	0.26
5317STDY8020436	57.68	96858.0	577.0	1.23	1.4	10.27	147.79	0.01	0.49	150.0	84.0	96472.0	95636.0	337223.0	2438.0	0	0.0	584618.0	234	0.01	0.04	31.59	184682.0	561.0	60041	0.42
5317STDY8020437	56.2	111933.0	932.0	1.24	1.57	13.72	147.65	0.01	0.45	150.0	69.0	111592.0	110352.0	329660.0	1379.0	0	0.0	586603.0	235	0.01	0.04	29.8	174827.0	580.0	80502	0.24
5317STDY8020438	54.95	106083.0	763.0	1.25	1.49	7.99	147.82	0.01	0.47	150.0	77.0	105751.0	104778.0	273625.0	1440.0	0	0.0	497922.0	149	0.01	0.03	36.73	182895.0	465.0	39813	0.29
5317STDY8020439	56.05	134097.0	1006.0	1.3	1.49	9.52	147.69	0.01	0.47	150.0	71.0	133707.0	132470.0	356915.0	1474.0	0	0.0	636813.0	382	0.01	0.06	34.15	217441.0	550.0	60601	0.23
5317STDY8020440	52.74	139706.0	971.0	1.23	1.54	10.75	147.37	0.01	0.44	150.0	64.0	139363.0	138006.0	381052.0	1375.0	0	0.0	722457.0	433	0.01	0.06	36.26	261936.0	665.0	77661	0.19
5317STDY8020441	57.19	154546.0	932.0	1.23	1.42	8.81	147.9	0.01	0.44	150.0	99.0	154112.0	152930.0	345242.0	1205.0	0	0.0	603713.0	302	0.01	0.05	33.75	203756.0	585.0	53208	0.2
5317STDY8020442	52.54	115500.0	999.0	1.24	1.51	10.71	147.96	0.01	0.45	150.0	63.0	115162.0	113710.0	346559.0	2641.0	0	0.0	659571.0	396	0.01	0.06	36.28	239321.0	728.0	70654	0.4
5317STDY8020443	43.23	56049.0	375.0	1.25	1.44	32.31	146.9	0.01	0.53	150.0	45.0	55745.0	55025.0	173554.0	760.0	0	0.0	401494.0	281	0.01	0.07	24.21	97183.0	604.0	129716	0.19
5317STDY8020444	51.32	19088.0	133.0	1.2	1.41	40.89	142.8	0.01	0.58	150.0	0.0	18889.0	18764.0	76279.0	386.0	0	0.0	148631.0	74	0.02	0.05	7.48	11121.0	191.0	60771	0.26
5317STDY8020445	41.6	79082.0	393.0	1.23	1.54	33.86	146.32	0.01	0.46	150.0	9.0	78810.0	78314.0	158288.0	596.0	0	0.0	380475.0	76	0.01	0.02	24.36	92669.0	366.0	128846	0.16
5317STDY8020446	52.4	93513.0	562.0	1.31	1.55	25.25	147.02	0.01	0.44	150.0	17.0	93201.0	92336.0	291280.0	1472.0	0	0.0	555888.0	278	0.01	0.05	22.04	122501.0	598.0	140357	0.26
5317STDY8020447	43.19	138191.0	878.0	1.26	1.43	24.47	147.44	0.01	0.44	150.0	84.0	137822.0	136655.0	271807.0	1471.0	0	0.0	629293.0	189	0.01	0.03	32.08	201868.0	574.0	153958	0.23
5317STDY8020448	28.96	32660.0	229.0	1.27	1.41	11.59	147.08	0.01	0.48	150.0	93.0	32401.0	30913.0	130485.0	957.0	0	0.0	450514.0	406	0.01	0.09	59.14	266443.0	1425.0	52223	0.21
5317STDY8020449	26.54	55019.0	384.0	1.22	1.37	44.5	147.16	0.01	0.5	150.0	32.0	54770.0	54285.0	150517.0	873.0	0	0.0	567163.0	113	0.02	0.02	28.78	163239.0	318.0	252421	0.15
5317STDY8020450	53.18	66037.0	403.0	1.24	1.49	25.83	147.18	0.01	0.47	150.0	51.0	65730.0	65059.0	253733.0	915.0	0	0.0	477152.0	429	0.01	0.09	20.71	98842.0	524.0	123233	0.19
5317STDY8020451	55.29	83251.0	699.0	1.22	1.53	26.64	147.37	0.01	0.45	150.0	65.0	82871.0	81807.0	326414.0	845.0	0	0.0	590329.0	295	0.01	0.05	17.87	105497.0	680.0	157278	0.14
5317STDY8020452	44.98	86085.0	562.0	1.25	1.47	41.18	146.8	0.02	0.49	150.0	75.0	85412.0	84180.0	242597.0	998.0	0	0.0	539287.0	485	0.01	0.09	13.56	73143.0	1268.0	222064	0.19
5317STDY8020453	58.66	132060.0	844.0	1.25	1.51	19.27	147.51	0.01	0.45	150.0	95.0	131717.0	130511.0	332805.0	726.0	0	0.0	567382.0	340	0.01	0.06	21.89	124190.0	610.0	109321	0.13
5317STDY8020454	54.48	56939.0	456.0	1.28	1.61	22.41	147.19	0.01	0.5	150.0	53.0	56667.0	56116.0	190401.0	653.0	0	0.0	349483.0	279	0.02	0.08	22.85	79858.0	314.0	78292	0.19
5317STDY8020455	38.25	75519.0	575.0	1.23	1.42	34.59	146.8	0.01	0.51	150.0	23.0	75078.0	74332.0	216773.0	2091.0	0	0.0	566723.0	227	0.02	0.04	26.75	151625.0	589.0	196007	0.37
5317STDY8020456	59.39	80076.0	644.0	1.22	1.49	16.02	146.96	0.02	0.52	150.0	52.0	79310.0	77678.0	242670.0	1324.0	0	0.0	408626.0	286	0.01	0.07	24.2	98900.0	1702.0	65446	0.32
5317STDY8020457	58.2	50019.0	418.0	1.25	1.5	10.25	146.97	0.02	0.54	150.0	49.0	49518.0	48995.0	211834.0	1204.0	0	0.0	363978.0	328	0.02	0.09	31.13	113313.0	557.0	37299	0.33
5317STDY8020458	57.68	70190.0	492.0	1.27	1.44	14.82	146.92	0.02	0.47	150.0	19.0	69687.0	68794.0	204465.0	1768.0	0	0.0	354508.0	177	0.02	0.05	26.96	95560.0	885.0	52538	0.5
5317STDY8020459	52.85	62004.0	500.0	1.25	1.57	10.68	147.41	0.02	0.5	150.0	42.0	61541.0	60847.0	253221.0	1972.0	0	0.0	479096.0	383	0.01	0.08	35.98	172375.0	615.0	51145	0.41
5317STDY8020460	55.16	47227.0	600.0	1.25	1.43	10.57	147.51	0.02	0.52	150.0	35.0	46856.0	46190.0	185100.0	1344.0	0	0.0	335552.0	302	0.01	0.09	33.77	113328.0	402.0	35478	0.4
5317STDY8020461	47.39	23891.0	186.0	1.24	1.51	17.64	146.97	0.02	0.56	150.0	22.0	23609.0	23385.0	100180.0	759.0	0	0.0	211382.0	211	0.02	0.1	34.51	72938.0	298.0	37294	0.36
5317STDY8020462	39.72	21083.0	158.0	1.22	1.43	24.05	146.78	0.02	0.6	150.0	13.0	20770.0	20644.0	97438.0	1238.0	0	0.0	245300.0	343	0.02	0.14	35.59	87306.0	268.0	58975	0.5
5317STDY8020463	38.8	44803.0	605.0	1.26	1.5	16.08	147.09	0.02	0.52	150.0	48.0	44334.0	43560.0	169739.0	2015.0	0	0.0	437442.0	306	0.02	0.07	44.58	195025.0	590.0	70357	0.46
5317STDY8020464	37.9	22325.0	235.0	1.26	1.4	28.17	146.23	0.02	0.54	150.0	22.0	21912.0	21540.0	107285.0	1541.0	0	0.0	283094.0	311	0.02	0.11	33.28	94201.0	528.0	79756	0.54
5317STDY8020465	64.6	288292.0	1849.0	1.31	1.55	6.12	147.85	0.01	0.44	150.0	232.0	287691.0	284313.0	683960.0	3882.0	0	0.0	1058695.0	741	0.01	0.07	28.84	305306.0	1898.0	64806	0.37
5317STDY8020466	63.85	264911.0	1781.0	1.26	1.42	5.29	148.37	0.01	0.44	150.0	249.0	264505.0	261763.0	692873.0	1907.0	0	0.0	1085204.0	543	0.01	0.05	30.64	332457.0	1118.0	57424	0.18
5317STDY8020467	64.43	263780.0	1505.0	1.36	1.64	9.64	147.12	0.02	0.45	150.0	126.0	263138.0	260951.0	531964.0	1338.0	0	0.0	825652.0	330	0.01	0.04	25.73	212424.0	1198.0	79596	0.16
5317STDY8020468	48.18	161786.0	1397.0	1.27	1.52	14.66	147.84	0.01	0.47	150.0	84.0	161309.0	159354.0	474458.0	3828.0	0	0.0	984797.0	591	0.02	0.06	36.72	361580.0	951.0	144340	0.39
5317STDY8020469	63.8	271167.0	2070.0	1.28	1.48	6.93	148.17	0.01	0.42	150.0	158.0	270576.0	267131.0	689065.0	1925.0	0	0.0	1080031.0	648	0.01	0.06	29.03	313501.0	1808.0	74892	0.18
5317STDY8020470	55.66	208601.0	1899.0	1.31	1.55	13.26	147.85	0.01	0.44	150.0	118.0	207862.0	204727.0	570145.0	2045.0	0	0.0	1024375.0	410	0.01	0.04	30.84	315951.0	1857.0	135824	0.2
5317STDY8020471	55.66	183207.0	1706.0	1.26	1.53	15.46	147.88	0.01	0.45	150.0	235.0	182619.0	179668.0	511164.0	2441.0	0	0.0	918410.0	827	0.01	0.09	28.52	261945.0	1598.0	142033	0.27
5317STDY8020472	59.99	214379.0	1680.0	1.28	1.51	6.76	148.02	0.01	0.45	150.0	176.0	213806.0	211223.0	617501.0	2225.0	0	0.0	1029382.0	515	0.01	0.05	32.99	339545.0	1300.0	69596	0.22
5317STDY8020473	63.62	291440.0	1985.0	1.25	1.51	6.02	148.26	0.01	0.42	150.0	156.0	290839.0	287948.0	728777.0	1762.0	0	0.0	1145525.0	458	0.01	0.04	30.17	345583.0	1351.0	68945	0.15
5317STDY8020474	64.05	230811.0	1739.0	1.26	1.55	6.23	148.35	0.01	0.41	150.0	173.0	230405.0	227722.0	624352.0	1537.0	0	0.0	974765.0	487	0.01	0.05	29.51	287651.0	1177.0	60738	0.16
5317STDY8020475	67.98	284151.0	2008.0	1.24	1.51	5.06	148.34	0.01	0.45	150.0	302.0	283543.0	280402.0	723824.0	2284.0	0	0.0	1064725.0	532	0.01	0.05	26.7	284231.0	1439.0	53854	0.21
5317STDY8020476	65.81	225842.0	924.0	1.21	1.68	14.9	145.6	0.01	0.42	150.0	38.0	225261.0	224036.0	433913.0	1499.0	0	0.0	659350.0	330	0.01	0.05	19.01	125348.0	844.0	98260	0.23
5317STDY8020477	64.43	145323.0	777.0	1.19	1.49	20.09	145.83	0.01	0.43	150.0	88.0	144823.0	143658.0	338300.0	1072.0	0	0.0	525062.0	315	0.01	0.06	15.21	79846.0	800.0	105529	0.2
5317STDY8020478	66.1	338759.0	3145.0	1.33	1.5	6.57	148.33	0.01	0.44	150.0	150.0	338080.0	333518.0	866776.0	2590.0	0	0.0	1311354.0	1444	0.01	0.11	27.02	354322.0	1946.0	86222	0.2
5317STDY8020479	58.9	336588.0	2526.0	1.27	1.58	7.92	148.0	0.01	0.4	150.0	318.0	336080.0	332092.0	787721.0	3208.0	0	0.0	1337425.0	668	0.01	0.05	32.9	439972.0	1652.0	105856	0.24
5317STDY8020480	59.89	322571.0	2432.0	1.25	1.5	6.33	148.25	0.01	0.42	150.0	212.0	321922.0	318037.0	827380.0	3148.0	0	0.0	1381429.0	415	0.01	0.03	33.52	463001.0	1890.0	87485	0.23
5317STDY8020481	57.94	249766.0	1765.0	1.28	1.53	5.97	148.3	0.01	0.43	150.0	78.0	249311.0	246649.0	675505.0	2094.0	0	0.0	1165784.0	700	0.01	0.06	35.84	417833.0	1274.0	69652	0.18
5317STDY8020482	62.03	254640.0	1865.0	1.29	1.57	6.82	148.12	0.01	0.45	150.0	173.0	254117.0	251186.0	665206.0	2374.0	0	0.0	1072417.0	751	0.01	0.07	30.86	330966.0	1416.0	73120	0.22
5317STDY8020483	63.85	335287.0	2516.0	1.27	1.45	4.96	148.21	0.01	0.42	150.0	300.0	334688.0	331075.0	811961.0	2049.0	0	0.0	1271574.0	509	0.01	0.04	30.98	393974.0	1396.0	63081	0.16
5317STDY8020484	67.15	51040.0	356.0	1.24	1.56	19.4	144.89	0.01	0.42	150.0	11.0	50874.0	50305.0	119639.0	634.0	0	0.0	178158.0	178	0.01	0.1	13.0	23154.0	368.0	34553	0.36
5317STDY8020485	65.54	396780.0	2314.0	1.25	1.58	5.6	147.64	0.01	0.4	150.0	246.0	396070.0	392628.0	781991.0	2358.0	0	0.0	1193190.0	239	0.01	0.02	28.65	341805.0	1592.0	66797	0.2
5317STDY8020486	58.19	192325.0	1137.0	1.24	1.56	11.79	147.13	0.01	0.39	150.0	125.0	191925.0	190066.0	417727.0	1709.0	0	0.0	717818.0	502	0.01	0.07	29.72	213310.0	997.0	84570	0.24
5317STDY8020487	61.13	226137.0	1839.0	1.29	1.55	6.52	148.23	0.01	0.45	150.0	256.0	225610.0	222669.0	561276.0	2055.0	0	0.0	918094.0	1101	0.01	0.12	32.01	293856.0	1373.0	59806	0.22
5317STDY8020488	60.17	27328.0	86.0	1.27	1.56	28.89	143.59	0.01	0.49	150.0	3.0	27200.0	27039.0	62755.0	537.0	0	0.0	104296.0	63	0.01	0.06	10.36	10810.0	200.0	30131	0.51
5317STDY8020489	64.2	203583.0	1170.0	1.2	1.74	12.66	146.54	0.01	0.4	150.0	110.0	203076.0	201331.0	390553.0	1618.0	0	0.0	608312.0	243	0.01	0.04	22.84	138912.0	972.0	76986	0.27
5317STDY8020490	66.6	307935.0	1920.0	1.25	1.56	5.67	148.18	0.01	0.45	150.0	154.0	307094.0	303934.0	686408.0	2115.0	0	0.0	1030674.0	516	0.01	0.05	27.47	283158.0	1927.0	58477	0.21
5317STDY8020491	59.8	252559.0	1971.0	1.24	1.49	5.72	148.25	0.01	0.45	150.0	225.0	252069.0	248799.0	646173.0	2986.0	0	0.0	1080513.0	216	0.01	0.02	34.18	369332.0	1564.0	61806	0.28
5317STDY8020492	56.67	248023.0	2165.0	1.29	1.52	8.02	148.0	0.01	0.4	150.0	171.0	247548.0	244236.0	633636.0	2242.0	0	0.0	1118105.0	559	0.01	0.05	35.06	391996.0	1451.0	89672	0.2
5317STDY8020493	61.2	275633.0	2396.0	1.23	1.47	5.03	148.4	0.01	0.42	150.0	291.0	275104.0	271857.0	668291.0	3473.0	0	0.0	1092001.0	328	0.01	0.03	33.42	364930.0	1089.0	54979	0.32
5317STDY8020494	60.91	252590.0	1456.0	1.29	1.48	11.47	147.9	0.01	0.45	150.0	102.0	251997.0	249752.0	623913.0	2479.0	0	0.0	1024237.0	410	0.01	0.04	27.33	279937.0	1280.0	117498	0.24
5317STDY8020495	57.91	268886.0	1677.0	1.31	1.44	8.07	147.39	0.01	0.42	150.0	222.0	268320.0	265284.0	619372.0	3102.0	0	0.0	1069576.0	748	0.01	0.07	33.67	360122.0	1703.0	86232	0.29
5317STDY8020496	64.6	22622.0	129.0	1.17	1.47	24.12	144.91	0.01	0.45	150.0	5.0	22552.0	22329.0	62214.0	464.0	0	0.0	96302.0	39	0.01	0.04	10.76	10364.0	159.0	23221	0.48
5317STDY8020497	48.28	2462.0	3.0	1.15	1.57	37.17	142.07	0.02	0.51	150.0	0.0	2447.0	2452.0	9665.0	46.0	0	0.0	20018.0	8	0.01	0.04	14.28	2858.0	7.0	7441	0.23
5317STDY8020498	63.23	228779.0	1723.0	1.26	1.53	7.78	147.77	0.01	0.4	150.0	108.0	228349.0	225375.0	593568.0	2532.0	0	0.0	938799.0	469	0.01	0.05	28.68	269238.0	1573.0	72992	0.27
5317STDY8020499	69.57	257165.0	2006.0	1.27	1.5	5.43	148.31	0.01	0.46	150.0	196.0	256623.0	253724.0	787296.0	2277.0	0	0.0	1131652.0	679	0.01	0.06	24.74	279921.0	1239.0	61479	0.2
5317STDY8020500	67.92	272920.0	1159.0	1.21	1.77	15.1	146.47	0.01	0.38	150.0	60.0	272429.0	270557.0	457087.0	1220.0	0	0.0	672932.0	269	0.01	0.04	16.75	112704.0	1144.0	101652	0.18
5317STDY8020501	61.33	303960.0	1818.0	1.3	1.52	8.88	147.35	0.01	0.42	150.0	39.0	303399.0	300597.0	654296.0	2143.0	0	0.0	1066915.0	427	0.01	0.04	29.55	315320.0	1506.0	94729	0.2
5317STDY8020502	58.12	263440.0	2189.0	1.27	1.53	7.48	147.88	0.01	0.4	150.0	193.0	262887.0	259481.0	662734.0	2906.0	0	0.0	1140350.0	912	0.01	0.08	34.07	388535.0	1577.0	85263	0.25
5317STDY8020503	67.4	269313.0	1888.0	1.24	1.52	7.28	147.88	0.01	0.49	150.0	189.0	268639.0	265810.0	674647.0	1665.0	0	0.0	1000980.0	401	0.01	0.04	25.11	251371.0	1426.0	72896	0.17
5317STDY8020504	54.69	280852.0	2078.0	1.25	1.62	8.2	147.55	0.01	0.4	150.0	222.0	280307.0	277150.0	634953.0	2778.0	0	0.0	1160979.0	697	0.01	0.06	36.81	427335.0	1402.0	95216	0.24
5317STDY8020505	55.62	202303.0	1471.0	1.25	1.46	10.96	147.7	0.01	0.46	150.0	80.0	201567.0	199278.0	586745.0	2613.0	0	0.0	1054875.0	528	0.01	0.05	33.12	349330.0	1474.0	115659	0.25
5317STDY8020506	59.94	247018.0	1587.0	1.27	1.5	8.28	147.68	0.01	0.45	150.0	117.0	246474.0	243777.0	587115.0	1822.0	0	0.0	979479.0	490	0.01	0.05	31.54	308960.0	1537.0	81092	0.19
5317STDY8020507	64.92	396086.0	3011.0	1.26	1.52	7.06	148.06	0.01	0.4	150.0	244.0	395414.0	390801.0	910852.0	3084.0	0	0.0	1402935.0	702	0.01	0.05	27.74	389222.0	2030.0	99075	0.22
5317STDY8020508	66.91	310755.0	3020.0	1.25	1.56	6.23	148.52	0.01	0.43	150.0	224.0	310151.0	305833.0	830470.0	2411.0	0	0.0	1241120.0	372	0.01	0.03	26.64	330593.0	1678.0	77274	0.19
5317STDY8020509	70.21	315322.0	2138.0	1.29	1.52	4.91	148.37	0.01	0.47	150.0	242.0	314793.0	311842.0	662071.0	2600.0	0	0.0	942926.0	283	0.01	0.03	24.57	231645.0	1100.0	46327	0.28
5317STDY8020510	71.99	227560.0	1920.0	1.27	1.47	7.16	148.23	0.01	0.46	150.0	160.0	227113.0	224246.0	626516.0	1339.0	0	0.0	870240.0	348	0.01	0.04	20.66	179776.0	1234.0	62261	0.15
5317STDY8020511	67.85	106755.0	781.0	1.32	1.54	10.92	148.37	0.01	0.52	150.0	63.0	106431.0	105195.0	342225.0	1178.0	0	0.0	504393.0	303	0.01	0.06	20.94	105618.0	716.0	55069	0.23
5317STDY8020512	65.65	294609.0	1803.0	1.25	1.5	5.74	148.02	0.01	0.46	150.0	241.0	294138.0	291553.0	570674.0	1420.0	0	0.0	869257.0	261	0.01	0.03	28.41	246993.0	1012.0	49909	0.16
5317STDY8020513	51.77	173448.0	998.0	1.22	1.4	13.59	147.59	0.01	0.47	150.0	147.0	172920.0	171464.0	416286.0	2469.0	0	0.0	804080.0	322	0.01	0.04	34.29	275737.0	839.0	109266	0.31
5317STDY8020514	66.03	301844.0	1975.0	1.28	1.54	6.26	148.27	0.01	0.44	150.0	212.0	301139.0	297903.0	744588.0	2722.0	0	0.0	1127730.0	903	0.01	0.08	27.39	308894.0	1754.0	70623	0.24
5317STDY8020515	65.78	413968.0	2708.0	1.25	1.49	6.13	148.01	0.01	0.41	150.0	227.0	413320.0	409522.0	867716.0	2847.0	0	0.0	1319072.0	396	0.01	0.03	27.84	367189.0	1511.0	80924	0.22
5317STDY8020516	66.98	330665.0	2225.0	1.28	1.5	5.4	148.35	0.01	0.44	150.0	342.0	330172.0	326803.0	774204.0	2525.0	0	0.0	1155959.0	693	0.01	0.06	27.35	316179.0	1295.0	62358	0.22
5317STDY8020517	63.79	291754.0	2065.0	1.29	1.53	6.55	148.12	0.01	0.43	150.0	285.0	291127.0	287917.0	750138.0	2490.0	0	0.0	1175944.0	470	0.01	0.04	29.41	345820.0	1487.0	77026	0.21
5317STDY8020518	59.35	329337.0	2381.0	1.28	1.5	8.81	148.26	0.01	0.42	150.0	210.0	328800.0	324757.0	822289.0	4119.0	0	0.0	1385465.0	415	0.01	0.03	31.52	436634.0	1989.0	122008	0.3
5317STDY8020519	53.63	250816.0	1639.0	1.3	1.45	7.39	148.19	0.01	0.44	150.0	84.0	250293.0	247842.0	620772.0	4088.0	0	0.0	1157534.0	463	0.01	0.04	38.59	446681.0	1251.0	85530	0.35
5317STDY8020520	52.11	276880.0	1887.0	1.31	1.56	9.88	148.11	0.01	0.43	150.0	179.0	276101.0	271380.0	708837.0	4797.0	0	0.0	1360335.0	1634	0.01	0.12	37.53	510559.0	3434.0	134508	0.35
5317STDY8020521	62.71	336272.0	2275.0	1.28	1.45	7.57	147.99	0.01	0.43	150.0	383.0	335523.0	332025.0	782920.0	3964.0	0	0.0	1248504.0	624	0.01	0.05	29.36	366547.0	1589.0	94449	0.32
5317STDY8020522	65.34	274317.0	2327.0	1.32	1.52	5.42	148.27	0.01	0.42	150.0	226.0	273784.0	270152.0	686088.0	2447.0	0	0.0	1050051.0	524	0.01	0.05	28.97	304165.0	1612.0	56827	0.23
5317STDY8020523	68.11	263133.0	2301.0	1.3	1.62	7.9	148.38	0.01	0.43	150.0	118.0	262629.0	259442.0	763298.0	2859.0	0	0.0	1120612.0	784	0.01	0.07	23.66	265167.0	1272.0	88504	0.26
5317STDY8020524	65.54	93262.0	388.0	1.23	1.61	16.26	145.6	0.01	0.42	150.0	16.0	93063.0	92518.0	186245.0	782.0	0	0.0	284183.0	114	0.01	0.04	17.89	50831.0	340.0	46211	0.28
5317STDY8020525	58.55	228353.0	1387.0	1.31	1.51	7.47	147.9	0.01	0.42	150.0	154.0	227873.0	225400.0	611013.0	2118.0	0	0.0	1043552.0	626	0.01	0.06	33.72	351849.0	1412.0	77946	0.2
5317STDY8020526	66.95	368016.0	2458.0	1.25	1.47	6.74	147.98	0.01	0.39	150.0	269.0	367227.0	363373.0	762220.0	2603.0	0	0.0	1138542.0	455	0.01	0.04	26.05	296563.0	1916.0	76701	0.23
5317STDY8020527	66.49	254985.0	2014.0	1.3	1.5	7.26	148.23	0.01	0.46	150.0	126.0	254485.0	251694.0	654352.0	2880.0	0	0.0	984065.0	296	0.01	0.03	25.92	255024.0	1151.0	71513	0.29
5317STDY8020528	65.14	234937.0	2086.0	1.26	1.5	7.0	148.18	0.01	0.39	150.0	159.0	234498.0	231047.0	696648.0	3323.0	0	0.0	1069409.0	535	0.01	0.05	27.49	294000.0	1645.0	74903	0.31
5317STDY8020529	57.53	210977.0	1539.0	1.25	1.49	8.32	147.76	0.01	0.39	150.0	110.0	210563.0	208033.0	504417.0	1989.0	0	0.0	876719.0	439	0.01	0.05	33.87	296908.0	1295.0	72966	0.23
5317STDY8020530	59.74	234227.0	1784.0	1.32	1.57	6.89	148.07	0.01	0.43	150.0	95.0	233735.0	231030.0	655207.0	2463.0	0	0.0	1096802.0	549	0.01	0.05	33.09	362961.0	1318.0	75622	0.22
5317STDY8020531	68.39	250219.0	1897.0	1.26	1.53	8.33	147.86	0.01	0.44	150.0	233.0	249592.0	246273.0	692308.0	2492.0	0	0.0	1012349.0	810	0.01	0.08	22.96	232432.0	1816.0	84307	0.25
5317STDY8020532	55.89	213605.0	1362.0	1.25	1.6	9.29	147.28	0.01	0.43	150.0	62.0	212970.0	210654.0	513833.0	2666.0	0	0.0	919389.0	552	0.01	0.06	34.47	316910.0	1527.0	85428	0.29
5317STDY8020533	61.6	265392.0	2074.0	1.26	1.53	8.03	147.22	0.01	0.46	150.0	170.0	264875.0	261666.0	509228.0	1938.0	0	0.0	826690.0	248	0.01	0.03	30.11	248934.0	1482.0	66342	0.23
5317STDY8020534	55.84	177632.0	1510.0	1.24	1.5	8.75	147.67	0.01	0.39	150.0	88.0	177248.0	175028.0	454686.0	2029.0	0	0.0	814246.0	570	0.01	0.07	35.09	285726.0	1006.0	71235	0.25
5317STDY8020535	72.82	229142.0	1866.0	1.35	1.59	7.15	148.64	0.01	0.38	150.0	206.0	228740.0	225826.0	722462.0	1859.0	0	0.0	992168.0	793	0.01	0.08	19.77	196166.0	1244.0	70888	0.19
5317STDY8020536	52.59	2510.0	18.0	1.22	1.47	38.29	142.05	0.01	0.58	150.0	0.0	2484.0	2465.0	9069.0	90.0	0	0.0	17246.0	14	0.01	0.08	8.52	1469.0	27.0	6604	0.52
5317STDY8020537	48.19	3539.0	25.0	1.18	1.32	44.25	141.17	0.01	0.57	150.0	1.0	3503.0	3488.0	11938.0	124.0	0	0.0	24773.0	7	0.01	0.03	7.04	1743.0	25.0	10961	0.5
5317STDY8020538	56.05	302056.0	2145.0	1.26	1.54	7.09	147.59	0.01	0.4	150.0	173.0	301557.0	298256.0	630054.0	2571.0	0	0.0	1124091.0	562	0.01	0.05	36.58	411247.0	1482.0	79657	0.23
5317STDY8020539	64.49	298796.0	1677.0	1.28	1.59	22.34	147.41	0.01	0.39	150.0	173.0	297899.0	293850.0	586857.0	872.0	0	0.0	909928.0	273	0.01	0.03	13.04	118662.0	3096.0	203264	0.1
5317STDY8020540	55.78	141970.0	1038.0	1.3	1.45	7.41	148.06	0.01	0.49	150.0	141.0	141635.0	140156.0	377430.0	1740.0	0	0.0	676627.0	338	0.01	0.05	36.51	247015.0	635.0	50104	0.26
5317STDY8020541	63.23	328729.0	2286.0	1.23	1.56	5.01	148.09	0.01	0.44	150.0	279.0	328191.0	325251.0	588512.0	1500.0	0	0.0	930731.0	93	0.01	0.01	31.59	294026.0	913.0	46600	0.16
5317STDY8020542	64.08	266924.0	1740.0	1.26	1.37	5.92	148.13	0.01	0.45	150.0	192.0	266377.0	263694.0	616900.0	2131.0	0	0.0	962632.0	578	0.01	0.06	29.71	285997.0	1298.0	57026	0.22
5317STDY8020543	69.31	242470.0	1498.0	1.21	1.64	12.69	146.15	0.01	0.39	150.0	191.0	242007.0	239757.0	412151.0	985.0	0	0.0	594614.0	297	0.01	0.05	17.78	105739.0	1024.0	75442	0.17
5317STDY8020544	63.49	28226.0	118.0	1.37	1.87	24.9	144.08	0.01	0.47	150.0	11.0	28105.0	27819.0	67357.0	619.0	0	0.0	106097.0	42	0.01	0.04	11.0	11668.0	278.0	26411	0.58
5317STDY8020545	69.74	28607.0	119.0	1.22	1.93	17.81	145.68	0.02	0.4	150.0	13.0	28529.0	28387.0	58067.0	273.0	0	0.0	83260.0	42	0.01	0.05	12.07	10048.0	88.0	14830	0.33
5317STDY8020546	26.84	64453.0	419.0	1.22	1.54	60.55	148.07	0.01	0.47	150.0	57.0	64278.0	63737.0	150547.0	483.0	0	0.0	560843.0	112	0.01	0.02	12.51	70136.0	240.0	339565	0.09
5317STDY8020547	57.81	113657.0	858.0	1.28	1.47	11.15	148.08	0.01	0.53	150.0	94.0	113360.0	112178.0	319224.0	1607.0	0	0.0	552161.0	331	0.01	0.06	30.69	169441.0	527.0	61558	0.29
5317STDY8020548	61.14	204375.0	1353.0	1.29	1.53	7.06	147.93	0.01	0.48	150.0	183.0	203852.0	201798.0	495551.0	2398.0	0	0.0	810473.0	406	0.01	0.05	31.44	254845.0	1041.0	57273	0.3
5317STDY8020549	66.33	339132.0	1686.0	1.34	1.46	22.44	146.93	0.01	0.38	150.0	65.0	337975.0	334599.0	623330.0	1096.0	0	0.0	939792.0	564	0.01	0.06	11.05	103862.0	2782.0	210940	0.12
5317STDY8020550	57.31	253255.0	1956.0	1.32	1.54	7.1	148.06	0.01	0.44	150.0	238.0	252662.0	249904.0	623359.0	3326.0	0	0.0	1087659.0	326	0.01	0.03	35.25	383413.0	1157.0	77235	0.31
5317STDY8020551	61.66	200344.0	1473.0	1.27	1.53	8.46	148.1	0.01	0.48	150.0	137.0	199790.0	197717.0	552053.0	2472.0	0	0.0	895315.0	358	0.01	0.04	29.57	264703.0	1017.0	75729	0.28
5317STDY8020552	61.24	212358.0	1724.0	1.24	1.51	7.37	148.1	0.01	0.46	150.0	97.0	211756.0	209138.0	654122.0	2730.0	0	0.0	1068057.0	961	0.01	0.09	31.04	331516.0	1399.0	78728	0.26
5317STDY8020553	53.54	256707.0	1484.0	1.23	1.38	8.51	148.07	0.01	0.47	150.0	146.0	256306.0	254157.0	500770.0	2384.0	0	0.0	935399.0	187	0.01	0.02	37.68	352444.0	920.0	79614	0.25
5317STDY8020554	61.88	65204.0	543.0	1.33	1.48	8.24	148.26	0.01	0.55	150.0	65.0	64997.0	64245.0	169593.0	1172.0	0	0.0	274051.0	110	0.01	0.04	29.41	80594.0	351.0	22582	0.43
5317STDY8020555	68.6	117854.0	743.0	1.28	1.51	10.02	148.14	0.01	0.53	150.0	80.0	117551.0	116561.0	317192.0	1105.0	0	0.0	462354.0	278	0.01	0.06	21.07	97429.0	470.0	46350	0.24
5317STDY8020556	45.02	127.0	1.0	1.52	2.17	50.16	147.77	0.02	0.41	150.0	0.0	122.0	123.0	3874.0	38.0	0	0.0	8605.0	65	0.01	0.76	3.63	312.0	3.0	4316	0.44
5317STDY8020557	70.79	176444.0	946.0	1.28	1.56	11.53	147.44	0.01	0.44	150.0	88.0	176034.0	174467.0	418333.0	920.0	0	0.0	590933.0	769	0.01	0.13	17.38	102723.0	943.0	68188	0.16
5317STDY8020558	72.39	163977.0	914.0	1.23	1.58	8.73	147.83	0.01	0.47	150.0	106.0	163617.0	162251.0	349064.0	838.0	0	0.0	482199.0	97	0.01	0.02	18.68	90066.0	706.0	42134	0.17
5317STDY8020559	75.99	285843.0	1345.0	1.36	1.61	13.22	146.63	0.01	0.41	150.0	114.0	285308.0	282796.0	596853.0	1336.0	0	0.0	785407.0	314	0.01	0.04	10.58	83134.0	1588.0	103770	0.17
5317STDY8020560	69.93	185236.0	1314.0	1.27	1.5	10.14	147.78	0.01	0.43	150.0	133.0	184773.0	182864.0	449971.0	942.0	0	0.0	643493.0	257	0.01	0.04	19.75	127074.0	925.0	65249	0.15
5317STDY8020561	74.01	341368.0	1878.0	1.21	1.47	13.36	146.57	0.01	0.39	150.0	181.0	340784.0	337702.0	617406.0	1370.0	0	0.0	834213.0	334	0.01	0.04	12.43	103664.0	1607.0	111439	0.16
5317STDY8020562	66.61	206965.0	1365.0	1.26	1.45	10.93	147.7	0.01	0.44	150.0	85.0	206420.0	204445.0	488028.0	1687.0	0	0.0	732622.0	220	0.01	0.03	22.2	162642.0	1070.0	80045	0.23
5317STDY8020563	65.35	264127.0	2020.0	1.32	1.56	12.56	147.47	0.01	0.42	150.0	102.0	263371.0	260413.0	571233.0	1137.0	0	0.0	874051.0	437	0.01	0.05	21.9	191419.0	1592.0	109825	0.13
5317STDY8020564	69.67	241496.0	1318.0	1.31	1.68	11.81	147.63	0.01	0.42	150.0	122.0	241069.0	239240.0	519998.0	1268.0	0	0.0	746334.0	448	0.01	0.06	18.29	136526.0	816.0	88094	0.17
5317STDY8020565	66.79	67187.0	443.0	1.21	1.57	13.15	147.54	0.01	0.48	150.0	42.0	66980.0	66325.0	191057.0	597.0	0	0.0	286050.0	143	0.01	0.05	19.79	56621.0	377.0	37632	0.21
5317STDY8020566	62.65	147051.0	1083.0	1.22	1.52	18.92	147.93	0.01	0.45	150.0	93.0	146694.0	145031.0	386918.0	1218.0	0	0.0	617567.0	309	0.01	0.05	18.18	112270.0	844.0	116852	0.2
5317STDY8020567	68.25	188462.0	1088.0	1.28	1.46	11.6	147.42	0.01	0.45	150.0	148.0	188012.0	186216.0	461149.0	1115.0	0	0.0	675725.0	270	0.01	0.04	19.95	134814.0	1010.0	78377	0.17
5317STDY8020568	73.25	348843.0	1088.0	1.19	1.67	15.24	145.86	0.01	0.42	150.0	59.0	347892.0	345866.0	653563.0	3226.0	0	0.0	892176.0	357	0.01	0.04	11.1	99020.0	1830.0	136010	0.36
5317STDY8020569	70.92	316380.0	2154.0	1.28	1.65	15.73	146.32	0.01	0.41	150.0	107.0	315717.0	313093.0	608657.0	1185.0	0	0.0	858272.0	429	0.01	0.05	13.17	113020.0	1026.0	134981	0.14
5317STDY8020570	73.76	357248.0	1581.0	1.23	1.73	12.53	146.8	0.01	0.41	150.0	28.0	356546.0	353599.0	673202.0	1933.0	0	0.0	912674.0	365	0.01	0.04	13.46	122863.0	2040.0	114311	0.21
5317STDY8020571	67.97	194882.0	1278.0	1.28	1.56	20.95	145.4	0.01	0.42	150.0	108.0	194377.0	191395.0	568687.0	3488.0	0	0.0	836715.0	502	0.01	0.06	10.6	88721.0	2101.0	175317	0.42
5317STDY8020572	69.03	109989.0	484.0	1.23	1.56	17.4	145.85	0.01	0.46	150.0	9.0	109673.0	108774.0	301144.0	691.0	0	0.0	436255.0	218	0.02	0.05	13.36	58287.0	722.0	75915	0.16
5317STDY8020573	71.19	216546.0	795.0	1.22	1.62	19.44	145.33	0.01	0.42	150.0	14.0	216023.0	214462.0	446479.0	2837.0	0	0.0	627179.0	376	0.01	0.06	8.86	55552.0	1275.0	121935	0.45
5317STDY8020574	56.37	186852.0	1061.0	1.2	1.39	36.4	146.17	0.01	0.39	150.0	10.0	186475.0	184026.0	379930.0	1395.0	0	0.0	674010.0	337	0.01	0.05	6.98	47017.0	1755.0	245331	0.21
5317STDY8020575	66.73	271703.0	1764.0	1.24	1.48	14.38	146.92	0.01	0.42	150.0	42.0	271183.0	268713.0	522340.0	2217.0	0	0.0	782812.0	235	0.01	0.03	18.58	145448.0	1184.0	112572	0.28
5317STDY8020576	56.59	19347.0	167.0	1.11	1.54	35.51	142.95	0.01	0.53	150.0	14.0	19211.0	18960.0	55924.0	861.0	0	0.0	98819.0	109	0.01	0.11	6.93	6844.0	206.0	35081	0.87
5317STDY8020577	24.54	258.0	0.0	1.17	2.83	70.16	144.69	0.02	0.54	150.0	0.0	256.0	257.0	760.0	9.0	0	0.0	3097.0	2	0.01	0.06	4.94	153.0	1.0	2173	0.29
5317STDY8020578	76.26	220314.0	949.0	1.26	1.43	12.56	146.76	0.01	0.42	150.0	99.0	219826.0	218322.0	501490.0	973.0	0	0.0	657647.0	329	0.01	0.05	10.99	72250.0	944.0	82605	0.15
5317STDY8020579	60.69	60827.0	442.0	1.2	1.54	19.7	146.94	0.01	0.47	150.0	24.0	60592.0	59993.0	215707.0	526.0	0	0.0	355417.0	142	0.02	0.04	19.42	69022.0	368.0	70020	0.15
5317STDY8020580	72.19	185325.0	992.0	1.27	1.4	17.87	145.29	0.01	0.41	150.0	88.0	184829.0	183542.0	389283.0	1813.0	0	0.0	539215.0	701	0.01	0.13	9.47	51075.0	703.0	96343	0.34
5317STDY8020581	74.69	330461.0	1579.0	1.25	1.65	14.54	146.27	0.01	0.38	150.0	283.0	329964.0	327406.0	606851.0	3285.0	0	0.0	812464.0	569	0.01	0.07	10.29	83602.0	1193.0	118157	0.4
5317STDY8020582	70.37	190413.0	1483.0	1.27	1.53	13.79	147.06	0.01	0.43	150.0	92.0	189942.0	187938.0	453799.0	935.0	0	0.0	644890.0	258	0.01	0.04	15.65	100957.0	900.0	88941	0.14
5317STDY8020583	74.73	409828.0	1608.0	1.17	1.57	12.54	147.05	0.01	0.36	150.0	247.0	409306.0	406721.0	725393.0	1479.0	0	0.0	970689.0	291	0.01	0.03	12.55	121831.0	1252.0	121695	0.15
5317STDY8020584	71.97	295593.0	1674.0	1.24	1.41	13.15	146.98	0.01	0.4	150.0	124.0	294914.0	292517.0	580439.0	884.0	0	0.0	806526.0	242	0.01	0.03	14.75	118935.0	1278.0	106026	0.11
5317STDY8020585	67.18	277660.0	2074.0	1.24	1.54	15.1	147.04	0.01	0.42	150.0	101.0	276859.0	273374.0	672541.0	2099.0	0	0.0	1001094.0	801	0.01	0.08	17.43	174479.0	2111.0	151174	0.21
5317STDY8020586	67.98	256545.0	1732.0	1.26	1.48	10.85	147.37	0.01	0.43	150.0	107.0	256136.0	253813.0	507422.0	1246.0	0	0.0	746386.0	224	0.01	0.03	20.97	156493.0	893.0	81001	0.17
5317STDY8020587	71.26	339383.0	1572.0	1.27	1.74	14.74	146.94	0.01	0.39	150.0	54.0	338844.0	336686.0	697657.0	1401.0	0	0.0	978988.0	979	0.01	0.1	13.76	134693.0	1071.0	144258	0.14
5317STDY8020588	72.26	360260.0	2162.0	1.22	1.56	12.06	147.08	0.01	0.39	150.0	207.0	359630.0	356478.0	738366.0	2151.0	0	0.0	1021868.0	409	0.01	0.04	15.43	157681.0	1413.0	123261	0.21
5317STDY8020589	73.44	215143.0	963.0	1.29	1.57	15.83	145.79	0.01	0.43	150.0	24.0	214542.0	212997.0	528911.0	1198.0	0	0.0	720242.0	216	0.01	0.03	10.53	75846.0	1159.0	114071	0.17
5317STDY8020590	66.38	171921.0	1174.0	1.25	1.65	12.05	147.68	0.01	0.47	150.0	56.0	171370.0	169633.0	377658.0	1590.0	0	0.0	568914.0	114	0.01	0.02	21.27	121007.0	1058.0	68545	0.28
5317STDY8020591	69.95	158999.0	928.0	1.27	1.46	9.53	147.82	0.01	0.45	150.0	159.0	158623.0	157241.0	413850.0	992.0	0	0.0	591640.0	177	0.01	0.03	20.33	120275.0	671.0	56346	0.17
5317STDY8020592	71.93	252705.0	1250.0	1.17	1.68	16.22	146.45	0.01	0.42	150.0	77.0	251927.0	249915.0	569258.0	1539.0	0	0.0	791387.0	396	0.01	0.05	11.61	91878.0	1463.0	128316	0.19
5317STDY8020593	69.01	226893.0	1677.0	1.25	1.5	14.49	146.94	0.01	0.44	150.0	121.0	226309.0	223808.0	533180.0	1381.0	0	0.0	772658.0	386	0.01	0.05	16.27	125729.0	1287.0	111982	0.18
5317STDY8020594	75.42	269826.0	1796.0	1.27	1.46	9.21	147.48	0.01	0.42	150.0	148.0	269293.0	266750.0	593850.0	1183.0	0	0.0	787344.0	394	0.01	0.05	15.16	119399.0	1132.0	72518	0.15
5317STDY8020595	64.8	124951.0	897.0	1.2	1.5	10.97	147.48	0.01	0.45	150.0	79.0	124617.0	123401.0	294258.0	1247.0	0	0.0	454115.0	227	0.01	0.05	23.9	108534.0	574.0	49849	0.27
5317STDY8020596	72.91	246047.0	1526.0	1.21	1.42	11.64	147.44	0.01	0.42	150.0	230.0	245609.0	242986.0	622087.0	1388.0	0	0.0	853260.0	341	0.01	0.04	15.25	130095.0	1305.0	99349	0.16
5317STDY8020597	65.61	148927.0	1077.0	1.23	1.51	12.26	147.57	0.01	0.46	150.0	100.0	148516.0	146818.0	408072.0	1665.0	0	0.0	621933.0	435	0.01	0.07	21.79	135510.0	932.0	76251	0.27
5317STDY8020598	67.62	211246.0	1389.0	1.21	1.48	11.04	147.39	0.01	0.44	150.0	57.0	210837.0	208838.0	458965.0	857.0	0	0.0	678737.0	136	0.01	0.02	21.19	143804.0	962.0	74975	0.13
5317STDY8020599	73.26	200042.0	878.0	1.29	1.51	10.12	147.54	0.01	0.44	150.0	108.0	199596.0	197572.0	555860.0	798.0	0	0.0	758772.0	455	0.01	0.06	16.46	124912.0	1484.0	76747	0.11
5317STDY8020600	64.68	228570.0	1742.0	1.25	1.55	10.31	147.59	0.01	0.43	150.0	249.0	228067.0	225451.0	527470.0	1264.0	0	0.0	815512.0	489	0.01	0.06	24.79	202178.0	1128.0	84111	0.15
5317STDY8020601	50.7	10840.0	78.0	1.17	1.48	42.09	141.38	0.01	0.54	150.0	2.0	10779.0	10667.0	33579.0	227.0	0	0.0	66226.0	46	0.02	0.07	6.79	4500.0	93.0	27874	0.34
5317STDY8020602	69.18	215338.0	1837.0	1.25	1.67	8.98	147.92	0.01	0.45	150.0	81.0	214887.0	212196.0	503014.0	2239.0	0	0.0	727153.0	218	0.01	0.03	21.51	156395.0	1224.0	65287	0.31
5317STDY8020603	64.58	170491.0	1168.0	1.28	1.46	10.29	147.82	0.01	0.47	150.0	174.0	170065.0	168174.0	458859.0	1428.0	0	0.0	710571.0	213	0.01	0.03	24.9	176967.0	975.0	73104	0.2
5317STDY8020604	69.0	219514.0	1079.0	1.23	1.43	16.23	146.33	0.01	0.42	150.0	210.0	218856.0	216565.0	552932.0	1708.0	0	0.0	801311.0	481	0.01	0.06	14.49	116116.0	1660.0	130074	0.21
5317STDY8020605	62.35	102324.0	548.0	1.21	1.47	16.88	146.79	0.01	0.48	150.0	31.0	101956.0	101155.0	258812.0	637.0	0	0.0	415118.0	166	0.01	0.04	20.58	85431.0	590.0	70072	0.15
5317STDY8020606	15.34	110.0	0.0	1.0	3.67	79.1	147.01	0.04	0.5	150.0	0.0	109.0	109.0	408.0	4.0	0	0.0	2660.0	7	0.0	0.26	5.15	137.0	1.0	2104	0.15
5317STDY8020607	74.53	352799.0	1208.0	1.34	1.37	9.16	147.26	0.01	0.36	150.0	230.0	352014.0	349584.0	839410.0	2773.0	0	0.0	1126230.0	2927	0.01	0.26	15.8	177982.0	1777.0	103138	0.25
5317STDY8020608	65.2	97104.0	591.0	1.22	1.52	11.86	147.4	0.01	0.48	150.0	73.0	96815.0	96067.0	255598.0	910.0	0	0.0	392022.0	157	0.01	0.04	22.67	88856.0	373.0	46501	0.23
5317STDY8020609	74.0	175519.0	913.0	1.2	1.59	10.15	147.37	0.01	0.44	150.0	113.0	175025.0	173627.0	406205.0	807.0	0	0.0	548902.0	220	0.01	0.04	15.66	85960.0	866.0	55710	0.15
5317STDY8020610	70.0	174829.0	1138.0	1.23	1.59	10.92	147.47	0.01	0.44	150.0	94.0	174450.0	172930.0	446573.0	1892.0	0	0.0	638000.0	383	0.01	0.06	18.73	119478.0	667.0	69674	0.3
5317STDY8020611	71.59	328959.0	1696.0	1.27	1.64	11.38	147.55	0.01	0.4	150.0	91.0	328322.0	325638.0	744365.0	1416.0	0	0.0	1039770.0	208	0.01	0.02	16.88	175464.0	1534.0	118317	0.14
5317STDY8020612	72.11	214982.0	1155.0	1.23	1.46	10.74	147.21	0.01	0.44	150.0	54.0	214422.0	212293.0	569607.0	1213.0	0	0.0	789871.0	316	0.01	0.04	16.95	133856.0	1480.0	84879	0.15
5317STDY8020613	27.82	22794.0	90.0	1.15	1.74	68.5	144.94	0.01	0.46	150.0	1.0	22709.0	22549.0	60348.0	192.0	0	0.0	216922.0	43	0.01	0.02	3.57	7734.0	154.0	148605	0.09
5317STDY8020614	70.78	70138.0	456.0	1.25	1.54	8.89	147.65	0.01	0.51	150.0	50.0	69908.0	69359.0	174485.0	606.0	0	0.0	246523.0	74	0.01	0.03	20.06	49449.0	273.0	21909	0.25
5317STDY8020615	65.51	243446.0	1885.0	1.22	1.55	12.55	147.55	0.01	0.43	150.0	88.0	242812.0	239883.0	587538.0	1191.0	0	0.0	896930.0	628	0.01	0.07	21.75	195053.0	1590.0	112520	0.13
5317STDY8020616	69.71	200403.0	1757.0	1.24	1.38	22.28	144.48	0.01	0.42	150.0	2.0	199550.0	197264.0	457594.0	1347.0	0	0.0	656461.0	328	0.01	0.05	7.75	50908.0	1380.0	146284	0.21
5317STDY8020617	73.52	281766.0	1368.0	1.26	1.45	13.75	146.78	0.01	0.42	150.0	150.0	281061.0	278143.0	674033.0	1185.0	0	0.0	916809.0	550	0.01	0.06	12.54	114985.0	2105.0	126056	0.13
5317STDY8020618	69.35	296527.0	1874.0	1.26	1.46	11.68	147.32	0.01	0.4	150.0	232.0	295851.0	292699.0	688653.0	1759.0	0	0.0	993072.0	397	0.01	0.04	18.75	186246.0	1722.0	116017	0.18
5317STDY8020619	74.0	412710.0	2381.0	1.26	1.4	9.94	147.42	0.01	0.39	150.0	112.0	411850.0	408339.0	873767.0	1265.0	0	0.0	1180826.0	472	0.01	0.04	15.91	187922.0	1878.0	117400	0.11
5317STDY8020620	66.88	209842.0	1551.0	1.23	1.54	16.23	146.88	0.01	0.42	150.0	65.0	209360.0	206918.0	451632.0	848.0	0	0.0	675244.0	338	0.01	0.05	16.71	112855.0	1308.0	109571	0.13
5317STDY8020621	73.46	261913.0	1441.0	1.23	1.45	13.63	147.2	0.01	0.42	150.0	28.0	261131.0	258708.0	587429.0	961.0	0	0.0	799652.0	160	0.01	0.02	12.77	102113.0	1736.0	108989	0.12
5317STDY8020622	73.05	192107.0	1157.0	1.2	1.48	14.29	147.03	0.01	0.43	150.0	142.0	191581.0	189857.0	550148.0	1896.0	0	0.0	753116.0	301	0.01	0.04	12.37	93165.0	951.0	107606	0.25
5317STDY8020623	73.76	312518.0	1687.0	1.22	1.86	8.84	147.38	0.01	0.41	150.0	159.0	311913.0	309482.0	616494.0	1478.0	0	0.0	835758.0	334	0.01	0.04	17.18	143553.0	1190.0	73899	0.18
5317STDY8020624	74.67	327460.0	1840.0	1.28	1.57	13.6	146.95	0.01	0.41	150.0	95.0	326690.0	323825.0	802036.0	1444.0	0	0.0	1074117.0	322	0.01	0.03	11.57	124268.0	1700.0	146047	0.13
5317STDY8020625	64.92	121020.0	338.0	1.17	1.42	26.42	144.05	0.01	0.43	150.0	15.0	120581.0	119347.0	271351.0	564.0	0	0.0	417982.0	376	0.01	0.09	8.44	35265.0	1320.0	110426	0.13
5317STDY8020626	47.29	20495.0	159.0	1.25	1.44	30.75	146.47	0.01	0.59	150.0	20.0	20268.0	20137.0	84903.0	531.0	0	0.0	179535.0	144	0.02	0.08	21.58	38748.0	179.0	55209	0.3
5317STDY8020627	71.34	279313.0	1669.0	1.17	1.46	11.44	146.9	0.01	0.41	150.0	37.0	278680.0	275974.0	633232.0	1901.0	0	0.0	887681.0	444	0.01	0.05	16.96	150568.0	1633.0	101536	0.21
5317STDY8020628	52.96	8884.0	153.0	1.23	1.38	39.66	141.56	0.02	0.54	150.0	0.0	8841.0	8628.0	28112.0	191.0	0	0.0	53085.0	0	0.01	0.0	7.02	3726.0	103.0	21056	0.36
5317STDY8020629	66.38	124844.0	593.0	1.3	1.41	24.57	144.05	0.01	0.44	150.0	212.0	124507.0	123542.0	289478.0	1191.0	0	0.0	436069.0	218	0.01	0.05	8.72	38040.0	497.0	107142	0.27
5317STDY8020630	70.09	182184.0	1038.0	1.2	1.68	21.57	144.48	0.01	0.45	150.0	105.0	181688.0	180137.0	451936.0	1618.0	0	0.0	644833.0	258	0.02	0.04	8.06	51942.0	904.0	139079	0.25
5317STDY8020631	69.25	191296.0	962.0	1.33	1.48	20.26	145.29	0.01	0.43	150.0	5.0	190548.0	188747.0	479145.0	881.0	0	0.0	691903.0	623	0.01	0.09	10.27	71057.0	1582.0	140197	0.13
5317STDY8020632	73.38	86765.0	509.0	1.18	1.52	12.92	146.14	0.01	0.44	150.0	66.0	86440.0	85722.0	202946.0	526.0	0	0.0	276567.0	55	0.01	0.02	13.49	37312.0	468.0	35728	0.19
5317STDY8020633	69.73	184864.0	1258.0	1.26	1.6	12.01	147.18	0.01	0.44	150.0	149.0	184395.0	182460.0	463371.0	1622.0	0	0.0	664522.0	399	0.01	0.06	17.95	119284.0	997.0	79846	0.24
5317STDY8020634	71.19	243268.0	1206.0	1.29	1.51	12.39	146.79	0.01	0.43	150.0	90.0	242699.0	240711.0	501256.0	1243.0	0	0.0	704139.0	352	0.01	0.05	16.2	114043.0	1261.0	87245	0.18
5317STDY8020635	50.68	152898.0	785.0	1.18	1.37	41.38	145.77	0.01	0.45	150.0	14.0	152478.0	151356.0	317841.0	646.0	0	0.0	627163.0	188	0.01	0.03	7.81	48996.0	743.0	259492	0.1
5317STDY8020636	66.33	178358.0	974.0	1.28	1.76	24.94	145.63	0.01	0.42	150.0	26.0	177643.0	176206.0	385337.0	2410.0	0	0.0	580916.0	232	0.01	0.04	8.28	48077.0	1152.0	144860	0.41
5317STDY8020637	45.97	3182.0	6.0	1.21	1.26	47.91	141.41	0.01	0.57	150.0	0.0	3151.0	3150.0	11128.0	129.0	0	0.0	24206.0	12	0.01	0.05	5.54	1340.0	26.0	11597	0.53
5317STDY8020638	70.67	243338.0	1095.0	1.15	1.61	15.59	146.02	0.01	0.42	150.0	31.0	242802.0	241411.0	420001.0	1673.0	0	0.0	594313.0	119	0.01	0.02	13.44	79857.0	801.0	92663	0.28
5317STDY8020639	67.54	62563.0	422.0	1.25	1.63	12.93	146.97	0.01	0.51	150.0	3.0	62259.0	61683.0	207515.0	702.0	0	0.0	307242.0	215	0.01	0.07	19.23	59097.0	455.0	39713	0.23
5317STDY8020640	66.15	164165.0	800.0	1.22	1.51	14.34	146.35	0.01	0.43	150.0	117.0	163748.0	162511.0	368788.0	1725.0	0	0.0	557501.0	167	0.01	0.03	19.18	106903.0	737.0	79918	0.31
5317STDY8020641	70.43	132153.0	848.0	1.21	1.48	9.97	147.57	0.01	0.48	150.0	62.0	131813.0	130672.0	311537.0	773.0	0	0.0	442305.0	133	0.01	0.03	19.39	85745.0	571.0	44117	0.17
5317STDY8020642	67.03	115225.0	765.0	1.29	1.57	8.97	147.67	0.01	0.48	150.0	68.0	114935.0	113993.0	253465.0	1052.0	0	0.0	378155.0	113	0.01	0.03	23.69	89591.0	399.0	33934	0.28
5317STDY8020643	65.8	181218.0	1196.0	1.35	1.61	11.12	147.33	0.01	0.45	150.0	13.0	180829.0	179132.0	410927.0	1451.0	0	0.0	624484.0	312	0.01	0.05	22.79	142345.0	877.0	69449	0.23
5317STDY8020644	70.38	197427.0	1101.0	1.21	1.48	11.43	147.22	0.01	0.45	150.0	147.0	196969.0	195332.0	435078.0	877.0	0	0.0	618219.0	185	0.01	0.03	18.02	111421.0	847.0	70658	0.14
5317STDY8020645	57.67	148615.0	889.0	1.25	1.49	18.09	147.18	0.01	0.44	150.0	18.0	148308.0	147100.0	409726.0	2292.0	0	0.0	710418.0	639	0.01	0.09	23.82	169235.0	608.0	128526	0.32
5317STDY8020646	56.56	145824.0	754.0	1.25	1.37	28.51	145.88	0.01	0.47	150.0	73.0	145023.0	142311.0	457378.0	5653.0	0	0.0	808675.0	1940	0.02	0.24	14.0	113191.0	2686.0	230513	0.7
5317STDY8020647	70.37	175516.0	1036.0	1.28	1.57	11.51	147.14	0.01	0.46	150.0	29.0	175136.0	173524.0	437468.0	919.0	0	0.0	621632.0	186	0.01	0.03	17.94	111522.0	927.0	71537	0.15
5317STDY8020648	73.67	172786.0	1002.0	1.22	1.54	13.06	146.88	0.01	0.44	150.0	26.0	172350.0	170911.0	376883.0	1330.0	0	0.0	511550.0	205	0.01	0.04	12.96	66318.0	847.0	66814	0.26
