Sample	uniquely_mapped_percent	num_splices	num_GCAG_splices	insertion_length	deletion_length	unmapped_tooshort_percent	avg_mapped_read_length	deletion_rate	mismatch_rate	avg_input_read_length	num_ATAC_splices	num_annotated_splices	num_GTAG_splices	uniquely_mapped	multimapped_toomany	unmapped_mismatches	unmapped_mismatches_percent	total_reads	unmapped_other	insertion_rate	unmapped_other_percent	multimapped_percent	multimapped	num_noncanonical_splices	unmapped_tooshort	multimapped_toomany_percent
5317STDY7838367	49.82	290938.0	1785.0	1.21	1.54	20.09	147.62	0.01	0.47	150.0	386.0	290238.0	287433.0	767764.0	5237.0	0	0.0	1541012.0	616	0.01	0.04	29.71	457874.0	1334.0	309521	0.34
5317STDY7838368	52.74	184570.0	1292.0	1.21	1.46	15.12	147.27	0.01	0.52	150.0	218.0	184024.0	182241.0	495939.0	2523.0	0	0.0	940399.0	188	0.01	0.02	31.86	299575.0	819.0	142174	0.27
5317STDY7838369	59.52	157540.0	1087.0	1.28	1.45	11.95	147.44	0.01	0.57	150.0	172.0	156947.0	155639.0	397865.0	3201.0	0	0.0	668447.0	134	0.01	0.02	28.02	187331.0	642.0	79916	0.48
5317STDY7838370	58.8	168420.0	1082.0	1.24	1.38	10.89	147.54	0.01	0.52	150.0	164.0	167949.0	166625.0	407154.0	2092.0	0	0.0	692423.0	138	0.01	0.02	29.99	207642.0	549.0	75397	0.3
5317STDY7838371	55.27	440924.0	4259.0	1.23	1.51	13.53	147.56	0.01	0.46	150.0	211.0	439642.0	434105.0	1074137.0	5207.0	0	0.0	1943540.0	1749	0.01	0.09	30.85	599499.0	2349.0	262948	0.27
5317STDY7838372	53.21	109380.0	789.0	1.28	1.48	10.02	146.81	0.01	0.52	150.0	151.0	108676.0	107223.0	510170.0	3195.0	0	0.0	958768.0	288	0.01	0.03	36.41	349041.0	1217.0	96074	0.33
5317STDY7838373	58.89	325504.0	3606.0	1.24	1.51	11.85	147.34	0.01	0.63	150.0	347.0	324517.0	320170.0	822517.0	5748.0	0	0.0	1396644.0	419	0.01	0.03	28.82	402501.0	1381.0	165459	0.41
5317STDY7838374	42.03	413208.0	3863.0	1.34	1.57	21.15	147.47	0.01	0.41	150.0	240.0	412109.0	406267.0	1066066.0	10160.0	0	0.0	2536609.0	1015	0.01	0.04	36.38	922695.0	2838.0	536673	0.4
5317STDY7838375	42.65	171125.0	1646.0	1.29	1.49	12.45	146.59	0.01	0.45	150.0	91.0	170333.0	167950.0	890528.0	8930.0	0	0.0	2087800.0	1670	0.01	0.08	44.39	926851.0	1438.0	259821	0.43
5317STDY7838376	51.71	577721.0	4013.0	1.24	1.45	14.86	147.72	0.01	0.42	150.0	402.0	576676.0	571009.0	1484312.0	8756.0	0	0.0	2870202.0	861	0.01	0.03	33.09	949611.0	2297.0	426662	0.31
5317STDY7838377	59.2	120348.0	783.0	1.32	1.48	12.85	147.36	0.01	0.55	150.0	96.0	119889.0	118883.0	309157.0	1847.0	0	0.0	522217.0	104	0.01	0.02	27.57	143992.0	586.0	67117	0.35
5317STDY7838378	46.08	395308.0	3432.0	1.42	1.55	22.41	147.33	0.01	0.42	150.0	321.0	393704.0	387473.0	1468270.0	10398.0	0	0.0	3186375.0	1593	0.01	0.05	31.13	992035.0	4082.0	714079	0.33
5317STDY7838379	57.0	125462.0	830.0	1.27	1.45	10.05	147.16	0.01	0.53	150.0	81.0	124832.0	123446.0	460323.0	4852.0	0	0.0	807621.0	404	0.01	0.05	32.3	260890.0	1105.0	81152	0.6
5317STDY7838380	47.8	505256.0	4536.0	1.27	1.56	19.88	147.34	0.01	0.4	150.0	359.0	503764.0	493638.0	1558767.0	9809.0	0	0.0	3261315.0	4566	0.01	0.14	31.88	1039846.0	6723.0	648327	0.3
5317STDY7838381	60.91	70300.0	425.0	1.16	1.31	25.34	146.15	0.01	0.55	150.0	694.0	69293.0	65925.0	1272809.0	4652.0	0	0.0	2089669.0	1672	0.01	0.08	13.44	280948.0	3256.0	529588	0.22
5317STDY7838382	54.2	319415.0	2462.0	1.25	1.43	11.8	147.66	0.01	0.45	150.0	299.0	318570.0	314441.0	839898.0	5530.0	0	0.0	1549743.0	929	0.01	0.06	33.59	520607.0	2213.0	182779	0.36
5317STDY7838383	44.54	257123.0	2085.0	1.26	1.45	16.69	147.59	0.01	0.48	150.0	195.0	256266.0	253219.0	815438.0	8942.0	0	0.0	1830823.0	549	0.01	0.03	38.25	700323.0	1624.0	305571	0.49
5317STDY7838384	53.4	319301.0	3031.0	1.25	1.54	11.64	148.12	0.01	0.48	150.0	211.0	318485.0	314017.0	760356.0	7079.0	0	0.0	1424018.0	570	0.01	0.04	34.42	490205.0	2042.0	165808	0.5
5317STDY7838385	57.92	253816.0	1862.0	1.23	1.43	10.52	147.5	0.01	0.52	150.0	157.0	253005.0	250448.0	645650.0	4065.0	0	0.0	1114719.0	223	0.01	0.02	31.17	347502.0	1349.0	117279	0.36
5317STDY7838386	49.55	337887.0	2897.0	1.33	1.54	16.9	147.43	0.01	0.44	150.0	245.0	336907.0	331619.0	1059719.0	6416.0	0	0.0	2138527.0	1069	0.01	0.05	33.2	710046.0	3126.0	361277	0.3
5317STDY7838387	61.25	237700.0	1771.0	1.25	1.44	10.01	147.48	0.01	0.51	150.0	198.0	236975.0	234777.0	577476.0	4541.0	0	0.0	942843.0	283	0.01	0.03	28.23	266195.0	954.0	94348	0.48
5317STDY7838388	43.83	177116.0	1484.0	1.26	1.54	16.08	147.13	0.01	0.43	150.0	5.0	176317.0	173003.0	1391121.0	18502.0	0	0.0	3174032.0	2858	0.01	0.09	39.41	1251006.0	2624.0	510545	0.58
5317STDY7838389	45.2	612253.0	5677.0	1.27	1.5	18.7	147.18	0.01	0.36	150.0	263.0	610440.0	600668.0	2087280.0	17959.0	0	0.0	4618266.0	3232	0.01	0.07	35.65	1646298.0	5645.0	863497	0.39
5317STDY7838390	59.95	337818.0	2266.0	1.25	1.51	9.34	147.48	0.01	0.48	150.0	328.0	337009.0	333739.0	810803.0	4460.0	0	0.0	1352572.0	676	0.01	0.05	30.34	410432.0	1485.0	126201	0.33
5317STDY7838391	50.9	258934.0	2542.0	1.24	1.57	18.99	147.5	0.01	0.5	150.0	176.0	257980.0	254012.0	926318.0	8660.0	0	0.0	1819806.0	546	0.01	0.03	29.6	538717.0	2204.0	345565	0.48
5317STDY7838392	56.93	411676.0	3466.0	1.28	1.51	12.01	147.48	0.01	0.48	150.0	87.0	410478.0	405330.0	1115300.0	9430.0	0	0.0	1959219.0	784	0.01	0.04	30.54	598366.0	2793.0	235339	0.48
5317STDY7838393	23.57	99447.0	584.0	1.34	1.6	57.53	147.56	0.01	0.56	150.0	184.0	99085.0	97504.0	349221.0	3210.0	0	0.0	1481749.0	148	0.01	0.01	18.68	276743.0	1175.0	852427	0.22
5317STDY7838394	57.51	237513.0	1787.0	1.23	1.46	9.8	147.44	0.01	0.5	150.0	240.0	236871.0	234290.0	673268.0	4764.0	0	0.0	1170615.0	234	0.01	0.02	32.25	377568.0	1196.0	114781	0.41
5317STDY7838395	55.73	419056.0	2957.0	1.21	1.61	12.55	147.49	0.01	0.45	150.0	218.0	418094.0	413175.0	1302254.0	10715.0	0	0.0	2336554.0	1402	0.01	0.06	31.2	728911.0	2706.0	293272	0.46
5317STDY7838396	2.25	4259.0	26.0	1.4	1.1	96.75	143.57	0.02	0.77	150.0	1.0	4089.0	2255.0	51434.0	653.0	0	0.0	2283817.0	914	0.02	0.04	0.92	21027.0	1977.0	2209789	0.03
5317STDY7838397	49.55	175087.0	1369.0	1.29	1.49	16.88	147.49	0.01	0.54	150.0	104.0	174580.0	171718.0	515177.0	5802.0	0	0.0	1039705.0	416	0.01	0.04	32.97	342763.0	1896.0	175547	0.56
5317STDY7838398	56.4	326863.0	2452.0	1.27	1.46	10.91	147.45	0.01	0.46	150.0	264.0	326113.0	322210.0	903891.0	6913.0	0	0.0	1602762.0	962	0.01	0.06	32.2	516144.0	1937.0	174852	0.43
5317STDY7838399	2.15	3633.0	11.0	1.49	1.04	96.93	143.85	0.02	0.69	150.0	3.0	3429.0	2531.0	67797.0	654.0	0	0.0	3147404.0	1888	0.03	0.06	0.83	26200.0	1088.0	3050865	0.02
5317STDY7838400	53.03	50142.0	416.0	1.24	1.58	17.12	146.83	0.01	0.59	150.0	21.0	49818.0	49419.0	184514.0	1544.0	0	0.0	347961.0	104	0.01	0.03	29.38	102215.0	286.0	59584	0.44
5317STDY7838401	50.97	406016.0	3656.0	1.34	1.57	18.67	147.38	0.01	0.43	150.0	324.0	404891.0	398316.0	1510987.0	14271.0	0	0.0	2964668.0	2075	0.01	0.07	29.81	883848.0	3720.0	553487	0.48
5317STDY7838402	53.71	315623.0	2791.0	1.29	1.55	14.92	147.43	0.01	0.51	150.0	319.0	314816.0	310588.0	814741.0	6077.0	0	0.0	1516936.0	607	0.01	0.04	30.93	469181.0	1925.0	226330	0.4
5317STDY7838403	50.98	212478.0	1549.0	1.29	1.4	17.38	147.43	0.01	0.52	150.0	102.0	211810.0	208567.0	778969.0	7939.0	0	0.0	1527955.0	917	0.01	0.06	31.06	474552.0	2260.0	265578	0.52
5317STDY7838404	2.29	2426.0	28.0	1.07	1.14	96.6	144.46	0.01	0.52	150.0	2.0	2354.0	1713.0	82114.0	505.0	0	0.0	3586274.0	717	0.01	0.02	1.08	38713.0	683.0	3464225	0.01
5317STDY7838405	55.7	188182.0	1335.0	1.28	1.5	12.65	147.01	0.01	0.52	150.0	196.0	187663.0	185493.0	663109.0	5630.0	0	0.0	1190600.0	595	0.01	0.05	31.13	370624.0	1158.0	150642	0.47
5317STDY7838406	56.91	397889.0	2273.0	1.21	1.35	10.86	147.62	0.01	0.49	150.0	364.0	397075.0	393693.0	935529.0	4529.0	0	0.0	1643954.0	658	0.01	0.04	31.92	524700.0	1559.0	178538	0.28
5317STDY7838407	57.75	239662.0	1894.0	1.22	1.43	10.15	147.34	0.01	0.52	150.0	190.0	238926.0	236416.0	666668.0	4485.0	0	0.0	1154312.0	346	0.01	0.03	31.67	365620.0	1162.0	117193	0.39
5317STDY7838408	54.54	409397.0	2728.0	1.24	1.54	10.67	147.48	0.01	0.47	150.0	283.0	408509.0	403942.0	1071073.0	6443.0	0	0.0	1963905.0	589	0.01	0.03	34.44	676284.0	2444.0	209516	0.33
5317STDY7838409	54.16	485320.0	4049.0	1.24	1.51	11.47	147.58	0.01	0.45	150.0	424.0	484236.0	478232.0	1222585.0	7112.0	0	0.0	2257509.0	902	0.01	0.04	34.03	768154.0	2615.0	258756	0.32
5317STDY7838410	51.08	423105.0	3484.0	1.27	1.5	17.49	147.53	0.01	0.43	150.0	309.0	422096.0	415768.0	1278662.0	6371.0	0	0.0	2503361.0	2253	0.01	0.09	31.09	778195.0	3544.0	437880	0.25
5317STDY7838411	57.61	129964.0	741.0	1.24	1.43	12.56	147.08	0.01	0.55	150.0	90.0	129548.0	128645.0	304450.0	2202.0	0	0.0	528480.0	106	0.01	0.02	29.39	155330.0	488.0	66392	0.42
5317STDY7838412	60.39	283693.0	1848.0	1.26	1.41	10.1	147.38	0.01	0.51	150.0	205.0	282873.0	280421.0	757728.0	5452.0	0	0.0	1254731.0	376	0.01	0.03	29.05	364441.0	1219.0	126734	0.43
5317STDY7838413	56.31	176219.0	1405.0	1.25	1.42	12.53	147.48	0.01	0.54	150.0	96.0	175695.0	173792.0	486462.0	3395.0	0	0.0	863937.0	173	0.01	0.02	30.75	265685.0	926.0	108222	0.39
5317STDY7838414	56.66	250485.0	1987.0	1.26	1.46	11.93	147.61	0.01	0.49	150.0	173.0	249666.0	246094.0	799247.0	6950.0	0	0.0	1410602.0	1128	0.01	0.08	30.84	434992.0	2231.0	168285	0.49
5317STDY7838415	55.79	60730.0	461.0	1.28	1.47	14.69	146.81	0.01	0.55	150.0	52.0	60325.0	59451.0	293490.0	2410.0	0	0.0	526083.0	421	0.01	0.08	28.98	152474.0	766.0	77288	0.46
5317STDY7838416	51.61	400018.0	2740.0	1.3	1.44	11.06	147.94	0.01	0.44	150.0	340.0	399172.0	395329.0	917616.0	4992.0	0	0.0	1777912.0	1245	0.01	0.07	36.97	657304.0	1609.0	196755	0.28
5317STDY7838417	58.88	431590.0	2966.0	1.22	1.43	10.55	147.55	0.01	0.45	150.0	374.0	430480.0	426013.0	1188526.0	6675.0	0	0.0	2018614.0	606	0.01	0.03	30.21	609768.0	2237.0	213039	0.33
5317STDY7838418	55.28	498005.0	3585.0	1.26	1.42	10.0	147.92	0.01	0.47	150.0	508.0	496924.0	490877.0	1232406.0	7815.0	0	0.0	2229287.0	669	0.01	0.03	34.34	765439.0	3035.0	222958	0.35
5317STDY7838419	58.98	247666.0	2015.0	1.27	1.49	11.77	147.29	0.01	0.47	150.0	188.0	246884.0	243429.0	960756.0	6710.0	0	0.0	1629081.0	977	0.01	0.06	28.78	468893.0	2034.0	191745	0.41
5317STDY7838420	54.52	322580.0	2642.0	1.23	1.44	11.36	147.6	0.01	0.47	150.0	236.0	321761.0	317761.0	956156.0	6444.0	0	0.0	1753728.0	701	0.01	0.04	33.71	591223.0	1941.0	199204	0.37
5317STDY7838421	54.24	125535.0	959.0	1.31	1.5	13.79	147.37	0.01	0.55	150.0	92.0	125104.0	123976.0	320870.0	3278.0	0	0.0	591564.0	178	0.01	0.03	31.38	185644.0	508.0	81594	0.55
5317STDY7838422	53.62	114326.0	806.0	1.3	1.4	17.46	147.36	0.01	0.56	150.0	67.0	113925.0	112774.0	311756.0	2313.0	0	0.0	581366.0	116	0.01	0.02	28.49	165634.0	679.0	101547	0.4
5317STDY7838423	56.47	278864.0	2077.0	1.22	1.45	11.68	147.56	0.01	0.51	150.0	200.0	278103.0	275015.0	741558.0	6136.0	0	0.0	1313197.0	525	0.01	0.04	31.34	411608.0	1572.0	153370	0.47
5317STDY7838424	55.5	103894.0	765.0	1.24	1.54	11.93	147.22	0.01	0.53	150.0	131.0	103513.0	102272.0	390643.0	3260.0	0	0.0	703819.0	352	0.01	0.05	32.06	225614.0	726.0	83950	0.46
5317STDY7838425	38.99	411.0	3.0	1.5	1.7	34.25	146.79	0.01	0.66	150.0	0.0	409.0	406.0	1324.0	14.0	0	0.0	3396.0	3	0.01	0.09	26.27	892.0	2.0	1163	0.41
5317STDY7838426	43.4	665.0	2.0	1.5	1.95	35.05	146.92	0.01	0.58	150.0	0.0	663.0	661.0	1893.0	14.0	0	0.0	4362.0	1	0.01	0.02	21.21	925.0	2.0	1529	0.32
5317STDY7838427	43.71	899.0	6.0	1.24	1.68	37.15	146.98	0.01	0.65	150.0	1.0	896.0	889.0	2834.0	13.0	0	0.0	6484.0	2	0.01	0.03	18.91	1226.0	3.0	2409	0.2
5317STDY7838428	43.11	1073.0	9.0	1.39	1.21	32.49	146.9	0.01	0.64	150.0	0.0	1068.0	1058.0	2768.0	19.0	0	0.0	6421.0	1	0.01	0.02	24.09	1547.0	6.0	2086	0.3
5317STDY7838429	41.74	977.0	5.0	1.31	1.36	34.57	147.15	0.01	0.6	150.0	0.0	973.0	970.0	3062.0	20.0	0	0.0	7336.0	3	0.01	0.04	23.38	1715.0	2.0	2536	0.27
5317STDY7838430	40.58	724.0	5.0	1.13	1.38	34.84	147.1	0.01	0.58	150.0	1.0	717.0	713.0	2077.0	8.0	0	0.0	5118.0	0	0.01	0.0	24.42	1250.0	5.0	1783	0.16
5317STDY7838431	58.0	215995.0	1597.0	1.23	1.4	10.04	147.58	0.01	0.51	150.0	150.0	215411.0	212863.0	577245.0	3928.0	0	0.0	995232.0	199	0.01	0.02	31.55	313952.0	1385.0	99908	0.39
5317STDY7838432	57.53	215350.0	1553.0	1.27	1.46	8.83	147.51	0.01	0.48	150.0	157.0	214677.0	212205.0	641380.0	4574.0	0	0.0	1114823.0	446	0.01	0.04	33.19	370008.0	1435.0	98415	0.41
5317STDY7838433	60.28	258957.0	2133.0	1.24	1.56	9.59	147.4	0.01	0.48	150.0	148.0	258239.0	254410.0	1012214.0	6555.0	0	0.0	1679085.0	1008	0.01	0.06	29.67	498181.0	2266.0	161127	0.39
5317STDY7838434	56.5	442270.0	3673.0	1.21	1.51	9.64	147.59	0.01	0.46	150.0	284.0	441387.0	436058.0	1141281.0	6925.0	0	0.0	2019821.0	606	0.01	0.03	33.48	676289.0	2255.0	194720	0.34
5317STDY7838435	62.21	128285.0	815.0	1.29	1.44	13.72	147.07	0.01	0.5	150.0	48.0	127868.0	126742.0	388838.0	1688.0	0	0.0	624993.0	250	0.01	0.04	23.75	148437.0	680.0	85780	0.27
5317STDY7838436	52.45	241722.0	1758.0	1.26	1.51	11.66	147.45	0.01	0.5	150.0	147.0	241113.0	238082.0	728006.0	5168.0	0	0.0	1388121.0	555	0.01	0.04	35.48	492497.0	1735.0	161895	0.37
5317STDY7838437	51.91	189113.0	1798.0	1.28	1.49	13.7	146.83	0.01	0.49	150.0	104.0	188419.0	185843.0	649333.0	9238.0	0	0.0	1250868.0	375	0.01	0.03	33.62	420580.0	1368.0	171342	0.74
5317STDY7838438	56.7	164849.0	1174.0	1.24	1.4	11.83	147.41	0.01	0.55	150.0	236.0	164321.0	162539.0	421041.0	3175.0	0	0.0	742610.0	223	0.01	0.03	31.01	230314.0	900.0	87857	0.43
5317STDY7838439	57.31	92628.0	634.0	1.25	1.5	12.33	147.42	0.01	0.59	150.0	52.0	92238.0	91408.0	273494.0	2362.0	0	0.0	477229.0	239	0.01	0.05	29.82	142304.0	534.0	58830	0.49
5317STDY7838440	58.59	164269.0	1120.0	1.24	1.43	9.89	147.48	0.01	0.52	150.0	109.0	163796.0	162397.0	389885.0	2506.0	0	0.0	665406.0	67	0.01	0.01	31.13	207132.0	643.0	65816	0.38
5317STDY7838441	56.86	150896.0	1054.0	1.23	1.45	11.39	147.57	0.01	0.53	150.0	121.0	150451.0	148910.0	408979.0	2841.0	0	0.0	719279.0	431	0.01	0.06	31.3	225141.0	811.0	81887	0.39
5317STDY7838442	51.78	327958.0	2681.0	1.26	1.36	9.69	147.48	0.01	0.47	150.0	163.0	327161.0	323365.0	894725.0	7141.0	0	0.0	1727798.0	518	0.01	0.03	38.08	657966.0	1749.0	167448	0.41
5317STDY7838443	61.02	259568.0	1716.0	1.22	1.4	20.47	146.63	0.01	0.45	150.0	65.0	258890.0	255946.0	991655.0	4090.0	0	0.0	1625239.0	1788	0.01	0.11	18.15	294945.0	1841.0	332761	0.25
5317STDY7838444	54.51	398956.0	2992.0	1.22	1.45	11.13	147.63	0.01	0.45	150.0	326.0	398021.0	392899.0	1033478.0	4898.0	0	0.0	1896060.0	758	0.01	0.04	34.07	645929.0	2739.0	210997	0.26
5317STDY7838445	59.47	141735.0	1061.0	1.29	1.5	12.15	147.41	0.01	0.56	150.0	128.0	141226.0	139717.0	363032.0	2329.0	0	0.0	610431.0	122	0.01	0.02	27.98	170778.0	829.0	74170	0.38
5317STDY7838446	59.42	400453.0	2781.0	1.23	1.5	9.19	147.63	0.01	0.5	150.0	250.0	399567.0	395643.0	914705.0	4655.0	0	0.0	1539309.0	308	0.01	0.02	31.06	478133.0	1779.0	141508	0.3
5317STDY7838447	55.95	174322.0	1226.0	1.25	1.46	10.62	147.25	0.01	0.52	150.0	146.0	173717.0	172211.0	522791.0	4551.0	0	0.0	934333.0	467	0.01	0.05	32.9	307350.0	739.0	99174	0.49
5317STDY7838448	59.34	174575.0	1271.0	1.28	1.5	10.69	147.53	0.01	0.52	150.0	101.0	174057.0	172147.0	632091.0	4618.0	0	0.0	1065265.0	426	0.01	0.04	29.5	314302.0	1056.0	113828	0.43
5317STDY7838449	56.09	159629.0	1021.0	1.24	1.51	10.21	147.56	0.01	0.54	150.0	163.0	159182.0	157843.0	393979.0	3684.0	0	0.0	702369.0	141	0.01	0.02	33.15	232808.0	602.0	71757	0.52
5317STDY7838450	55.17	123925.0	958.0	1.24	1.49	17.18	147.35	0.01	0.55	150.0	116.0	123406.0	122050.0	445759.0	3531.0	0	0.0	807916.0	485	0.01	0.06	27.15	219331.0	801.0	138810	0.44
5317STDY7838451	55.75	176902.0	1268.0	1.29	1.62	14.19	147.53	0.01	0.56	150.0	103.0	176377.0	174570.0	454209.0	3211.0	0	0.0	814700.0	326	0.01	0.04	29.62	241317.0	961.0	115637	0.39
5317STDY7838452	50.63	127554.0	1052.0	1.26	1.47	14.19	147.47	0.01	0.53	150.0	117.0	127165.0	125594.0	364072.0	3778.0	0	0.0	719081.0	503	0.01	0.07	34.59	248695.0	791.0	102033	0.53
5317STDY7838453	2.59	2937.0	312.0	1.08	1.48	96.92	143.55	0.02	0.43	150.0	0.0	2783.0	2200.0	91899.0	482.0	0	0.0	3545906.0	1418	0.01	0.04	0.44	15584.0	425.0	3436523	0.01
5317STDY7838454	55.65	175042.0	1408.0	1.29	1.48	10.51	147.58	0.01	0.54	150.0	155.0	174535.0	172741.0	472686.0	4215.0	0	0.0	849368.0	425	0.01	0.05	33.29	282765.0	738.0	89277	0.5
5317STDY7838455	53.74	173167.0	1207.0	1.26	1.5	13.77	147.5	0.01	0.53	150.0	92.0	172613.0	170854.0	453971.0	3685.0	0	0.0	844789.0	169	0.01	0.02	32.04	270636.0	1014.0	116328	0.44
5317STDY7838456	51.22	52263.0	383.0	1.26	1.43	13.45	146.86	0.01	0.52	150.0	16.0	51936.0	51594.0	200838.0	2264.0	0	0.0	392096.0	157	0.01	0.04	34.71	136086.0	270.0	52751	0.58
5317STDY7838457	49.09	229893.0	1788.0	1.24	1.44	29.0	147.44	0.01	0.53	150.0	251.0	229078.0	226453.0	735146.0	4780.0	0	0.0	1497651.0	599	0.01	0.04	21.55	322726.0	1401.0	434400	0.32
5317STDY7838458	28.3	80170.0	599.0	1.3	1.47	58.94	146.62	0.01	0.57	150.0	39.0	79785.0	79065.0	263252.0	1423.0	0	0.0	930362.0	93	0.01	0.01	12.6	117226.0	467.0	548368	0.15
5317STDY7838459	35.47	418.0	3.0	1.45	1.36	43.29	146.86	0.01	0.51	150.0	0.0	418.0	415.0	1034.0	5.0	0	0.0	2915.0	2	0.01	0.07	20.99	612.0	0.0	1262	0.17
5317STDY7838460	63.12	644098.0	4241.0	1.3	1.48	5.69	148.22	0.01	0.41	150.0	507.0	642566.0	635423.0	1215272.0	6495.0	0	0.0	1925248.0	578	0.01	0.03	30.82	593312.0	3927.0	109591	0.34
5317STDY7838461	66.49	660963.0	4227.0	1.25	1.56	5.6	148.07	0.01	0.37	150.0	584.0	659763.0	653616.0	1271716.0	4671.0	0	0.0	1912615.0	573	0.01	0.03	27.64	528691.0	2536.0	106964	0.24
5317STDY7838462	22.05	15829.0	424.0	1.2	1.4	25.08	146.39	0.01	0.54	150.0	2.0	15586.0	14722.0	249557.0	3478.0	0	0.0	1131654.0	679	0.01	0.06	52.5	594114.0	681.0	283826	0.31
5317STDY7838463	64.52	702978.0	4007.0	1.29	1.55	5.54	147.9	0.01	0.37	150.0	679.0	701693.0	695256.0	1417003.0	4649.0	0	0.0	2196165.0	440	0.01	0.02	29.7	652308.0	3036.0	121765	0.21
5317STDY7838464	57.6	330359.0	2043.0	1.3	1.6	6.54	147.84	0.01	0.39	150.0	175.0	329536.0	325928.0	942798.0	5141.0	0	0.0	1636817.0	491	0.01	0.03	35.52	581441.0	2213.0	106946	0.31
5317STDY7838465	80.9	674277.0	3741.0	1.36	1.55	4.94	147.9	0.01	0.29	150.0	502.0	673511.0	668084.0	1410899.0	2738.0	0	0.0	1743944.0	349	0.01	0.02	13.98	243837.0	1950.0	86121	0.16
5317STDY7838466	85.51	881968.0	5745.0	1.47	1.55	4.9	147.88	0.01	0.34	150.0	672.0	880479.0	872616.0	1829672.0	6309.0	0	0.0	2139626.0	855	0.01	0.04	9.25	198001.0	2935.0	104789	0.29
5317STDY7838467	84.14	704350.0	4423.0	1.37	1.56	4.57	148.11	0.01	0.34	150.0	406.0	703195.0	696914.0	1637865.0	2486.0	0	0.0	1946482.0	974	0.01	0.05	11.1	216136.0	2607.0	89021	0.13
5317STDY7838468	80.63	707810.0	4592.0	1.33	1.52	3.9	148.11	0.01	0.32	150.0	795.0	706827.0	700347.0	1386442.0	2248.0	0	0.0	1719564.0	517	0.01	0.03	15.3	263170.0	2076.0	67187	0.13
5317STDY7838469	8.98	3011.0	12.0	1.36	1.29	87.75	147.0	0.01	0.38	150.0	1.0	2998.0	2887.0	9803.0	70.0	0	0.0	109191.0	11	0.0	0.01	3.2	3498.0	111.0	95809	0.06
5317STDY7838470	35.8	858.0	2.0	1.12	1.53	50.5	147.15	0.01	0.47	150.0	1.0	857.0	855.0	1943.0	10.0	0	0.0	5428.0	0	0.01	0.0	13.52	734.0	0.0	2741	0.18
5317STDY7838471	56.83	308526.0	1868.0	1.38	1.45	6.12	147.87	0.01	0.36	150.0	180.0	307773.0	304376.0	852655.0	8409.0	0	0.0	1500388.0	600	0.01	0.04	36.45	546920.0	2102.0	91804	0.56
5317STDY7838472	70.68	636598.0	3399.0	1.25	1.52	4.96	147.95	0.01	0.36	150.0	545.0	635410.0	630642.0	1187541.0	2855.0	0	0.0	1680189.0	336	0.01	0.02	24.17	406067.0	2012.0	83390	0.17
5317STDY7838473	61.38	335499.0	2393.0	1.34	1.53	12.2	147.85	0.01	0.38	150.0	186.0	334614.0	330695.0	831469.0	2768.0	0	0.0	1354535.0	677	0.01	0.05	26.16	354316.0	2225.0	165305	0.2
5317STDY7838474	69.86	509233.0	4027.0	1.29	1.57	5.17	148.07	0.01	0.38	150.0	345.0	508171.0	502282.0	1297086.0	6148.0	0	0.0	1856822.0	557	0.01	0.03	24.61	456963.0	2579.0	96068	0.33
5317STDY7838475	65.5	900700.0	6017.0	1.28	1.52	4.93	148.26	0.01	0.37	150.0	779.0	898908.0	889657.0	1771154.0	8392.0	0	0.0	2704117.0	810	0.01	0.03	29.24	790573.0	4247.0	133188	0.31
5317STDY7838476	72.74	825655.0	5373.0	1.28	1.46	4.51	148.31	0.01	0.36	150.0	952.0	824391.0	816191.0	1695434.0	3408.0	0	0.0	2330954.0	467	0.01	0.02	22.58	526404.0	3139.0	105241	0.15
5317STDY7838477	74.26	665073.0	4732.0	1.31	1.54	4.35	148.23	0.01	0.36	150.0	509.0	663608.0	656913.0	1518599.0	3026.0	0	0.0	2045014.0	818	0.01	0.04	21.2	433581.0	2919.0	88990	0.15
5317STDY7838478	27.19	47233.0	320.0	1.31	1.4	10.49	146.23	0.02	0.45	150.0	54.0	47019.0	46376.0	272670.0	4833.0	0	0.0	1002910.0	201	0.01	0.02	61.82	619988.0	483.0	105218	0.48
5317STDY7838479	76.96	575060.0	3282.0	1.37	1.56	5.33	147.9	0.01	0.37	150.0	413.0	573998.0	567859.0	1312760.0	5033.0	0	0.0	1705845.0	853	0.01	0.05	17.37	296254.0	3506.0	90945	0.3
5317STDY7838480	40.74	192413.0	1354.0	1.29	1.49	5.49	146.99	0.01	0.38	150.0	143.0	191933.0	189784.0	670318.0	13465.0	0	0.0	1645493.0	658	0.01	0.04	52.91	870692.0	1132.0	90360	0.82
5317STDY7838481	71.15	523986.0	3809.0	1.27	1.56	10.79	148.1	0.01	0.36	150.0	485.0	523106.0	517599.0	1122500.0	1982.0	0	0.0	1577757.0	631	0.01	0.04	17.9	282395.0	2093.0	170249	0.13
5317STDY7838482	81.41	637796.0	3856.0	1.31	1.47	4.59	148.2	0.01	0.37	150.0	481.0	636662.0	631237.0	1313781.0	1292.0	0	0.0	1613876.0	323	0.01	0.02	13.91	224410.0	2222.0	74070	0.08
5317STDY7838483	3.4	368.0	4.0	1.17	1.17	95.23	145.79	0.0	0.54	150.0	0.0	364.0	363.0	1063.0	11.0	0	0.0	31220.0	0	0.0	0.0	1.32	413.0	1.0	29733	0.04
5317STDY7838484	88.27	672387.0	4236.0	1.32	1.48	3.84	148.43	0.01	0.37	150.0	479.0	671396.0	665440.0	1318446.0	3468.0	0	0.0	1493630.0	746	0.01	0.05	7.61	113654.0	2232.0	57316	0.23
5317STDY7838485	54.45	1527.0	10.0	1.15	1.57	28.74	147.59	0.01	0.49	150.0	1.0	1520.0	1508.0	3668.0	18.0	0	0.0	6737.0	2	0.01	0.03	16.52	1113.0	8.0	1936	0.27
5317STDY7838486	86.11	243435.0	1487.0	1.46	1.57	3.73	148.3	0.01	0.35	150.0	173.0	243051.0	240931.0	550873.0	321.0	0	0.0	639710.0	128	0.01	0.02	10.09	64554.0	844.0	23834	0.05
5317STDY7838487	83.76	31462.0	171.0	1.32	1.65	5.41	148.15	0.01	0.36	150.0	29.0	31383.0	31160.0	67152.0	71.0	0	0.0	80169.0	24	0.01	0.03	10.7	8582.0	102.0	4340	0.09
5317STDY7838488	82.71	494150.0	2876.0	1.37	1.53	5.16	147.84	0.01	0.34	150.0	370.0	493360.0	489528.0	1054017.0	1541.0	0	0.0	1274329.0	510	0.01	0.04	11.96	152446.0	1376.0	65815	0.12
5317STDY7838489	80.98	1046981.0	7109.0	1.31	1.5	3.75	148.21	0.01	0.34	150.0	921.0	1045277.0	1034645.0	2101588.0	3945.0	0	0.0	2595340.0	519	0.01	0.02	15.1	391935.0	4306.0	97353	0.15
5317STDY7838490	86.41	1227813.0	8084.0	1.33	1.53	3.81	148.36	0.01	0.35	150.0	1232.0	1226215.0	1215289.0	2165548.0	1113.0	0	0.0	2506007.0	501	0.01	0.02	9.71	243392.0	3208.0	95453	0.04
5317STDY7838491	80.16	546848.0	2306.0	1.4	1.45	4.52	147.91	0.01	0.36	150.0	126.0	545942.0	542900.0	1069986.0	3985.0	0	0.0	1334883.0	267	0.01	0.02	15.0	200280.0	1516.0	60365	0.3
5317STDY7838492	82.72	659859.0	4424.0	1.4	1.46	4.31	148.12	0.01	0.35	150.0	106.0	658329.0	651889.0	1763064.0	7182.0	0	0.0	2131349.0	1277	0.01	0.06	12.58	268063.0	3440.0	91763	0.34
5317STDY7838493	81.04	503600.0	3129.0	1.33	1.64	4.33	148.27	0.01	0.35	150.0	261.0	502735.0	498032.0	1154992.0	3036.0	0	0.0	1425195.0	569	0.01	0.04	14.38	204954.0	2178.0	61644	0.21
5317STDY7838494	76.42	368972.0	1338.0	1.31	1.49	5.63	147.45	0.01	0.36	150.0	264.0	368300.0	365553.0	1045905.0	3452.0	0	0.0	1368685.0	274	0.01	0.02	17.68	242021.0	1817.0	77033	0.25
5317STDY7838495	84.77	569706.0	3502.0	1.36	1.59	4.45	148.32	0.01	0.38	150.0	259.0	568885.0	563996.0	1171783.0	1314.0	0	0.0	1382280.0	691	0.01	0.05	10.63	146983.0	1949.0	61509	0.1
5317STDY7838496	86.54	526256.0	3554.0	1.34	1.51	3.5	148.39	0.01	0.33	150.0	369.0	525637.0	520888.0	1025432.0	1598.0	0	0.0	1184865.0	473	0.01	0.04	9.79	115975.0	1445.0	41387	0.13
5317STDY7838497	85.63	588758.0	3838.0	1.4	1.46	4.37	148.01	0.01	0.35	150.0	626.0	588042.0	582926.0	1187834.0	1673.0	0	0.0	1387108.0	139	0.01	0.01	9.87	136909.0	1368.0	60553	0.12
5317STDY7838498	83.62	545166.0	4158.0	1.42	1.67	4.91	147.97	0.01	0.36	150.0	471.0	544116.0	538342.0	1456446.0	6182.0	0	0.0	1741777.0	1046	0.01	0.06	11.05	192470.0	2195.0	85633	0.35
5317STDY7838499	7.67	2934.0	24.0	1.0	1.18	81.03	143.45	0.01	1.2	150.0	2.0	2847.0	2285.0	7328.0	133.0	0	0.0	95517.0	10	0.0	0.01	11.15	10650.0	623.0	77396	0.14
5317STDY7838500	87.37	728075.0	4301.0	1.32	1.39	4.24	148.27	0.01	0.36	150.0	619.0	726954.0	720552.0	1543450.0	4814.0	0	0.0	1766589.0	353	0.01	0.02	8.1	143040.0	2603.0	74932	0.27
5317STDY7838501	74.86	531520.0	3212.0	1.29	1.61	7.53	147.93	0.01	0.35	150.0	481.0	530617.0	524688.0	1124743.0	3512.0	0	0.0	1502426.0	451	0.01	0.03	17.35	260603.0	3139.0	113117	0.23
5317STDY7838502	72.56	668388.0	4159.0	1.37	1.5	4.81	147.93	0.01	0.35	150.0	259.0	667268.0	661769.0	1320872.0	5064.0	0	0.0	1820266.0	182	0.01	0.01	22.34	406600.0	2201.0	87548	0.28
5317STDY7838503	73.91	684948.0	4127.0	1.29	1.51	5.21	147.73	0.01	0.36	150.0	447.0	683651.0	676379.0	1792891.0	9068.0	0	0.0	2425646.0	1455	0.01	0.06	20.44	495919.0	3995.0	126313	0.37
5317STDY7838504	76.87	751098.0	5407.0	1.34	1.56	3.9	148.27	0.01	0.36	150.0	608.0	749973.0	741765.0	1638987.0	4731.0	0	0.0	2132070.0	852	0.01	0.04	18.97	404428.0	3318.0	83072	0.22
5317STDY7838505	78.89	639619.0	4647.0	1.25	1.45	4.59	148.32	0.01	0.36	150.0	482.0	638689.0	631795.0	1228823.0	2035.0	0	0.0	1557724.0	933	0.01	0.06	16.34	254572.0	2695.0	71361	0.13
5317STDY7838506	78.18	666162.0	4894.0	1.27	1.54	5.12	147.93	0.01	0.37	150.0	421.0	665066.0	658330.0	1685146.0	6563.0	0	0.0	2155369.0	1078	0.01	0.05	16.34	352157.0	2517.0	110425	0.3
5317STDY7838507	76.21	544621.0	3172.0	1.42	1.41	5.41	148.07	0.01	0.36	150.0	473.0	543636.0	539211.0	1008450.0	3392.0	0	0.0	1323313.0	265	0.01	0.02	18.11	239601.0	1765.0	71605	0.26
5317STDY7838508	75.44	7203.0	35.0	1.26	1.34	8.01	148.17	0.01	0.41	150.0	5.0	7183.0	7143.0	16186.0	27.0	0	0.0	21455.0	2	0.01	0.01	16.41	3521.0	20.0	1719	0.13
5317STDY7838509	3.46	2789.0	26.0	1.12	2.08	96.25	146.26	0.01	0.48	150.0	1.0	2737.0	2113.0	40778.0	127.0	0	0.0	1177972.0	118	0.01	0.01	0.26	3118.0	649.0	1133831	0.01
5317STDY7838510	45.54	635.0	4.0	1.18	1.57	29.23	147.37	0.01	0.51	150.0	0.0	634.0	631.0	1603.0	11.0	0	0.0	3520.0	3	0.01	0.09	24.83	874.0	0.0	1029	0.31
5317STDY7838511	43.8	490.0	3.0	1.67	1.5	27.73	146.93	0.01	0.53	150.0	0.0	488.0	484.0	1243.0	16.0	0	0.0	2838.0	1	0.01	0.04	27.87	791.0	3.0	787	0.56
5317STDY7838512	75.59	483621.0	2476.0	1.23	1.58	4.8	147.9	0.01	0.36	150.0	230.0	482717.0	479350.0	975590.0	1464.0	0	0.0	1290697.0	387	0.01	0.03	19.48	251373.0	1565.0	61883	0.11
5317STDY7838513	84.17	754832.0	5403.0	1.34	1.54	4.39	148.41	0.01	0.37	150.0	817.0	753441.0	746030.0	1482782.0	2126.0	0	0.0	1761636.0	529	0.01	0.03	11.28	198760.0	2582.0	77439	0.12
5317STDY7838514	76.39	579476.0	3834.0	1.41	1.43	5.1	147.83	0.01	0.36	150.0	464.0	578619.0	572804.0	1342074.0	2557.0	0	0.0	1756786.0	527	0.01	0.03	18.33	322098.0	2374.0	89530	0.15
5317STDY7838515	58.99	259258.0	1832.0	1.26	1.42	31.31	147.33	0.01	0.54	150.0	227.0	255672.0	245213.0	1014050.0	5105.0	0	0.0	1718914.0	1891	0.01	0.11	9.29	159677.0	11986.0	538191	0.3
5317STDY7838516	77.52	628478.0	4741.0	1.23	1.57	3.72	148.44	0.01	0.34	150.0	390.0	627588.0	620342.0	1190393.0	3964.0	0	0.0	1535522.0	613	0.01	0.04	18.47	283559.0	3005.0	56993	0.26
5317STDY7838517	78.37	655739.0	4051.0	1.38	1.55	4.54	148.26	0.01	0.37	150.0	405.0	654819.0	649466.0	1209473.0	2908.0	0	0.0	1543307.0	463	0.01	0.03	16.87	260416.0	1817.0	70047	0.19
5317STDY7838518	77.8	376092.0	2728.0	1.29	1.53	4.56	148.12	0.01	0.36	150.0	227.0	375548.0	371797.0	918253.0	1940.0	0	0.0	1180282.0	354	0.01	0.03	17.45	205948.0	1340.0	53787	0.16
5317STDY7838519	72.71	4972.0	33.0	1.18	1.52	11.7	147.28	0.01	0.26	150.0	0.0	4963.0	4933.0	8753.0	33.0	0	0.0	12039.0	6	0.01	0.05	15.27	1838.0	6.0	1409	0.27
5317STDY7838520	82.68	443606.0	2888.0	1.31	1.65	4.35	148.33	0.01	0.38	150.0	368.0	442846.0	438542.0	1055800.0	1894.0	0	0.0	1276999.0	638	0.01	0.05	12.77	163132.0	1808.0	55535	0.15
5317STDY7838521	82.83	208117.0	1154.0	1.3	1.58	4.94	148.18	0.01	0.39	150.0	90.0	207746.0	206310.0	438766.0	1837.0	0	0.0	529702.0	265	0.01	0.05	11.83	62666.0	563.0	26168	0.35
5317STDY7838522	81.41	147795.0	767.0	1.31	1.48	4.41	148.23	0.01	0.36	150.0	105.0	147536.0	146435.0	327874.0	552.0	0	0.0	402763.0	81	0.01	0.02	14.03	56502.0	488.0	17754	0.14
5317STDY7838523	50.13	304.0	2.0	0.0	2.0	22.66	147.74	0.02	0.49	150.0	0.0	303.0	300.0	750.0	5.0	0	0.0	1496.0	2	0.0	0.13	26.74	400.0	2.0	339	0.33
5317STDY7838524	46.32	571.0	2.0	1.45	2.0	34.09	147.43	0.01	0.48	150.0	1.0	568.0	566.0	1348.0	4.0	0	0.0	2910.0	2	0.01	0.07	19.38	564.0	2.0	992	0.14
5317STDY7838525	81.2	410798.0	3189.0	1.27	1.5	4.69	148.21	0.01	0.35	150.0	359.0	410135.0	405364.0	965771.0	1695.0	0	0.0	1189418.0	476	0.01	0.04	13.93	165664.0	1886.0	55812	0.14
5317STDY7838526	76.48	175781.0	929.0	1.3	1.49	7.86	147.33	0.01	0.27	150.0	96.0	175495.0	174103.0	344648.0	1044.0	0	0.0	450653.0	225	0.01	0.05	15.39	69339.0	653.0	35397	0.23
5317STDY7838527	79.16	306483.0	2226.0	1.31	1.59	6.26	147.74	0.01	0.36	150.0	144.0	305949.0	302617.0	829036.0	4201.0	0	0.0	1047297.0	419	0.01	0.04	14.14	148113.0	1496.0	65528	0.4
5317STDY7838528	82.23	224120.0	2061.0	1.26	1.65	5.79	147.57	0.01	0.35	150.0	60.0	223598.0	220695.0	702608.0	1647.0	0	0.0	854431.0	1026	0.01	0.12	11.66	99663.0	1304.0	49487	0.19
5317STDY7838529	74.39	157104.0	823.0	1.31	1.31	11.33	146.92	0.02	0.48	150.0	108.0	155919.0	151895.0	727215.0	1349.0	0	0.0	977553.0	586	0.01	0.06	14.08	137661.0	4278.0	110742	0.14
5317STDY7838530	82.87	467965.0	2725.0	1.34	1.43	4.5	148.18	0.01	0.36	150.0	243.0	467266.0	463923.0	814755.0	1338.0	0	0.0	983131.0	98	0.01	0.01	12.48	122675.0	1074.0	44265	0.14
5317STDY7838531	1.37	210.0	0.0	1.0	1.11	98.07	145.78	0.01	0.38	150.0	0.0	205.0	209.0	4795.0	26.0	0	0.0	349099.0	35	0.01	0.01	0.55	1907.0	1.0	342336	0.01
5317STDY7838532	43.04	444.0	4.0	1.0	1.6	33.91	147.31	0.01	0.55	150.0	0.0	444.0	440.0	1098.0	11.0	0	0.0	2551.0	0	0.0	0.0	22.62	577.0	0.0	865	0.43
5317STDY7838533	55.37	96648.0	503.0	1.29	1.48	5.7	147.89	0.01	0.41	150.0	53.0	96394.0	95579.0	282214.0	1929.0	0	0.0	509695.0	204	0.01	0.04	38.52	196310.0	513.0	29038	0.38
5317STDY7838534	1.76	527.0	5.0	1.02	1.27	97.47	145.81	0.01	0.46	150.0	0.0	525.0	522.0	3939.0	16.0	0	0.0	223984.0	0	0.01	0.0	0.75	1690.0	0.0	218339	0.01
5317STDY7838535	37.42	340.0	3.0	1.18	1.0	32.86	147.2	0.0	0.6	150.0	0.0	337.0	335.0	846.0	7.0	0	0.0	2261.0	0	0.01	0.0	29.41	665.0	2.0	743	0.31
5317STDY7838536	49.5	155582.0	1163.0	1.31	1.49	11.34	148.14	0.01	0.39	150.0	108.0	155213.0	153207.0	401309.0	1587.0	0	0.0	810660.0	324	0.01	0.04	38.92	315482.0	1104.0	91958	0.2
5317STDY7838537	74.92	333340.0	2176.0	1.32	1.57	5.33	147.93	0.01	0.35	150.0	303.0	332803.0	328878.0	862231.0	2607.0	0	0.0	1150832.0	806	0.01	0.07	19.45	223808.0	1983.0	61380	0.23
5317STDY7838538	75.69	105034.0	677.0	1.32	1.51	6.56	147.17	0.01	0.38	150.0	106.0	104752.0	103726.0	318777.0	1938.0	0	0.0	421155.0	295	0.01	0.07	17.21	72499.0	525.0	27646	0.46
5317STDY7838539	44.43	562.0	2.0	1.67	1.25	35.68	147.15	0.01	0.66	150.0	1.0	557.0	553.0	1610.0	6.0	0	0.0	3624.0	2	0.01	0.06	19.67	713.0	6.0	1293	0.17
5317STDY7838540	74.61	166371.0	618.0	1.41	1.52	6.5	147.54	0.01	0.36	150.0	73.0	166042.0	164883.0	562248.0	2969.0	0	0.0	753534.0	527	0.01	0.07	18.43	138880.0	797.0	48910	0.39
5317STDY7838541	15.37	3693.0	0.0	1.38	1.12	82.05	146.29	0.02	0.42	150.0	0.0	3685.0	3685.0	8746.0	21.0	0	0.0	56910.0	6	0.01	0.01	2.54	1443.0	8.0	46694	0.04
5317STDY7838542	79.13	236771.0	1678.0	1.3	1.49	4.67	148.15	0.01	0.37	150.0	118.0	236317.0	233761.0	563672.0	1539.0	0	0.0	712312.0	285	0.01	0.04	15.94	113518.0	1214.0	33298	0.22
5317STDY7838543	30.62	190.0	2.0	1.0	1.5	45.58	146.39	0.0	0.81	150.0	0.0	189.0	186.0	571.0	4.0	0	0.0	1865.0	0	0.0	0.0	23.59	440.0	2.0	850	0.21
5317STDY7838544	2.55	997.0	30.0	1.07	1.65	97.0	145.7	0.04	0.51	150.0	0.0	960.0	878.0	20056.0	79.0	0	0.0	786561.0	0	0.02	0.0	0.44	3460.0	89.0	762966	0.01
5317STDY7838545	55.66	228381.0	1521.0	1.25	1.58	7.18	147.99	0.01	0.41	150.0	124.0	227881.0	225550.0	525978.0	2668.0	0	0.0	944906.0	567	0.01	0.06	36.82	347873.0	1186.0	67820	0.28
5317STDY7838546	57.97	281427.0	1616.0	1.25	1.47	5.86	147.82	0.01	0.4	150.0	153.0	280646.0	278162.0	758971.0	6238.0	0	0.0	1309348.0	523	0.01	0.04	35.66	466923.0	1496.0	76693	0.48
5317STDY7838547	46.74	183994.0	1002.0	1.29	1.46	10.41	147.47	0.01	0.4	150.0	36.0	183434.0	181734.0	531390.0	5257.0	0	0.0	1136852.0	455	0.01	0.04	42.34	481396.0	1222.0	118354	0.46
5317STDY7838548	51.74	173942.0	943.0	1.25	1.47	8.31	147.7	0.01	0.41	150.0	137.0	173329.0	171655.0	519558.0	3016.0	0	0.0	1004126.0	301	0.01	0.03	39.62	397827.0	1207.0	83424	0.3
5317STDY7838549	49.74	121729.0	907.0	1.24	1.51	11.11	147.5	0.01	0.46	150.0	67.0	121359.0	120007.0	395566.0	3206.0	0	0.0	795258.0	636	0.01	0.08	38.67	307543.0	748.0	88307	0.4
5317STDY7838550	58.9	194405.0	1315.0	1.32	1.54	7.03	147.49	0.01	0.38	150.0	215.0	193897.0	191622.0	522839.0	3464.0	0	0.0	887618.0	533	0.01	0.06	33.61	298333.0	1253.0	62449	0.39
5317STDY7838551	21.06	23079.0	302.0	1.25	1.41	27.33	147.35	0.01	0.52	150.0	7.0	22813.0	22011.0	222876.0	3969.0	0	0.0	1058122.0	529	0.01	0.05	51.18	541561.0	759.0	289187	0.38
5317STDY7838552	40.44	164719.0	1314.0	1.22	1.46	15.56	147.98	0.01	0.44	150.0	85.0	164212.0	161974.0	487725.0	3788.0	0	0.0	1205959.0	362	0.01	0.03	43.65	526447.0	1346.0	187637	0.31
5317STDY7838553	17.11	4855.0	16.0	1.13	1.41	47.75	143.91	0.01	0.46	150.0	0.0	4815.0	4786.0	20671.0	513.0	0	0.0	120837.0	48	0.01	0.04	34.68	41903.0	53.0	57702	0.42
5317STDY7838554	9.37	259.0	1.0	1.17	1.5	85.76	145.02	0.01	0.61	150.0	0.0	255.0	256.0	1480.0	13.0	0	0.0	15799.0	6	0.0	0.04	4.75	750.0	2.0	13550	0.08
5317STDY7838555	43.94	26696.0	125.0	1.19	1.36	36.0	144.44	0.01	0.44	150.0	4.0	26513.0	26401.0	60189.0	439.0	0	0.0	136994.0	27	0.01	0.02	19.72	27015.0	166.0	49324	0.32
5317STDY7838556	44.32	30746.0	39.0	1.14	1.28	42.37	142.35	0.01	0.45	150.0	1.0	30543.0	30456.0	99354.0	391.0	0	0.0	224167.0	90	0.01	0.04	13.1	29371.0	250.0	94961	0.17
5317STDY7838557	45.75	32535.0	202.0	1.19	1.39	41.03	143.01	0.01	0.44	150.0	6.0	32337.0	32055.0	97490.0	312.0	0	0.0	213110.0	43	0.01	0.02	13.06	27825.0	272.0	87440	0.15
5317STDY7838558	43.59	41190.0	206.0	1.23	1.29	35.1	143.16	0.01	0.43	150.0	5.0	40939.0	40661.0	109347.0	484.0	0	0.0	250843.0	75	0.01	0.03	21.09	52900.0	318.0	88037	0.19
5317STDY7838559	29.89	3110.0	273.0	1.2	1.21	67.64	142.55	0.02	0.88	150.0	0.0	2781.0	1893.0	148091.0	491.0	0	0.0	495489.0	149	0.01	0.03	2.34	11596.0	944.0	335162	0.1
5317STDY7838560	67.12	14978.0	9947.0	1.04	1.19	29.55	147.27	0.01	0.6	150.0	0.0	14759.0	4020.0	1565327.0	1625.0	0	0.0	2332006.0	0	0.01	0.0	3.25	75906.0	1011.0	689148	0.07
5317STDY7838561	56.88	101751.0	688.0	1.31	1.49	8.93	147.36	0.01	0.53	150.0	86.0	101421.0	100612.0	264496.0	1994.0	0	0.0	465031.0	93	0.01	0.02	33.75	156936.0	365.0	41512	0.43
5317STDY7838562	60.18	5346.0	696.0	1.07	1.1	37.57	147.47	0.01	0.7	150.0	198.0	5171.0	3895.0	1555312.0	1564.0	0	0.0	2584490.0	517	0.01	0.02	2.17	56054.0	557.0	971043	0.06
5317STDY7838563	17.65	128.0	0.0	1.38	1.09	77.47	146.43	0.01	0.69	150.0	0.0	121.0	125.0	1161.0	6.0	0	0.0	6577.0	8	0.01	0.12	4.67	307.0	3.0	5095	0.09
5317STDY7838564	42.09	74.0	0.0	1.46	1.0	52.0	148.2	0.0	0.41	150.0	0.0	69.0	70.0	2336.0	21.0	0	0.0	5550.0	26	0.01	0.47	5.06	281.0	4.0	2886	0.38
5317STDY7838565	7.89	178.0	0.0	1.18	1.71	88.03	146.32	0.02	0.7	150.0	1.0	175.0	174.0	960.0	14.0	0	0.0	12161.0	9	0.01	0.07	3.9	474.0	3.0	10704	0.12
5317STDY7838566	55.36	139810.0	621.0	1.19	1.37	14.87	145.21	0.01	0.49	150.0	49.0	139119.0	138505.0	302575.0	991.0	0	0.0	546580.0	55	0.01	0.01	29.58	161705.0	635.0	81254	0.18
5317STDY7838567	65.97	3843.0	313.0	1.07	1.09	31.11	147.85	0.01	0.65	150.0	0.0	3668.0	2204.0	2204323.0	557.0	0	0.0	3341520.0	1336	0.01	0.04	2.87	95851.0	1326.0	1039453	0.02
5317STDY7838568	8.47	5065.0	159.0	1.11	1.18	90.3	143.36	0.01	0.62	150.0	0.0	4637.0	4088.0	191132.0	1107.0	0	0.0	2256661.0	2934	0.01	0.13	1.05	23763.0	818.0	2037725	0.05
5317STDY7838569	54.45	49684.0	379.0	1.22	1.53	12.18	146.95	0.01	0.59	150.0	37.0	49463.0	49075.0	115685.0	640.0	0	0.0	212463.0	42	0.01	0.02	33.05	70228.0	193.0	25868	0.3
5317STDY7838570	55.49	35812.0	290.0	1.3	1.62	10.42	147.01	0.01	0.59	150.0	30.0	35545.0	35179.0	129521.0	741.0	0	0.0	233399.0	70	0.01	0.03	33.73	78736.0	313.0	24331	0.32
5317STDY7838571	64.16	3504.0	2.0	1.11	1.24	33.2	147.46	0.01	0.66	150.0	0.0	3284.0	2373.0	1718962.0	573.0	0	0.0	2679353.0	536	0.01	0.02	2.6	69696.0	1129.0	889586	0.02
5317STDY7838572	55.29	35319.0	272.0	1.28	1.5	9.32	147.12	0.01	0.55	150.0	23.0	35119.0	34782.0	137955.0	699.0	0	0.0	249490.0	50	0.01	0.02	35.08	87526.0	242.0	23260	0.28
5317STDY7838573	53.49	160648.0	1506.0	1.32	1.68	13.46	147.44	0.01	0.53	150.0	46.0	160057.0	156010.0	787431.0	4767.0	0	0.0	1472085.0	883	0.01	0.06	32.67	480879.0	3086.0	198125	0.32
5317STDY7838574	57.01	107708.0	679.0	1.21	1.53	10.37	147.59	0.01	0.57	150.0	117.0	107256.0	106395.0	285243.0	1734.0	0	0.0	500303.0	150	0.01	0.03	32.24	161322.0	517.0	51854	0.35
5317STDY7838575	57.34	93936.0	655.0	1.25	1.54	11.37	147.53	0.01	0.56	150.0	95.0	93536.0	92759.0	228304.0	1358.0	0	0.0	398127.0	40	0.01	0.01	30.93	123152.0	427.0	45273	0.34
5317STDY7838576	12.97	154.0	0.0	1.18	1.0	80.58	146.3	0.0	0.8	150.0	0.0	147.0	152.0	1052.0	11.0	0	0.0	8112.0	9	0.01	0.11	6.2	503.0	2.0	6537	0.14
5317STDY7838577	10.84	193.0	1.0	1.0	1.33	82.56	145.77	0.01	0.77	150.0	0.0	192.0	191.0	964.0	9.0	0	0.0	8892.0	6	0.0	0.07	6.43	572.0	1.0	7341	0.1
5317STDY7838578	54.07	183829.0	1446.0	1.11	1.53	18.96	145.27	0.01	0.38	150.0	0.0	183346.0	181557.0	500844.0	1964.0	0	0.0	926328.0	463	0.01	0.05	26.71	247410.0	826.0	175647	0.21
5317STDY7838579	54.0	136985.0	1291.0	1.23	1.65	11.31	147.63	0.01	0.61	150.0	175.0	136558.0	134637.0	478111.0	3172.0	0	0.0	885400.0	797	0.01	0.09	34.24	303132.0	882.0	100188	0.36
5317STDY7838580	65.86	152105.0	1395.0	1.43	1.65	12.35	147.37	0.01	0.52	150.0	110.0	151389.0	149001.0	693646.0	2611.0	0	0.0	1053181.0	737	0.02	0.07	21.47	226082.0	1599.0	130105	0.25
5317STDY7838581	29.91	14820.0	4.0	1.17	1.18	68.55	147.54	0.01	0.63	150.0	0.0	14421.0	13357.0	1216577.0	3932.0	0	0.0	4067863.0	5288	0.01	0.13	1.31	53404.0	1459.0	2788662	0.1
5317STDY7838582	39.28	42540.0	260.0	1.24	1.39	31.2	147.33	0.01	0.57	150.0	38.0	42369.0	42030.0	122031.0	786.0	0	0.0	310675.0	62	0.01	0.02	29.25	90877.0	212.0	96919	0.25
5317STDY7838583	50.16	140432.0	917.0	1.26	1.54	13.91	147.39	0.01	0.56	150.0	123.0	139855.0	137857.0	555348.0	4266.0	0	0.0	1107249.0	665	0.01	0.06	35.49	392912.0	1535.0	154058	0.39
5317STDY7838584	43.35	21304.0	169.0	1.26	1.5	20.26	147.1	0.01	0.6	150.0	5.0	21225.0	20970.0	88455.0	701.0	0	0.0	204063.0	163	0.01	0.08	35.97	73404.0	160.0	41340	0.34
5317STDY7838585	5.25	4151.0	917.0	1.05	1.23	94.23	144.92	0.0	0.49	150.0	0.0	3745.0	2096.0	216404.0	591.0	0	0.0	4122590.0	412	0.02	0.01	0.49	20348.0	1138.0	3884835	0.01
5317STDY7838586	13.37	11303.0	615.0	1.13	1.09	84.74	145.43	0.01	0.64	150.0	118.0	10098.0	3413.0	505278.0	10307.0	0	0.0	3779719.0	2646	0.01	0.07	1.55	58462.0	7157.0	3203026	0.27
5317STDY7838587	12.89	218.0	2.0	1.08	1.45	74.62	145.87	0.01	0.75	150.0	1.0	210.0	212.0	1000.0	9.0	0	0.0	7759.0	3	0.01	0.04	12.33	957.0	3.0	5790	0.12
5317STDY7838588	50.42	74653.0	265.0	1.21	1.23	31.85	143.47	0.01	0.44	150.0	1.0	74363.0	73583.0	195357.0	1161.0	0	0.0	387436.0	310	0.01	0.08	17.35	67209.0	804.0	123399	0.3
5317STDY7838589	14.64	141488.0	708.0	1.13	1.09	66.58	146.67	0.01	0.47	150.0	5.0	141027.0	136888.0	574892.0	3154.0	0	0.0	3927422.0	393	0.01	0.01	18.69	733969.0	3887.0	2615014	0.08
5317STDY7838590	49.38	75961.0	508.0	1.27	1.55	9.58	147.26	0.01	0.57	150.0	120.0	75690.0	74897.0	225080.0	1924.0	0	0.0	455815.0	91	0.01	0.02	40.6	185059.0	436.0	43661	0.42
5317STDY7838591	51.16	110868.0	891.0	1.27	1.54	13.56	147.39	0.01	0.56	150.0	128.0	110527.0	108671.0	407044.0	3672.0	0	0.0	795661.0	557	0.01	0.07	34.75	276525.0	1178.0	107863	0.46
5317STDY7838592	44.33	94032.0	979.0	1.26	1.37	18.72	147.13	0.01	0.61	150.0	90.0	93638.0	92131.0	346893.0	3019.0	0	0.0	782445.0	391	0.01	0.05	36.51	285671.0	832.0	146471	0.39
5317STDY7838593	49.74	130074.0	1002.0	1.29	1.55	10.0	147.51	0.01	0.58	150.0	114.0	129679.0	128073.0	335788.0	2888.0	0	0.0	675066.0	202	0.01	0.03	39.8	268694.0	885.0	67494	0.43
5317STDY7838594	55.63	49972.0	247.0	1.23	1.59	13.69	147.4	0.01	0.59	150.0	25.0	49801.0	49399.0	182898.0	978.0	0	0.0	328758.0	263	0.01	0.08	30.29	99597.0	301.0	45022	0.3
5317STDY7838595	49.49	81755.0	668.0	1.27	1.5	17.77	147.62	0.01	0.58	150.0	118.0	81505.0	80607.0	216697.0	1798.0	0	0.0	437839.0	88	0.01	0.02	32.31	141456.0	362.0	77800	0.41
5317STDY7838596	62.51	340918.0	3695.0	1.32	1.52	12.39	147.66	0.01	0.56	150.0	297.0	339754.0	333942.0	1141098.0	4417.0	0	0.0	1825521.0	1277	0.01	0.07	24.8	452647.0	2984.0	226082	0.24
5317STDY7838597	50.14	179238.0	1122.0	1.23	1.49	12.92	147.43	0.01	0.57	150.0	195.0	177962.0	175187.0	652176.0	6860.0	0	0.0	1300753.0	390	0.01	0.03	36.39	473308.0	2734.0	168019	0.53
5317STDY7838598	20.12	6549.0	54.0	1.29	1.71	62.2	142.75	0.01	0.56	150.0	1.0	6460.0	6387.0	21378.0	199.0	0	0.0	106262.0	11	0.01	0.01	17.49	18586.0	107.0	66088	0.19
5317STDY7838599	11.84	191.0	2.0	1.45	1.38	76.5	146.79	0.01	0.72	150.0	0.0	190.0	188.0	988.0	15.0	0	0.0	8342.0	11	0.01	0.13	11.34	946.0	1.0	6382	0.18
5317STDY7838600	46.96	67031.0	204.0	1.18	1.32	31.81	143.79	0.01	0.47	150.0	9.0	66648.0	66125.0	210286.0	777.0	0	0.0	447787.0	45	0.01	0.01	21.04	94233.0	693.0	142446	0.17
5317STDY7838601	48.45	114934.0	1007.0	1.3	1.46	14.94	147.54	0.01	0.62	150.0	144.0	114511.0	112829.0	417119.0	3584.0	0	0.0	860886.0	344	0.01	0.04	36.15	311204.0	954.0	128635	0.42
5317STDY7838602	55.83	265720.0	2769.0	1.22	1.34	15.74	147.38	0.01	0.52	150.0	167.0	264496.0	260028.0	934610.0	4521.0	0	0.0	1674020.0	1004	0.01	0.06	28.1	470452.0	2756.0	263433	0.27
5317STDY7838603	34.38	91430.0	446.0	1.18	1.53	21.32	145.74	0.02	0.48	150.0	7.0	90701.0	89457.0	405274.0	3258.0	0	0.0	1178647.0	353	0.01	0.03	44.0	518552.0	1520.0	251210	0.28
5317STDY7838604	48.16	80403.0	611.0	1.38	1.45	16.71	147.43	0.01	0.6	150.0	78.0	80127.0	79132.0	268574.0	2140.0	0	0.0	557711.0	223	0.01	0.04	34.71	193557.0	582.0	93217	0.38
5317STDY7838605	47.7	89291.0	793.0	1.3	1.45	15.3	147.46	0.01	0.59	150.0	113.0	88850.0	87676.0	306819.0	2729.0	0	0.0	643177.0	193	0.01	0.03	36.54	234994.0	709.0	98442	0.42
5317STDY7838606	47.32	72250.0	536.0	1.23	1.54	13.15	147.4	0.01	0.59	150.0	88.0	71936.0	71076.0	249190.0	2801.0	0	0.0	526603.0	369	0.01	0.07	38.93	205001.0	550.0	69242	0.53
5317STDY7838607	48.13	127553.0	1408.0	1.31	1.69	15.3	147.32	0.01	0.54	150.0	122.0	126491.0	124237.0	616227.0	4477.0	0	0.0	1280343.0	256	0.01	0.02	36.19	463401.0	1786.0	195982	0.35
5317STDY7838608	53.94	250236.0	2364.0	1.21	1.52	13.81	147.49	0.01	0.56	150.0	224.0	249421.0	243909.0	817263.0	5998.0	0	0.0	1515162.0	1061	0.01	0.07	31.78	481452.0	3739.0	209388	0.4
5317STDY7838609	49.3	186643.0	1602.0	1.21	1.48	14.98	147.52	0.01	0.55	150.0	104.0	186026.0	182871.0	792086.0	6212.0	0	0.0	1606680.0	482	0.01	0.03	35.31	567294.0	2066.0	240606	0.39
5317STDY7838610	14.67	1013.0	3.0	1.48	1.68	77.98	145.51	0.01	0.45	150.0	2.0	996.0	993.0	6276.0	91.0	0	0.0	42772.0	73	0.01	0.17	6.96	2976.0	15.0	33356	0.21
5317STDY7838611	14.57	255.0	4.0	1.23	1.38	73.69	145.64	0.01	0.77	150.0	0.0	250.0	248.0	1355.0	16.0	0	0.0	9297.0	2	0.01	0.02	11.54	1073.0	3.0	6851	0.17
5317STDY7838612	24.62	1691.0	58.0	1.18	1.05	72.95	140.83	0.02	0.68	150.0	1.0	1619.0	1590.0	59801.0	427.0	0	0.0	242909.0	73	0.01	0.03	2.22	5403.0	42.0	177205	0.18
5317STDY7838613	43.58	267908.0	3433.0	1.24	1.46	38.47	146.95	0.01	0.46	150.0	1070.0	266286.0	259013.0	1526155.0	3092.0	0	0.0	3502057.0	2101	0.01	0.06	17.81	623593.0	4392.0	1347116	0.09
5317STDY7838614	53.27	222447.0	1854.0	1.33	1.59	13.27	147.49	0.01	0.53	150.0	161.0	221539.0	217946.0	791577.0	4064.0	0	0.0	1485963.0	446	0.01	0.03	33.16	492725.0	2486.0	197151	0.27
5317STDY7838615	52.49	197787.0	1782.0	1.25	1.59	14.55	147.17	0.01	0.5	150.0	132.0	196719.0	193119.0	940373.0	7066.0	0	0.0	1791658.0	1075	0.01	0.06	32.51	582499.0	2754.0	260645	0.39
5317STDY7838616	29.31	168823.0	1596.0	1.25	1.46	58.75	145.44	0.02	0.44	150.0	10.0	168331.0	164212.0	582866.0	1439.0	0	0.0	1988495.0	1392	0.02	0.07	11.79	234519.0	3005.0	1168279	0.07
5317STDY7838617	52.28	168309.0	2112.0	1.31	1.57	13.03	147.52	0.01	0.53	150.0	549.0	167744.0	164157.0	778165.0	4094.0	0	0.0	1488345.0	298	0.01	0.02	34.39	511848.0	1491.0	193940	0.28
5317STDY7838618	22.37	20676.0	245.0	1.08	1.15	72.79	145.75	0.01	0.62	150.0	130.0	20069.0	16719.0	519987.0	2122.0	0	0.0	2324032.0	465	0.01	0.02	4.73	109849.0	3582.0	1691609	0.09
5317STDY7838619	50.87	109317.0	1128.0	1.28	1.5	15.48	147.24	0.01	0.57	150.0	177.0	108980.0	105646.0	391738.0	2856.0	0	0.0	770045.0	231	0.01	0.03	33.25	256059.0	2366.0	119161	0.37
5317STDY7838620	9.71	5734.0	334.0	1.22	1.22	73.7	144.03	0.01	0.47	150.0	0.0	5328.0	4739.0	222094.0	2530.0	0	0.0	2287500.0	2287	0.02	0.1	16.38	374751.0	661.0	1685838	0.11
5317STDY7838621	62.25	317278.0	2490.0	1.23	1.57	13.33	147.31	0.01	0.5	150.0	40.0	316115.0	310580.0	1305820.0	5208.0	0	0.0	2097759.0	1259	0.01	0.06	24.11	505686.0	4168.0	279786	0.25
5317STDY7838622	14.14	451.0	3.0	1.3	1.65	74.11	146.17	0.01	0.58	150.0	1.0	447.0	444.0	1903.0	25.0	0	0.0	13457.0	5	0.01	0.04	11.52	1550.0	3.0	9974	0.19
5317STDY7838623	14.0	281.0	3.0	1.29	2.27	74.35	145.42	0.01	0.77	150.0	0.0	273.0	274.0	1410.0	19.0	0	0.0	10068.0	4	0.01	0.04	11.41	1149.0	4.0	7486	0.19
5317STDY7838624	42.4	15799.0	275.0	1.21	1.52	28.68	142.26	0.01	0.56	150.0	0.0	15293.0	14736.0	269586.0	1475.0	0	0.0	635793.0	381	0.01	0.06	28.63	182016.0	788.0	182335	0.23
5317STDY7838625	54.62	268505.0	1843.0	1.18	1.51	35.91	145.81	0.02	0.43	150.0	319.0	267303.0	264230.0	1070349.0	1883.0	0	0.0	1959578.0	588	0.01	0.03	9.34	182969.0	2113.0	703789	0.1
5317STDY7838626	18.9	96740.0	421.0	1.16	1.58	44.46	143.8	0.01	0.48	150.0	7.0	96134.0	94198.0	393074.0	3596.0	0	0.0	2079252.0	624	0.01	0.03	36.43	757505.0	2114.0	924453	0.17
5317STDY7838627	64.39	277493.0	2386.0	1.3	1.66	14.18	146.45	0.01	0.47	150.0	100.0	276215.0	272127.0	1138623.0	3714.0	0	0.0	1768309.0	1237	0.01	0.07	21.15	374063.0	2880.0	250672	0.21
5317STDY7838628	6.91	35643.0	352.0	1.48	2.95	90.34	145.61	0.02	0.57	150.0	0.0	34993.0	32986.0	210129.0	971.0	0	0.0	3040753.0	2129	0.03	0.07	2.64	80417.0	2305.0	2747107	0.03
5317STDY7838629	36.61	329199.0	2028.0	1.21	1.47	11.53	147.7	0.01	0.46	150.0	50.0	328350.0	325103.0	1257972.0	9491.0	0	0.0	3436581.0	1719	0.01	0.05	51.53	1770993.0	2018.0	396406	0.28
5317STDY7838630	43.46	36466.0	139.0	1.26	1.39	11.32	146.63	0.01	0.39	150.0	16.0	36352.0	36120.0	93711.0	407.0	0	0.0	215603.0	65	0.01	0.03	44.99	97010.0	191.0	24410	0.19
5317STDY7838631	64.4	95052.0	827.0	1.31	1.66	23.76	143.45	0.01	0.46	150.0	0.0	93998.0	91663.0	621415.0	1131.0	0	0.0	964918.0	965	0.02	0.1	11.62	112151.0	2562.0	229256	0.12
5317STDY7838632	29.09	26816.0	952.0	1.22	1.7	68.86	144.76	0.01	0.57	150.0	0.0	23998.0	15249.0	941684.0	5904.0	0	0.0	3236954.0	4856	0.02	0.15	1.71	55362.0	10615.0	2229148	0.18
5317STDY7838633	21.28	489.0	6.0	1.26	1.46	55.36	145.6	0.01	0.73	150.0	0.0	477.0	477.0	2704.0	38.0	0	0.0	12706.0	11	0.01	0.09	22.97	2919.0	6.0	7034	0.3
5317STDY7838634	18.31	234.0	1.0	1.71	1.82	70.53	146.19	0.01	0.67	150.0	0.0	229.0	228.0	1589.0	12.0	0	0.0	8678.0	9	0.02	0.1	10.91	947.0	5.0	6121	0.14
5317STDY7838635	16.73	161.0	1.0	1.71	1.0	76.51	145.55	0.01	0.71	150.0	0.0	156.0	155.0	669.0	7.0	0	0.0	3998.0	9	0.01	0.23	6.35	254.0	5.0	3059	0.18
5317STDY7838636	12.71	244.0	3.0	1.72	1.2	84.96	138.28	0.01	0.6	150.0	0.0	228.0	234.0	5546.0	58.0	0	0.0	43643.0	44	0.02	0.1	2.1	917.0	7.0	37078	0.13
5317STDY7838637	50.99	253919.0	1472.0	1.21	1.58	32.9	146.07	0.01	0.46	150.0	28.0	252932.0	250610.0	739989.0	2741.0	0	0.0	1451179.0	435	0.01	0.03	15.89	230644.0	1809.0	477370	0.19
5317STDY7838638	68.53	877144.0	2504.0	1.22	1.49	12.9	145.58	0.01	0.37	150.0	84.0	875558.0	869506.0	1656521.0	6887.0	0	0.0	2417287.0	725	0.01	0.03	18.26	441427.0	5050.0	311727	0.28
5317STDY7838639	53.25	33460.0	96.0	1.27	1.33	39.4	142.83	0.01	0.43	150.0	10.0	33392.0	33109.0	113674.0	377.0	0	0.0	213489.0	107	0.01	0.05	7.12	15207.0	245.0	84124	0.18
5317STDY7838640	38.68	32160.0	51.0	1.43	1.57	39.41	143.51	0.01	0.43	150.0	52.0	31979.0	31755.0	182446.0	1262.0	0	0.0	471654.0	519	0.01	0.11	21.53	101559.0	302.0	185868	0.27
5317STDY7838641	32.47	340.0	0.0	1.38	1.3	55.33	145.91	0.01	0.68	150.0	0.0	337.0	338.0	1112.0	9.0	0	0.0	3425.0	6	0.01	0.18	11.77	403.0	2.0	1895	0.26
5317STDY7838642	25.54	208.0	1.0	1.11	1.25	65.35	146.35	0.0	0.65	150.0	0.0	204.0	204.0	746.0	5.0	0	0.0	2921.0	5	0.01	0.17	8.76	256.0	3.0	1909	0.17
5317STDY7838643	28.9	293.0	0.0	1.29	1.29	44.09	145.78	0.01	0.62	150.0	0.0	290.0	291.0	1098.0	13.0	0	0.0	3799.0	5	0.01	0.13	26.53	1008.0	2.0	1675	0.34
5317STDY7838644	26.66	331.0	3.0	1.23	1.6	47.72	145.69	0.01	0.77	150.0	0.0	327.0	325.0	1198.0	11.0	0	0.0	4493.0	6	0.01	0.13	25.24	1134.0	3.0	2144	0.24
5317STDY7838645	20.73	1436.0	5.0	1.27	1.85	70.18	141.71	0.01	0.61	150.0	0.0	1406.0	1411.0	6507.0	111.0	0	0.0	31391.0	25	0.01	0.08	8.66	2718.0	20.0	22030	0.35
5317STDY7838646	59.14	207983.0	1717.0	1.21	1.44	28.7	142.14	0.01	0.41	150.0	15.0	206796.0	204570.0	707867.0	3510.0	0	0.0	1196910.0	838	0.01	0.07	11.8	141249.0	1681.0	343446	0.29
5317STDY7838647	20.35	13011.0	62.0	1.16	1.72	71.93	139.2	0.01	0.56	150.0	4.0	12901.0	12827.0	40758.0	755.0	0	0.0	200240.0	40	0.01	0.02	7.31	14640.0	118.0	144047	0.38
5317STDY7838648	9.34	3584.0	3.0	1.18	1.16	89.05	140.99	0.0	0.52	150.0	0.0	3523.0	3553.0	38846.0	485.0	0	0.0	415973.0	166	0.01	0.04	1.46	6075.0	28.0	370401	0.12
5317STDY7838649	12.13	1288.0	17.0	1.06	1.25	85.98	139.92	0.03	0.69	150.0	0.0	1244.0	1227.0	26216.0	194.0	0	0.0	216076.0	43	0.01	0.02	1.78	3846.0	44.0	185777	0.09
5317STDY7838650	59.42	334703.0	1591.0	1.25	1.43	14.55	145.01	0.01	0.36	150.0	256.0	333403.0	330540.0	814369.0	2541.0	0	0.0	1370606.0	411	0.01	0.03	25.82	353836.0	2316.0	199449	0.19
5317STDY7838651	62.35	634216.0	4340.0	1.23	1.48	9.03	147.13	0.01	0.59	150.0	392.0	632972.0	626721.0	1526331.0	7586.0	0	0.0	2447898.0	735	0.01	0.03	28.27	692078.0	2763.0	221168	0.31
5317STDY7838652	56.42	418513.0	2945.0	1.21	1.43	8.21	147.17	0.01	0.48	150.0	134.0	417549.0	413232.0	1186649.0	5003.0	0	0.0	2103322.0	1052	0.01	0.05	35.08	737810.0	2202.0	172808	0.24
5317STDY7838653	60.46	552794.0	3982.0	1.24	1.51	8.46	146.79	0.01	0.44	150.0	301.0	551205.0	543633.0	1598652.0	8680.0	0	0.0	2644240.0	2115	0.01	0.08	30.68	811148.0	4878.0	223645	0.33
5317STDY7838654	9.82	1673.0	300.0	1.05	1.14	89.28	140.56	0.01	0.56	150.0	0.0	1583.0	1322.0	67559.0	522.0	0	0.0	688230.0	275	0.01	0.04	0.79	5468.0	51.0	614406	0.08
5317STDY7838655	66.47	770178.0	2290.0	1.18	1.61	16.76	144.74	0.01	0.32	150.0	325.0	768444.0	764989.0	1304325.0	3885.0	0	0.0	1962241.0	589	0.01	0.03	16.54	324560.0	2574.0	328882	0.2
5317STDY7838656	44.76	372425.0	2326.0	1.22	1.38	10.29	146.26	0.01	0.49	150.0	164.0	371207.0	368167.0	1044758.0	8124.0	0	0.0	2334208.0	700	0.01	0.03	44.58	1040531.0	1768.0	240095	0.35
5317STDY7838657	34.97	20936.0	101.0	1.34	1.42	52.78	140.69	0.01	0.51	150.0	21.0	20729.0	20664.0	60973.0	788.0	0	0.0	174376.0	105	0.01	0.06	11.74	20473.0	150.0	92037	0.45
5317STDY7838658	65.49	586912.0	6198.0	1.28	1.49	10.73	146.23	0.01	0.51	150.0	323.0	584065.0	578086.0	1177104.0	5265.0	0	0.0	1797353.0	539	0.01	0.03	23.45	421567.0	2305.0	192878	0.29
5317STDY7838659	6.4	5055.0	20.0	1.12	1.61	92.6	143.28	0.02	0.51	150.0	48.0	4994.0	4498.0	65732.0	708.0	0	0.0	1027849.0	411	0.01	0.04	0.9	9211.0	489.0	951787	0.07
5317STDY7838660	73.79	610858.0	4283.0	1.24	1.43	8.99	147.57	0.01	0.48	150.0	412.0	609569.0	603328.0	1633923.0	3190.0	0	0.0	2214282.0	1107	0.01	0.05	17.03	377035.0	2835.0	199027	0.14
5317STDY7838661	70.26	146479.0	1372.0	1.26	1.44	11.39	147.33	0.01	0.61	150.0	136.0	145748.0	144005.0	408470.0	1170.0	0	0.0	581382.0	291	0.01	0.05	18.1	105252.0	966.0	66199	0.2
5317STDY7838662	29.66	528571.0	3904.0	1.41	1.57	22.9	146.62	0.01	0.36	150.0	311.0	527880.0	520704.0	952148.0	8656.0	0	0.0	3209969.0	321	0.01	0.01	47.15	1513658.0	3652.0	735186	0.27
5317STDY7838663	59.24	995822.0	6410.0	1.26	1.51	15.47	147.25	0.01	0.39	150.0	772.0	993557.0	980817.0	2983781.0	12718.0	0	0.0	5036741.0	1511	0.01	0.03	25.01	1259635.0	7823.0	779096	0.25
5317STDY7838664	66.85	520594.0	3780.0	1.23	1.5	8.75	147.46	0.01	0.48	150.0	265.0	519426.0	514285.0	1342898.0	7317.0	0	0.0	2008857.0	1206	0.01	0.06	23.97	481503.0	2264.0	175933	0.36
5317STDY7838665	5.42	12857.0	342.0	1.04	1.06	93.9	142.14	0.01	0.54	150.0	0.0	12726.0	11285.0	118572.0	651.0	0	0.0	2186352.0	656	0.02	0.03	0.62	13476.0	1230.0	2052997	0.03
5317STDY7838666	69.14	377426.0	3228.0	1.21	1.46	8.39	147.25	0.01	0.55	150.0	334.0	375879.0	371992.0	1046438.0	3162.0	0	0.0	1513453.0	757	0.01	0.05	22.21	336116.0	1872.0	126980	0.21
5317STDY7838667	62.38	292240.0	1867.0	1.27	1.5	10.44	146.49	0.01	0.52	150.0	228.0	290892.0	288726.0	726155.0	5129.0	0	0.0	1164005.0	349	0.01	0.03	26.71	310853.0	1419.0	121519	0.44
5317STDY7838668	9.01	1080.0	7.0	1.14	1.41	83.4	145.13	0.01	0.68	150.0	3.0	1073.0	1066.0	2869.0	39.0	0	0.0	31838.0	6	0.01	0.02	7.44	2369.0	4.0	26555	0.12
5317STDY7838669	13.46	3993.0	34.0	1.15	1.39	80.72	139.72	0.01	0.57	150.0	0.0	3948.0	3922.0	11995.0	163.0	0	0.0	89095.0	18	0.01	0.02	5.62	5003.0	37.0	71916	0.18
5317STDY7838670	67.49	609758.0	3687.0	1.23	1.56	9.48	147.28	0.01	0.51	150.0	312.0	608600.0	603789.0	1275542.0	4194.0	0	0.0	1890109.0	567	0.01	0.03	22.79	430730.0	1970.0	179076	0.22
5317STDY7838671	70.99	396896.0	2715.0	1.21	1.43	10.14	147.24	0.01	0.55	150.0	308.0	395872.0	391812.0	1144920.0	2621.0	0	0.0	1612813.0	807	0.01	0.05	18.65	300865.0	2061.0	163600	0.16
5317STDY7838672	35.79	99517.0	590.0	1.25	1.57	39.14	146.22	0.01	0.51	150.0	46.0	99127.0	98263.0	277065.0	1159.0	0	0.0	774245.0	310	0.01	0.04	24.89	192683.0	618.0	303028	0.15
5317STDY7838673	69.07	860444.0	6506.0	1.27	1.45	13.99	147.37	0.01	0.37	150.0	494.0	857996.0	846922.0	3273534.0	7611.0	0	0.0	4739486.0	3792	0.01	0.08	16.7	791349.0	6522.0	663200	0.16
5317STDY7838674	8.27	7647.0	41.0	1.06	1.03	90.44	143.25	0.02	0.48	150.0	2.0	7519.0	6791.0	116578.0	575.0	0	0.0	1409608.0	141	0.02	0.01	1.23	17407.0	813.0	1274907	0.04
5317STDY7838675	69.57	143852.0	1211.0	1.25	1.42	12.87	147.14	0.01	0.58	150.0	120.0	143227.0	141382.0	586207.0	1579.0	0	0.0	842653.0	421	0.01	0.05	17.33	145996.0	1139.0	108450	0.19
5317STDY7838676	5.45	1900.0	13.0	1.21	2.1	93.56	142.44	0.02	0.49	150.0	0.0	1730.0	1586.0	59761.0	242.0	0	0.0	1095701.0	0	0.01	0.0	0.96	10507.0	301.0	1025191	0.02
5317STDY7838677	4.73	1682.0	77.0	1.03	1.22	94.62	142.92	0.01	0.5	150.0	0.0	1640.0	1575.0	68042.0	502.0	0	0.0	1438913.0	720	0.03	0.05	0.56	8037.0	30.0	1361612	0.03
5317STDY7838678	69.63	215003.0	1550.0	1.23	1.41	10.21	147.29	0.01	0.6	150.0	177.0	214228.0	212506.0	626796.0	1965.0	0	0.0	900148.0	270	0.01	0.03	19.9	179162.0	770.0	91955	0.22
5317STDY7838679	61.82	182115.0	1311.0	1.34	1.62	11.72	147.27	0.01	0.55	150.0	136.0	181466.0	179472.0	577162.0	2866.0	0	0.0	933561.0	747	0.01	0.08	26.07	243364.0	1196.0	109422	0.31
5317STDY7838680	13.75	665.0	4.0	1.56	1.29	78.47	146.37	0.01	0.64	150.0	0.0	659.0	658.0	2121.0	19.0	0	0.0	15425.0	2	0.01	0.01	7.64	1179.0	3.0	12104	0.12
5317STDY7838681	9.7	882.0	9.0	1.3	1.07	84.74	142.24	0.01	0.74	150.0	1.0	870.0	862.0	3681.0	75.0	0	0.0	37948.0	34	0.01	0.09	5.27	1999.0	10.0	32159	0.2
5317STDY7838682	70.78	264929.0	1966.0	1.24	1.52	13.0	147.2	0.01	0.54	150.0	124.0	264236.0	261293.0	779367.0	1700.0	0	0.0	1101163.0	550	0.01	0.05	16.02	176430.0	1546.0	143116	0.15
5317STDY7838683	75.79	300343.0	2539.0	1.23	1.44	10.61	147.3	0.01	0.59	150.0	209.0	299453.0	295934.0	970545.0	1838.0	0	0.0	1280518.0	641	0.01	0.05	13.4	171555.0	1661.0	135939	0.14
5317STDY7838684	68.46	374936.0	2789.0	1.2	1.42	9.59	147.44	0.01	0.54	150.0	319.0	374110.0	370149.0	1071768.0	2479.0	0	0.0	1565541.0	783	0.01	0.05	21.74	340360.0	1679.0	150151	0.16
5317STDY7838685	71.27	362192.0	2581.0	1.22	1.39	14.31	147.39	0.01	0.54	150.0	323.0	361402.0	357606.0	952092.0	2923.0	0	0.0	1335850.0	401	0.01	0.03	14.17	189263.0	1682.0	191171	0.22
5317STDY7838686	72.7	184572.0	1324.0	1.21	1.36	11.31	147.29	0.01	0.6	150.0	198.0	183975.0	182353.0	511568.0	857.0	0	0.0	703657.0	211	0.01	0.03	15.84	111462.0	697.0	79559	0.12
5317STDY7838687	67.73	159122.0	1232.0	1.27	1.51	12.11	146.99	0.01	0.59	150.0	180.0	158298.0	156734.0	527439.0	1201.0	0	0.0	778741.0	312	0.01	0.04	19.97	155477.0	976.0	94312	0.15
5317STDY7838688	52.31	212930.0	1256.0	1.22	1.46	8.95	146.81	0.02	0.55	150.0	102.0	212419.0	210563.0	597692.0	5981.0	0	0.0	1142625.0	114	0.01	0.01	38.21	436646.0	1009.0	102192	0.52
5317STDY7838689	59.83	194912.0	1016.0	1.26	1.39	10.47	146.77	0.01	0.59	150.0	78.0	194459.0	193105.0	490559.0	1456.0	0	0.0	819929.0	0	0.01	0.0	29.52	242013.0	713.0	85901	0.18
5317STDY7838690	65.54	1071747.0	7809.0	1.23	1.35	14.17	147.26	0.01	0.38	150.0	321.0	1069294.0	1056872.0	3223010.0	12672.0	0	0.0	4917250.0	2460	0.01	0.05	19.97	982062.0	6745.0	697046	0.26
5317STDY7838691	8.36	749.0	5.0	1.33	1.53	84.98	145.47	0.01	0.68	150.0	3.0	743.0	735.0	2665.0	24.0	0	0.0	31871.0	6	0.01	0.02	6.57	2094.0	6.0	27082	0.08
5317STDY7838692	73.16	562511.0	4197.0	1.3	1.51	8.47	147.29	0.01	0.47	150.0	212.0	561251.0	555444.0	1590270.0	2797.0	0	0.0	2173613.0	869	0.01	0.04	18.2	395620.0	2658.0	184057	0.13
5317STDY7838693	72.0	667972.0	5658.0	1.3	1.38	11.17	147.33	0.01	0.5	150.0	728.0	666376.0	657272.0	2149697.0	3522.0	0	0.0	2985518.0	1493	0.01	0.05	16.66	497357.0	4314.0	333449	0.12
5317STDY7838694	73.32	267911.0	1922.0	1.25	1.51	9.58	147.39	0.01	0.51	150.0	185.0	267142.0	264276.0	791109.0	1797.0	0	0.0	1079024.0	755	0.01	0.07	16.87	182041.0	1528.0	103322	0.17
5317STDY7838695	69.17	175696.0	1282.0	1.24	1.46	12.08	147.18	0.01	0.54	150.0	72.0	175144.0	173397.0	623295.0	2051.0	0	0.0	901161.0	630	0.01	0.07	18.46	166389.0	945.0	108796	0.23
5317STDY7838696	64.12	516631.0	3448.0	1.33	1.5	10.45	146.54	0.01	0.4	150.0	222.0	515126.0	509774.0	2025004.0	6653.0	0	0.0	3158118.0	2211	0.01	0.07	25.15	794123.0	3187.0	330127	0.21
5317STDY7838697	65.08	343700.0	3217.0	1.25	1.43	16.98	147.23	0.01	0.49	150.0	181.0	342778.0	338076.0	1240678.0	6118.0	0	0.0	1906339.0	1907	0.01	0.1	17.52	333902.0	2226.0	323734	0.32
5317STDY7838698	69.54	163830.0	1272.0	1.28	1.55	11.91	147.01	0.01	0.53	150.0	118.0	163261.0	161252.0	717391.0	1961.0	0	0.0	1031686.0	1135	0.01	0.11	18.25	188311.0	1188.0	122888	0.19
5317STDY7838699	71.36	147256.0	1321.0	1.28	1.43	11.46	147.32	0.01	0.57	150.0	108.0	146667.0	144882.0	603835.0	1383.0	0	0.0	846206.0	423	0.01	0.05	16.97	143565.0	945.0	97000	0.16
5317STDY7838700	61.36	390359.0	2482.0	1.29	1.47	14.15	146.99	0.01	0.49	150.0	274.0	389305.0	385483.0	1170001.0	5029.0	0	0.0	1906645.0	1334	0.01	0.07	24.16	460561.0	2120.0	269720	0.26
5317STDY7838701	13.23	6024.0	38.0	1.31	1.62	72.66	140.87	0.01	0.61	150.0	4.0	5955.0	5923.0	17158.0	353.0	0	0.0	129643.0	13	0.01	0.01	13.82	17922.0	59.0	94197	0.27
5317STDY7838702	24.27	854.0	5.0	1.3	1.5	58.31	146.66	0.01	0.64	150.0	0.0	847.0	846.0	2649.0	20.0	0	0.0	10915.0	10	0.01	0.09	17.15	1872.0	3.0	6364	0.18
5317STDY7838703	16.62	550.0	11.0	1.81	2.09	70.11	146.14	0.01	0.62	150.0	1.0	549.0	537.0	1770.0	17.0	0	0.0	10652.0	2	0.01	0.02	13.1	1395.0	1.0	7468	0.16
5317STDY7838704	6.32	2777.0	218.0	1.21	1.1	92.08	144.06	0.01	0.48	150.0	223.0	2691.0	2295.0	101125.0	555.0	0	0.0	1600757.0	0	0.01	0.0	1.57	25070.0	41.0	1474007	0.03
5317STDY7838705	70.8	160177.0	1245.0	1.37	1.53	11.72	147.18	0.01	0.58	150.0	56.0	159610.0	157777.0	538564.0	2367.0	0	0.0	760658.0	304	0.01	0.04	17.13	130269.0	1099.0	89154	0.31
5317STDY7838706	73.95	469936.0	3334.0	1.23	1.53	8.86	147.5	0.01	0.48	150.0	356.0	469045.0	463844.0	1181147.0	2889.0	0	0.0	1597152.0	798	0.01	0.05	16.96	270930.0	2402.0	141388	0.18
5317STDY7838707	72.3	375681.0	3161.0	1.25	1.47	9.76	147.48	0.01	0.52	150.0	106.0	374740.0	370477.0	1062986.0	2528.0	0	0.0	1470345.0	735	0.01	0.05	17.73	260621.0	1937.0	143475	0.17
5317STDY7838708	69.99	162201.0	1249.0	1.25	1.49	11.03	147.34	0.01	0.54	150.0	102.0	161753.0	160000.0	447206.0	1043.0	0	0.0	638914.0	192	0.01	0.03	18.78	119966.0	850.0	70507	0.16
5317STDY7838709	66.5	186621.0	1423.0	1.25	1.57	11.24	147.22	0.01	0.52	150.0	92.0	186085.0	183947.0	660634.0	1898.0	0	0.0	993449.0	795	0.01	0.08	21.99	218451.0	1159.0	111671	0.19
5317STDY7838710	60.84	106004.0	924.0	1.25	1.5	15.72	146.73	0.01	0.53	150.0	66.0	105496.0	104369.0	406971.0	2296.0	0	0.0	668935.0	468	0.01	0.07	23.03	154034.0	645.0	105166	0.34
5317STDY7838711	70.61	200914.0	1393.0	1.28	1.57	9.69	147.17	0.01	0.51	150.0	190.0	200296.0	198214.0	745781.0	1728.0	0	0.0	1056170.0	739	0.01	0.07	19.47	205585.0	1117.0	102337	0.16
5317STDY7838712	50.62	266408.0	965.0	1.21	1.4	24.82	143.73	0.01	0.38	150.0	118.0	265443.0	264013.0	621254.0	4490.0	0	0.0	1227366.0	491	0.01	0.04	24.15	296460.0	1312.0	304671	0.37
5317STDY7838713	10.87	1082.0	5.0	1.04	1.15	80.4	143.82	0.01	0.63	150.0	0.0	1078.0	1071.0	3051.0	40.0	0	0.0	28070.0	6	0.01	0.02	8.57	2407.0	6.0	22566	0.14
5317STDY7838714	13.82	707.0	4.0	1.33	1.33	75.75	146.06	0.01	0.62	150.0	0.0	700.0	695.0	2143.0	18.0	0	0.0	15507.0	5	0.01	0.03	10.29	1595.0	8.0	11746	0.12
5317STDY7838715	17.57	731.0	3.0	1.1	1.67	73.27	146.06	0.01	0.62	150.0	0.0	726.0	725.0	2368.0	30.0	0	0.0	13474.0	9	0.0	0.07	8.86	1194.0	3.0	9873	0.22
5317STDY7838716	72.47	411955.0	3128.0	1.29	1.49	9.28	147.4	0.01	0.49	150.0	302.0	410883.0	405793.0	1405660.0	3631.0	0	0.0	1939539.0	1745	0.01	0.09	17.97	348622.0	2732.0	179881	0.19
5317STDY7838717	71.35	464447.0	3798.0	1.25	1.43	10.8	147.32	0.01	0.55	150.0	395.0	463484.0	457873.0	1252940.0	2731.0	0	0.0	1756164.0	702	0.01	0.04	17.66	310189.0	2381.0	189602	0.16
5317STDY7838718	63.02	183548.0	1079.0	1.25	1.48	10.72	146.44	0.01	0.49	150.0	127.0	182826.0	180576.0	673892.0	2189.0	0	0.0	1069414.0	641	0.01	0.06	26.01	278102.0	1766.0	114590	0.2
5317STDY7838719	72.12	460357.0	3180.0	1.25	1.44	10.15	147.26	0.01	0.5	150.0	377.0	458794.0	453592.0	1425115.0	1991.0	0	0.0	1975998.0	988	0.01	0.05	17.58	347407.0	3208.0	200497	0.1
5317STDY7838720	65.53	407365.0	2500.0	1.25	1.47	10.91	147.18	0.01	0.5	150.0	241.0	406378.0	402151.0	1117241.0	3905.0	0	0.0	1704854.0	1023	0.01	0.06	23.27	396748.0	2473.0	185937	0.23
5317STDY7838721	71.15	251188.0	1535.0	1.27	1.46	10.51	147.49	0.01	0.58	150.0	207.0	250574.0	248383.0	686662.0	1794.0	0	0.0	965087.0	483	0.01	0.05	18.1	174698.0	1063.0	101450	0.19
5317STDY7838722	60.19	407954.0	2928.0	1.23	1.46	10.0	146.63	0.01	0.44	150.0	134.0	406860.0	402649.0	989322.0	5928.0	0	0.0	1643570.0	493	0.01	0.03	29.42	483539.0	2243.0	164288	0.36
5317STDY7838723	27.09	43539.0	11366.0	1.22	2.02	50.62	139.09	0.01	0.78	150.0	4.0	43060.0	31588.0	114401.0	1385.0	0	0.0	422337.0	253	0.01	0.06	21.9	92502.0	581.0	213796	0.33
5317STDY7838724	8.52	1453.0	11.0	1.16	1.56	86.54	143.32	0.01	0.64	150.0	0.0	1435.0	1427.0	4524.0	74.0	0	0.0	53126.0	11	0.01	0.02	4.79	2546.0	15.0	45971	0.14
5317STDY7838725	12.19	1215.0	5.0	1.39	1.35	80.15	144.99	0.01	0.61	150.0	2.0	1209.0	1201.0	3247.0	152.0	0	0.0	26627.0	5	0.01	0.02	7.06	1881.0	7.0	21342	0.57
5317STDY7838726	22.3	929.0	4.0	1.38	2.45	65.59	146.27	0.01	0.6	150.0	0.0	925.0	921.0	2688.0	19.0	0	0.0	12054.0	5	0.01	0.04	11.91	1436.0	4.0	7906	0.16
5317STDY7838727	11.51	406.0	0.0	1.5	1.42	83.13	146.51	0.01	0.63	150.0	0.0	400.0	403.0	1491.0	22.0	0	0.0	12953.0	10	0.01	0.08	5.11	662.0	3.0	10768	0.17
5317STDY7838728	23.05	1143.0	12.0	1.28	1.9	67.66	146.85	0.01	0.61	150.0	0.0	1135.0	1125.0	3459.0	28.0	0	0.0	15005.0	8	0.0	0.05	9.04	1357.0	6.0	10153	0.19
5317STDY7838729	12.35	908.0	5.0	1.12	1.75	80.14	143.62	0.01	0.64	150.0	1.0	902.0	895.0	2916.0	55.0	0	0.0	23610.0	2	0.01	0.01	7.26	1715.0	7.0	18922	0.23
5317STDY7838730	8.58	795.0	9.0	1.26	1.35	87.11	143.28	0.01	0.75	150.0	1.0	790.0	781.0	2629.0	46.0	0	0.0	30626.0	6	0.01	0.02	4.13	1265.0	4.0	26680	0.15
5317STDY7838731	18.57	1166.0	8.0	1.37	2.0	74.13	146.61	0.01	0.55	150.0	1.0	1160.0	1152.0	3639.0	17.0	0	0.0	19600.0	8	0.01	0.04	7.18	1407.0	5.0	14529	0.09
5317STDY7838732	14.22	885.0	5.0	1.2	1.26	77.35	146.26	0.01	0.55	150.0	1.0	880.0	877.0	2484.0	17.0	0	0.0	17466.0	7	0.01	0.04	8.29	1448.0	2.0	13510	0.1
5317STDY7838733	19.54	1155.0	9.0	1.07	1.5	70.64	146.96	0.01	0.52	150.0	0.0	1149.0	1142.0	3350.0	14.0	0	0.0	17141.0	3	0.01	0.02	9.71	1664.0	4.0	12110	0.08
5317STDY7838734	20.21	828.0	3.0	1.24	1.8	69.67	146.68	0.01	0.5	150.0	1.0	824.0	821.0	2602.0	26.0	0	0.0	12874.0	6	0.01	0.05	9.86	1270.0	3.0	8970	0.2
5317STDY7838735	17.42	818.0	3.0	1.32	1.43	76.01	146.73	0.01	0.57	150.0	0.0	812.0	810.0	2547.0	14.0	0	0.0	14622.0	4	0.01	0.03	6.44	942.0	5.0	11115	0.1
5317STDY7838736	12.81	830.0	2.0	1.21	1.17	81.21	146.56	0.0	0.55	150.0	1.0	819.0	817.0	2483.0	35.0	0	0.0	19385.0	8	0.01	0.04	5.76	1117.0	10.0	15742	0.18
5317STDY7838737	36.97	517.0	4.0	1.38	1.22	39.88	145.96	0.01	0.62	150.0	0.0	512.0	510.0	1385.0	10.0	0	0.0	3746.0	0	0.01	0.0	22.88	857.0	3.0	1494	0.27
5317STDY7838738	65.04	6966.0	63.0	1.14	1.51	11.5	146.86	0.01	0.28	150.0	7.0	6925.0	6869.0	27946.0	453.0	0	0.0	42966.0	86	0.01	0.2	22.21	9543.0	27.0	4938	1.05
5317STDY7838739	37.13	390.0	3.0	1.0	1.67	38.96	145.22	0.01	0.54	150.0	0.0	390.0	387.0	975.0	10.0	0	0.0	2626.0	1	0.01	0.04	23.5	617.0	0.0	1023	0.38
5317STDY7838740	40.43	513.0	2.0	1.0	1.08	32.65	145.87	0.01	0.55	150.0	1.0	511.0	509.0	1371.0	12.0	0	0.0	3391.0	2	0.01	0.06	26.51	899.0	1.0	1107	0.35
5317STDY7838741	9.7	237.0	0.0	1.14	1.14	83.21	146.04	0.01	0.62	150.0	0.0	237.0	237.0	624.0	5.0	0	0.0	6434.0	0	0.02	0.0	7.01	451.0	0.0	5354	0.08
5317STDY7838742	20.38	634.0	3.0	1.2	1.73	60.99	146.52	0.01	0.51	150.0	0.0	630.0	628.0	1843.0	9.0	0	0.0	9041.0	2	0.01	0.02	18.5	1673.0	3.0	5514	0.1
5317STDY7838743	33.82	263.0	1.0	1.0	1.0	36.11	145.72	0.01	0.53	150.0	0.0	263.0	262.0	604.0	5.0	0	0.0	1786.0	2	0.01	0.11	29.68	530.0	0.0	645	0.28
5317STDY7838744	47.06	9756.0	56.0	1.1	1.54	32.88	147.45	0.02	0.29	150.0	0.0	9735.0	9596.0	45302.0	69.0	0	0.0	96268.0	19	0.01	0.02	19.97	19228.0	104.0	31650	0.07
5317STDY7838745	37.37	99447.0	719.0	1.24	1.57	18.49	145.77	0.01	0.4	150.0	94.0	98880.0	96416.0	339018.0	2523.0	0	0.0	907201.0	816	0.01	0.09	43.78	397162.0	2218.0	167682	0.28
5317STDY7838746	35.76	147558.0	1184.0	1.17	1.34	19.83	145.56	0.01	0.43	150.0	93.0	146855.0	143914.0	411704.0	3496.0	0	0.0	1151455.0	345	0.01	0.03	44.08	507611.0	2367.0	228299	0.3
5317STDY7838747	43.05	133684.0	818.0	1.25	1.45	12.41	146.53	0.01	0.46	150.0	56.0	133175.0	131778.0	358024.0	2222.0	0	0.0	831575.0	166	0.01	0.02	44.24	367903.0	1032.0	103260	0.27
5317STDY7838748	36.47	119727.0	967.0	1.25	1.45	18.21	146.3	0.01	0.45	150.0	64.0	119245.0	117350.0	385918.0	2974.0	0	0.0	1058049.0	106	0.01	0.01	45.03	476397.0	1346.0	192654	0.28
5317STDY7838749	75.83	658085.0	4167.0	1.25	1.56	5.36	147.84	0.01	0.4	150.0	644.0	657052.0	650892.0	1274097.0	2237.0	0	0.0	1680225.0	336	0.01	0.02	18.66	313462.0	2382.0	90093	0.13
5317STDY7838750	67.92	477861.0	3459.0	1.25	1.5	4.49	147.99	0.01	0.37	150.0	381.0	477160.0	472150.0	920781.0	1924.0	0	0.0	1355650.0	679	0.01	0.05	27.39	371321.0	1871.0	60945	0.14
5317STDY7838751	76.65	529836.0	3081.0	1.3	1.54	4.7	148.14	0.01	0.4	150.0	490.0	528775.0	523784.0	1045694.0	1448.0	0	0.0	1364164.0	409	0.01	0.03	18.51	252527.0	2481.0	64086	0.11
5317STDY7838752	74.28	672072.0	4379.0	1.34	1.54	4.83	147.76	0.01	0.4	150.0	341.0	670556.0	664167.0	1401060.0	2075.0	0	0.0	1886104.0	565	0.01	0.03	20.75	391430.0	3185.0	90974	0.11
5317STDY7838753	36.21	508.0	2.0	1.43	1.67	39.63	146.45	0.01	0.7	150.0	1.0	506.0	503.0	1199.0	7.0	0	0.0	3311.0	1	0.02	0.03	23.92	792.0	2.0	1312	0.21
5317STDY7838754	75.1	803271.0	4677.0	1.26	1.56	4.5	148.11	0.01	0.41	150.0	622.0	801981.0	795133.0	1551449.0	2250.0	0	0.0	2065731.0	207	0.01	0.01	20.27	418762.0	2839.0	93063	0.11
5317STDY7838755	38.02	181788.0	1075.0	1.26	1.45	11.51	146.96	0.01	0.47	150.0	92.0	181149.0	178982.0	459424.0	2857.0	0	0.0	1208466.0	363	0.01	0.03	50.2	606697.0	1639.0	139125	0.24
5317STDY7838756	1.51	1658.0	2.0	1.09	1.32	98.2	145.13	0.01	0.46	150.0	0.0	1625.0	1600.0	16453.0	83.0	0	0.0	1091935.0	218	0.01	0.02	0.26	2841.0	56.0	1072340	0.01
5317STDY7838757	34.88	451452.0	2675.0	1.21	1.41	26.65	147.33	0.01	0.43	150.0	217.0	449805.0	445910.0	1028424.0	7937.0	0	0.0	2948738.0	295	0.01	0.01	38.19	1126068.0	2650.0	786014	0.27
5317STDY7838758	44.03	200673.0	1307.0	1.27	1.41	11.56	147.57	0.01	0.43	150.0	149.0	200023.0	198015.0	454182.0	2098.0	0	0.0	1031447.0	206	0.01	0.02	44.17	455637.0	1202.0	119324	0.2
5317STDY7838759	38.04	187143.0	1024.0	1.23	1.45	12.4	147.35	0.01	0.45	150.0	130.0	186567.0	184822.0	494885.0	5212.0	0	0.0	1301116.0	260	0.01	0.02	49.14	639383.0	1167.0	161376	0.4
5317STDY7838760	35.71	121704.0	794.0	1.22	1.5	13.03	146.39	0.01	0.45	150.0	97.0	121112.0	119382.0	403661.0	2916.0	0	0.0	1130412.0	226	0.01	0.02	50.98	576317.0	1431.0	147292	0.26
5317STDY7838761	41.27	766.0	6.0	1.04	1.18	38.63	147.36	0.0	0.56	150.0	0.0	761.0	757.0	1938.0	9.0	0	0.0	4696.0	0	0.01	0.0	19.91	935.0	3.0	1814	0.19
5317STDY7838762	75.69	426592.0	3145.0	1.3	1.45	4.87	148.17	0.0	0.42	150.0	381.0	425904.0	422015.0	791868.0	1244.0	0	0.0	1046211.0	314	0.01	0.03	19.29	201858.0	1051.0	50927	0.12
5317STDY7838763	42.86	603.0	3.0	1.15	1.25	38.75	147.31	0.0	0.6	150.0	0.0	601.0	597.0	1492.0	4.0	0	0.0	3481.0	2	0.01	0.06	18.21	634.0	3.0	1349	0.11
5317STDY7838764	71.53	253924.0	1624.0	1.29	1.52	3.52	148.23	0.01	0.39	150.0	226.0	253473.0	251178.0	528531.0	1507.0	0	0.0	738869.0	148	0.01	0.02	24.72	182669.0	896.0	26014	0.2
5317STDY7838765	37.98	291.0	1.0	1.44	1.2	43.92	146.98	0.01	0.66	150.0	0.0	288.0	289.0	728.0	3.0	0	0.0	1917.0	1	0.01	0.05	17.89	343.0	1.0	842	0.16
5317STDY7838766	73.17	826555.0	5954.0	1.33	1.52	4.58	148.18	0.01	0.41	150.0	490.0	825079.0	817048.0	1605402.0	2547.0	0	0.0	2194203.0	878	0.01	0.04	22.1	484823.0	3063.0	100553	0.12
5317STDY7838767	37.06	355.0	5.0	1.33	1.22	39.14	147.05	0.01	0.48	150.0	0.0	353.0	348.0	836.0	1.0	0	0.0	2256.0	0	0.01	0.0	23.76	536.0	2.0	883	0.04
5317STDY7838768	74.68	1108893.0	6861.0	1.27	1.45	4.26	148.08	0.01	0.39	150.0	855.0	1107098.0	1097935.0	1851173.0	1992.0	0	0.0	2478866.0	495	0.01	0.02	20.97	519780.0	3242.0	105426	0.08
5317STDY7838769	69.27	660580.0	4809.0	1.27	1.52	5.32	148.27	0.01	0.43	150.0	547.0	659511.0	652962.0	1437487.0	2496.0	0	0.0	2075142.0	414	0.01	0.02	25.28	524526.0	2262.0	110219	0.12
5317STDY7838770	75.21	482593.0	2865.0	1.31	1.61	5.19	148.1	0.01	0.41	150.0	356.0	481699.0	477581.0	1176182.0	1942.0	0	0.0	1563887.0	625	0.01	0.04	19.44	304063.0	1791.0	81075	0.12
5317STDY7838771	67.34	572350.0	3990.0	1.26	1.55	5.26	148.07	0.01	0.41	150.0	279.0	571333.0	565836.0	1273693.0	3199.0	0	0.0	1891467.0	378	0.01	0.02	27.22	514832.0	2245.0	99365	0.17
5317STDY7838772	8.18	1927.0	2.0	1.56	1.06	90.66	145.24	0.02	0.52	150.0	0.0	1906.0	1829.0	10460.0	52.0	0	0.0	127831.0	13	0.0	0.01	1.11	1421.0	96.0	115885	0.04
5317STDY7838773	60.76	480458.0	3108.0	1.21	1.44	6.7	147.7	0.01	0.45	150.0	423.0	479246.0	475082.0	1013074.0	6120.0	0	0.0	1667371.0	333	0.01	0.02	32.16	536236.0	1845.0	111608	0.37
5317STDY7838774	58.3	388726.0	2394.0	1.22	1.46	8.79	147.78	0.01	0.45	150.0	249.0	387787.0	384402.0	803538.0	4657.0	0	0.0	1378256.0	276	0.01	0.02	32.54	448544.0	1681.0	121241	0.34
5317STDY7838775	51.6	269620.0	1873.0	1.27	1.41	9.54	147.12	0.01	0.43	150.0	222.0	268738.0	265971.0	711748.0	6514.0	0	0.0	1379344.0	552	0.01	0.04	38.34	528836.0	1554.0	131694	0.47
5317STDY7838776	47.71	252222.0	1622.0	1.2	1.46	8.77	147.9	0.01	0.32	150.0	158.0	251454.0	249345.0	494002.0	2404.0	0	0.0	1035517.0	207	0.01	0.02	43.27	448071.0	1097.0	90833	0.23
5317STDY7838777	46.5	354.0	0.0	1.0	1.0	27.89	147.01	0.0	0.74	150.0	0.0	352.0	353.0	797.0	4.0	0	0.0	1714.0	2	0.01	0.12	25.26	433.0	1.0	478	0.23
5317STDY7838778	42.3	898.0	6.0	1.11	1.45	36.57	147.28	0.01	0.56	150.0	2.0	892.0	885.0	2149.0	10.0	0	0.0	5080.0	1	0.01	0.02	20.91	1062.0	5.0	1858	0.2
5317STDY7838779	38.92	458.0	3.0	1.0	1.0	35.03	147.39	0.01	0.49	150.0	0.0	456.0	454.0	1062.0	8.0	0	0.0	2729.0	0	0.01	0.0	25.76	703.0	1.0	956	0.29
5317STDY7838780	38.84	604.0	5.0	1.2	1.31	40.66	147.18	0.01	0.52	150.0	0.0	602.0	598.0	1514.0	3.0	0	0.0	3898.0	2	0.01	0.05	20.37	794.0	1.0	1585	0.08
5317STDY7838781	64.1	322991.0	2463.0	1.24	1.41	7.5	148.03	0.01	0.43	150.0	267.0	322195.0	318816.0	861897.0	2760.0	0	0.0	1344680.0	538	0.01	0.04	28.16	378621.0	1445.0	100864	0.21
5317STDY7838782	63.55	409883.0	2804.0	1.23	1.38	13.51	148.11	0.01	0.44	150.0	237.0	408866.0	405036.0	886308.0	2343.0	0	0.0	1394689.0	279	0.01	0.02	22.76	317376.0	1806.0	188383	0.17
5317STDY7838783	73.6	612656.0	3659.0	1.28	1.53	4.32	148.17	0.01	0.42	150.0	417.0	611552.0	606035.0	1244942.0	2218.0	0	0.0	1691522.0	508	0.01	0.03	21.92	370717.0	2545.0	73137	0.13
5317STDY7838784	78.99	856271.0	6234.0	1.33	1.54	5.18	148.2	0.01	0.42	150.0	556.0	855078.0	847075.0	1705531.0	1790.0	0	0.0	2159261.0	648	0.01	0.03	15.72	339414.0	2406.0	111878	0.08
5317STDY7838785	25.85	19098.0	315.0	1.21	1.36	16.9	145.71	0.01	0.48	150.0	1.0	18939.0	18314.0	234999.0	1934.0	0	0.0	909165.0	273	0.01	0.03	57.01	518309.0	468.0	153650	0.21
5317STDY7838786	60.04	525556.0	3001.0	1.23	1.49	7.66	147.97	0.01	0.41	150.0	397.0	524424.0	519535.0	1029053.0	3735.0	0	0.0	1713926.0	514	0.01	0.03	32.06	549478.0	2623.0	131146	0.22
5317STDY7838787	60.74	480086.0	2871.0	1.26	1.5	6.95	147.83	0.01	0.44	150.0	336.0	478951.0	474727.0	1082112.0	3283.0	0	0.0	1781516.0	534	0.01	0.03	32.1	571805.0	2152.0	123782	0.18
5317STDY7838788	62.34	706459.0	5219.0	1.27	1.58	7.5	148.29	0.01	0.42	150.0	285.0	704943.0	697311.0	1543769.0	4403.0	0	0.0	2476503.0	495	0.01	0.02	29.97	742106.0	3644.0	185730	0.18
5317STDY7838789	45.42	389.0	3.0	1.25	1.4	26.82	146.93	0.0	0.59	150.0	0.0	387.0	385.0	977.0	7.0	0	0.0	2151.0	1	0.01	0.05	27.38	589.0	1.0	577	0.33
5317STDY7838790	56.29	372653.0	2652.0	1.26	1.48	8.66	147.52	0.01	0.45	150.0	307.0	371547.0	367716.0	888373.0	3736.0	0	0.0	1578201.0	631	0.01	0.04	34.78	548870.0	1978.0	136591	0.24
5317STDY7838791	59.31	628975.0	3904.0	1.27	1.5	6.0	147.83	0.01	0.36	150.0	436.0	627710.0	622432.0	1181107.0	3219.0	0	0.0	1991397.0	796	0.01	0.04	34.49	686889.0	2203.0	119386	0.16
5317STDY7838792	45.41	698.0	3.0	1.12	1.71	27.85	147.13	0.01	0.55	150.0	0.0	695.0	694.0	1758.0	4.0	0	0.0	3871.0	1	0.01	0.03	26.61	1030.0	1.0	1078	0.1
5317STDY7838793	42.73	1205.0	6.0	1.19	1.31	28.99	147.1	0.01	0.63	150.0	0.0	1201.0	1198.0	3200.0	22.0	0	0.0	7489.0	4	0.01	0.05	27.93	2092.0	1.0	2171	0.29
5317STDY7838794	46.32	1221.0	10.0	1.28	1.52	21.85	147.3	0.01	0.55	150.0	2.0	1217.0	1206.0	3103.0	16.0	0	0.0	6699.0	4	0.01	0.06	31.53	2112.0	3.0	1464	0.24
5317STDY7838795	63.27	508460.0	3412.0	1.25	1.52	6.09	148.04	0.01	0.44	150.0	439.0	507351.0	501954.0	1276697.0	7473.0	0	0.0	2017873.0	606	0.01	0.03	30.23	610062.0	2655.0	123035	0.37
5317STDY7838796	56.65	460994.0	3158.0	1.28	1.58	7.97	147.61	0.01	0.43	150.0	494.0	459806.0	454363.0	1228063.0	4454.0	0	0.0	2167811.0	1300	0.01	0.06	35.12	761258.0	2979.0	172736	0.21
5317STDY7838797	64.36	472182.0	2618.0	1.28	1.48	6.59	147.36	0.01	0.37	150.0	106.0	471082.0	467048.0	989611.0	4713.0	0	0.0	1537525.0	923	0.01	0.06	28.68	440937.0	2410.0	101341	0.31
5317STDY7838798	63.25	361264.0	2113.0	1.34	1.53	6.09	147.65	0.01	0.43	150.0	214.0	360433.0	356976.0	902609.0	2479.0	0	0.0	1427102.0	428	0.01	0.03	30.46	434760.0	1961.0	86826	0.17
5317STDY7838799	43.18	579.0	0.0	1.38	1.5	34.37	147.05	0.01	0.54	150.0	0.0	576.0	575.0	1435.0	7.0	0	0.0	3323.0	1	0.01	0.03	22.21	738.0	4.0	1142	0.21
5317STDY7838800	63.32	394945.0	2296.0	1.33	1.58	5.58	147.83	0.01	0.4	150.0	203.0	394097.0	389931.0	1087295.0	3732.0	0	0.0	1717107.0	686	0.01	0.04	30.84	529634.0	2515.0	95760	0.22
5317STDY7838801	59.06	444928.0	2934.0	1.28	1.6	8.86	147.74	0.01	0.41	150.0	390.0	443946.0	439116.0	1119284.0	3984.0	0	0.0	1895271.0	947	0.01	0.05	31.83	603174.0	2488.0	167882	0.21
5317STDY7838802	58.81	347333.0	2320.0	1.27	1.5	6.53	147.77	0.01	0.41	150.0	195.0	346391.0	342910.0	866709.0	4995.0	0	0.0	1473837.0	589	0.01	0.04	34.29	505347.0	1908.0	96197	0.34
5317STDY7838803	59.44	613876.0	4693.0	1.23	1.42	5.79	148.17	0.01	0.41	150.0	499.0	612525.0	605658.0	1292876.0	4247.0	0	0.0	2175160.0	652	0.01	0.03	34.55	751592.0	3026.0	125793	0.2
5317STDY7838804	45.46	253362.0	1444.0	1.29	1.5	12.61	147.55	0.01	0.42	150.0	109.0	252523.0	250116.0	689653.0	3502.0	0	0.0	1516897.0	455	0.01	0.03	41.66	631922.0	1693.0	191365	0.23
5317STDY7838805	62.01	534483.0	3643.0	1.26	1.52	6.3	148.06	0.01	0.43	150.0	294.0	533354.0	528143.0	1171062.0	7722.0	0	0.0	1888437.0	944	0.01	0.05	31.23	589730.0	2403.0	118979	0.41
5317STDY7838806	48.97	230346.0	1614.0	1.22	1.45	5.9	147.96	0.01	0.3	150.0	159.0	229763.0	227647.0	426865.0	1362.0	0	0.0	871649.0	174	0.01	0.02	44.95	391797.0	926.0	51451	0.16
5317STDY7838807	58.78	356888.0	2379.0	1.24	1.47	4.63	147.97	0.01	0.36	150.0	316.0	355963.0	352933.0	685605.0	2541.0	0	0.0	1166387.0	233	0.01	0.02	36.36	424053.0	1260.0	53955	0.22
5317STDY7838808	2.63	2668.0	15.0	1.16	1.18	95.96	144.28	0.02	0.56	150.0	1.0	2598.0	2411.0	30265.0	300.0	0	0.0	1149281.0	230	0.01	0.02	1.36	15637.0	241.0	1102849	0.03
5317STDY7838809	76.9	508491.0	3837.0	1.32	1.55	5.17	147.87	0.01	0.4	150.0	319.0	507600.0	502178.0	1224828.0	1428.0	0	0.0	1592775.0	478	0.01	0.03	17.81	283666.0	2157.0	82375	0.09
5317STDY7838810	78.42	524106.0	2559.0	1.3	1.51	4.23	148.17	0.01	0.4	150.0	600.0	523394.0	518688.0	1114519.0	1238.0	0	0.0	1421287.0	426	0.01	0.03	17.24	245041.0	2259.0	60063	0.09
5317STDY7838811	6.99	3534.0	35.0	1.31	1.27	92.5	146.43	0.0	0.36	150.0	0.0	3528.0	3496.0	24402.0	38.0	0	0.0	348882.0	35	0.0	0.01	0.49	1709.0	3.0	322698	0.01
5317STDY7838812	75.86	602847.0	3720.0	1.29	1.51	4.27	147.99	0.01	0.37	150.0	361.0	601807.0	596448.0	1412572.0	2016.0	0	0.0	1862088.0	559	0.01	0.03	19.73	367412.0	2318.0	79529	0.11
5317STDY7838813	78.08	561757.0	3681.0	1.3	1.55	4.24	148.04	0.01	0.4	150.0	522.0	560757.0	555330.0	1142466.0	1266.0	0	0.0	1463231.0	439	0.01	0.03	17.57	257030.0	2224.0	62030	0.09
5317STDY7838814	75.83	850662.0	5400.0	1.27	1.51	4.76	148.08	0.01	0.41	150.0	587.0	849147.0	842000.0	1581269.0	1600.0	0	0.0	2085303.0	417	0.01	0.02	19.32	402790.0	2675.0	99227	0.08
5317STDY7838815	72.5	14501.0	108.0	1.38	1.43	5.76	148.12	0.01	0.4	150.0	10.0	14433.0	14321.0	30768.0	40.0	0	0.0	42439.0	4	0.01	0.01	21.64	9184.0	62.0	2443	0.09
5317STDY7838816	70.6	733037.0	5642.0	1.28	1.64	4.67	148.09	0.01	0.39	150.0	433.0	731288.0	722482.0	1453054.0	4014.0	0	0.0	2058152.0	412	0.01	0.02	24.51	504475.0	4480.0	96197	0.2
5317STDY7838817	71.45	16954.0	92.0	1.29	1.47	8.51	148.21	0.01	0.41	150.0	10.0	16905.0	16800.0	32914.0	45.0	0	0.0	46065.0	9	0.01	0.02	19.92	9175.0	52.0	3922	0.1
5317STDY7838818	70.26	520726.0	3324.0	1.35	1.7	4.67	148.16	0.01	0.42	150.0	365.0	519748.0	514990.0	1146133.0	3148.0	0	0.0	1631346.0	490	0.01	0.03	24.85	405359.0	2047.0	76216	0.19
5317STDY7838819	75.97	595249.0	3792.0	1.29	1.5	4.93	147.72	0.01	0.39	150.0	508.0	593850.0	588840.0	1167116.0	1313.0	0	0.0	1536318.0	307	0.01	0.02	18.99	291823.0	2109.0	75759	0.09
5317STDY7838820	77.34	917462.0	6947.0	1.26	1.45	4.94	148.03	0.01	0.41	150.0	973.0	915893.0	906869.0	1749046.0	2940.0	0	0.0	2261448.0	678	0.01	0.03	17.56	397208.0	2673.0	111576	0.13
5317STDY7838821	72.86	564034.0	3636.0	1.3	1.48	5.42	147.99	0.01	0.42	150.0	523.0	562600.0	555934.0	1939632.0	6250.0	0	0.0	2662001.0	1331	0.01	0.05	21.43	570545.0	3941.0	144243	0.23
5317STDY7838822	73.54	260990.0	1539.0	1.27	1.6	6.56	147.47	0.01	0.42	150.0	208.0	260336.0	257486.0	1004526.0	2090.0	0	0.0	1365898.0	273	0.01	0.02	19.73	269485.0	1757.0	89524	0.15
5317STDY7838823	83.93	1016762.0	7045.0	1.24	1.5	4.56	148.42	0.01	0.41	150.0	1159.0	1014948.0	1004869.0	2157382.0	1470.0	0	0.0	2570550.0	257	0.01	0.01	11.45	294238.0	3689.0	117203	0.06
5317STDY7838824	72.31	3812.0	21.0	1.18	1.47	8.24	148.12	0.01	0.44	150.0	4.0	3804.0	3780.0	8372.0	13.0	0	0.0	11578.0	3	0.01	0.03	19.3	2235.0	7.0	955	0.11
5317STDY7838825	79.85	32480.0	196.0	1.32	1.58	4.72	148.37	0.01	0.44	150.0	37.0	32397.0	32154.0	67593.0	76.0	0	0.0	84655.0	17	0.01	0.02	15.33	12978.0	93.0	3991	0.09
5317STDY7838826	73.79	5805.0	37.0	1.26	1.91	8.87	148.13	0.01	0.45	150.0	2.0	5787.0	5743.0	12417.0	21.0	0	0.0	16827.0	0	0.01	0.0	17.21	2896.0	23.0	1493	0.12
5317STDY7838827	56.45	819.0	6.0	1.26	1.28	13.94	147.97	0.01	0.48	150.0	1.0	815.0	808.0	2114.0	5.0	0	0.0	3745.0	2	0.01	0.05	29.43	1102.0	4.0	522	0.13
5317STDY7838828	69.39	4021.0	17.0	1.2	1.34	8.89	147.99	0.01	0.47	150.0	4.0	4005.0	3988.0	7759.0	13.0	0	0.0	11181.0	4	0.01	0.04	21.56	2411.0	12.0	994	0.12
5317STDY7838829	65.88	790064.0	4607.0	1.3	1.56	5.94	147.93	0.01	0.41	150.0	329.0	788413.0	781497.0	2000928.0	6327.0	0	0.0	3037319.0	607	0.01	0.02	27.96	849197.0	3631.0	180260	0.21
5317STDY7838830	72.57	466048.0	2761.0	1.25	1.48	5.1	147.79	0.01	0.45	150.0	358.0	465082.0	461486.0	900137.0	1497.0	0	0.0	1240292.0	248	0.01	0.02	22.19	275212.0	1443.0	63198	0.12
5317STDY7838831	7.11	34938.0	151.0	1.12	1.34	55.77	145.98	0.01	0.47	150.0	23.0	34599.0	33621.0	85755.0	2291.0	0	0.0	1206797.0	0	0.01	0.0	36.93	445682.0	1143.0	673069	0.19
5317STDY7838832	0.73	1146.0	4.0	1.06	1.63	98.72	144.07	0.01	1.08	150.0	0.0	1099.0	1116.0	15882.0	1000.0	0	0.0	2177771.0	218	0.02	0.01	0.49	10774.0	26.0	2149897	0.05
5317STDY7838833	0.83	474.0	1.0	1.35	2.2	98.99	145.16	0.02	0.45	150.0	0.0	462.0	464.0	21567.0	115.0	0	0.0	2609533.0	0	0.03	0.0	0.18	4613.0	9.0	2583238	0.0
5317STDY7838834	6.98	17863.0	43.0	1.14	1.16	26.92	144.25	0.01	0.49	150.0	26.0	17585.0	16950.0	139245.0	9240.0	0	0.0	1994930.0	199	0.01	0.01	65.63	1309326.0	844.0	536920	0.46
5317STDY7838835	2.15	3688.0	47.0	1.37	1.16	75.29	143.67	0.01	0.42	150.0	0.0	3633.0	3350.0	45853.0	4284.0	0	0.0	2137381.0	0	0.01	0.0	22.36	477936.0	291.0	1609308	0.2
5317STDY7838836	7.03	22501.0	73.0	1.12	1.28	49.33	144.07	0.02	0.46	150.0	2.0	22129.0	21439.0	147623.0	6015.0	0	0.0	2101124.0	630	0.01	0.03	43.33	910496.0	987.0	1036360	0.29
5317STDY7838837	5.07	23865.0	151.0	1.12	1.36	47.03	143.57	0.01	0.39	150.0	0.0	23623.0	23332.0	98213.0	8132.0	0	0.0	1937889.0	194	0.01	0.01	47.48	920019.0	382.0	911331	0.42
5317STDY7838838	8.47	6956.0	39.0	1.29	1.18	41.49	143.28	0.01	0.52	150.0	0.0	6654.0	6500.0	92608.0	3569.0	0	0.0	1093449.0	219	0.01	0.02	49.7	543409.0	417.0	453644	0.33
5317STDY7838839	0.59	912.0	24.0	1.84	3.29	98.94	142.26	0.01	1.02	150.0	0.0	767.0	476.0	10720.0	87.0	0	0.0	1826631.0	0	0.04	0.0	0.47	8567.0	412.0	1807257	0.0
5317STDY7838840	8.1	15863.0	51.0	1.25	1.42	57.02	144.99	0.01	0.47	150.0	0.0	15776.0	15431.0	72191.0	1686.0	0	0.0	890746.0	89	0.02	0.01	34.68	308894.0	381.0	507886	0.19
5317STDY7838841	0.29	202.0	1.0	1.21	1.55	99.51	144.87	0.01	0.71	150.0	1.0	195.0	197.0	4323.0	44.0	0	0.0	1498908.0	150	0.02	0.01	0.19	2801.0	3.0	1491590	0.0
5317STDY7838842	11.93	40466.0	210.0	1.19	1.56	45.82	145.81	0.01	0.42	150.0	0.0	40212.0	40001.0	266659.0	4497.0	0	0.0	2234825.0	447	0.01	0.02	42.03	939349.0	255.0	1023873	0.2
5317STDY7838843	8.73	59419.0	74.0	1.17	1.34	56.47	145.89	0.01	0.46	150.0	0.0	59258.0	59076.0	186649.0	3934.0	0	0.0	2137730.0	855	0.01	0.04	34.58	739236.0	269.0	1207056	0.18
5317STDY7838844	8.77	24454.0	246.0	1.18	1.35	65.78	145.96	0.01	0.46	150.0	0.0	24166.0	23906.0	190247.0	2695.0	0	0.0	2169843.0	1519	0.01	0.07	25.26	548095.0	302.0	1427287	0.12
5317STDY7838845	13.02	32373.0	677.0	1.12	1.24	76.53	144.83	0.01	0.96	150.0	30.0	29780.0	11574.0	299986.0	2794.0	0	0.0	2303246.0	1843	0.01	0.08	10.24	235890.0	20092.0	1762733	0.12
5317STDY7838846	34.89	41369.0	174.0	1.13	1.54	20.58	145.44	0.01	0.42	150.0	41.0	41165.0	40641.0	174486.0	1532.0	0	0.0	500047.0	50	0.01	0.01	44.21	221050.0	513.0	102929	0.31
5317STDY7838847	1.24	1030.0	526.0	1.19	1.39	98.35	144.0	0.0	0.44	150.0	0.0	997.0	365.0	22705.0	2499.0	0	0.0	1832491.0	0	0.0	0.0	0.28	5041.0	139.0	1802246	0.14
5317STDY7838848	5.02	3542.0	197.0	1.45	1.47	93.67	143.64	0.01	0.67	150.0	4.0	3195.0	1274.0	90738.0	2034.0	0	0.0	1809027.0	1447	0.02	0.08	1.12	20308.0	2067.0	1694500	0.11
5317STDY7838849	20.65	20817.0	300.0	1.23	1.25	24.67	145.99	0.01	0.47	150.0	25.0	20653.0	20139.0	162625.0	2387.0	0	0.0	787523.0	157	0.01	0.02	54.36	428088.0	353.0	194266	0.3
5317STDY7838850	39.91	43402.0	770.0	1.26	1.82	27.83	143.06	0.01	0.7	150.0	174.0	40360.0	29754.0	490093.0	11363.0	0	0.0	1227867.0	4544	0.02	0.37	30.96	380114.0	12704.0	341753	0.93
5317STDY7838851	7.19	32958.0	63.0	1.28	1.35	63.29	145.86	0.01	0.46	150.0	0.0	32792.0	32362.0	124933.0	2938.0	0	0.0	1738571.0	522	0.01	0.03	29.33	509977.0	533.0	1100201	0.17
5317STDY7838852	2.43	1762.0	44.0	1.09	2.05	81.63	143.87	0.03	0.47	150.0	1.0	1663.0	1610.0	39147.0	1094.0	0	0.0	1609462.0	0	0.01	0.0	15.87	255418.0	107.0	1313803	0.07
5317STDY7838853	3.64	2657.0	2.0	1.48	4.76	95.96	144.36	0.02	0.7	150.0	1.0	2302.0	816.0	62169.0	602.0	0	0.0	1708127.0	342	0.01	0.02	0.35	5938.0	1838.0	1639076	0.04
5317STDY7838854	3.22	5259.0	195.0	1.15	1.33	76.38	141.6	0.01	1.06	150.0	27.0	4926.0	1546.0	49474.0	2254.0	0	0.0	1536923.0	0	0.01	0.0	20.25	311273.0	3491.0	1173922	0.15
5317STDY7838855	3.27	3542.0	16.0	1.28	1.12	76.56	145.26	0.01	0.55	150.0	0.0	3331.0	3015.0	56889.0	1019.0	0	0.0	1737096.0	0	0.02	0.0	20.1	349163.0	511.0	1330025	0.06
5317STDY7838856	3.58	9157.0	486.0	1.66	2.71	82.62	144.72	0.02	0.79	150.0	3.0	8442.0	5795.0	137896.0	3140.0	0	0.0	3853711.0	385	0.02	0.01	13.71	528523.0	2873.0	3183767	0.08
5317STDY7838857	17.62	212.0	1.0	1.0	1.0	64.09	145.84	0.0	0.83	150.0	0.0	209.0	208.0	829.0	8.0	0	0.0	4706.0	0	0.0	0.0	18.13	853.0	3.0	3016	0.17
5317STDY7838858	2.69	492.0	0.0	1.38	2.1	82.75	144.65	0.01	0.47	150.0	0.0	469.0	468.0	12273.0	168.0	0	0.0	456565.0	0	0.01	0.0	14.52	66275.0	24.0	377849	0.04
5317STDY7838859	17.99	311.0	3.0	1.6	1.6	60.38	146.0	0.01	0.65	150.0	0.0	309.0	307.0	1092.0	8.0	0	0.0	6070.0	2	0.01	0.03	21.47	1303.0	1.0	3665	0.13
5317STDY7838860	4.19	3040.0	37.0	1.14	1.61	63.41	143.23	0.02	0.54	150.0	0.0	2927.0	2392.0	58460.0	1620.0	0	0.0	1394692.0	139	0.01	0.01	32.28	450191.0	611.0	884282	0.12
5317STDY7838861	9.96	11682.0	105.0	1.29	1.19	43.57	144.5	0.01	0.49	150.0	0.0	11403.0	11112.0	149954.0	2793.0	0	0.0	1505258.0	151	0.01	0.01	46.27	696506.0	465.0	655854	0.19
5317STDY7838862	1.64	518.0	5.0	1.18	1.79	97.3	144.1	0.04	0.56	150.0	2.0	470.0	452.0	29549.0	1798.0	0	0.0	1799547.0	0	0.03	0.0	0.96	17187.0	59.0	1751013	0.1
5317STDY7838863	48.81	203052.0	820.0	1.17	1.55	9.39	147.35	0.01	0.41	150.0	14.0	202553.0	201271.0	614011.0	1636.0	0	0.0	1258023.0	126	0.01	0.01	41.67	524165.0	947.0	118085	0.13
5317STDY7838864	6.59	1792.0	63.0	1.07	1.21	61.31	143.69	0.0	0.54	150.0	0.0	1626.0	1348.0	50993.0	1414.0	0	0.0	773534.0	0	0.01	0.0	31.92	246876.0	381.0	474251	0.18
5317STDY7838865	36.35	145610.0	612.0	1.21	1.42	13.48	146.42	0.01	0.45	150.0	29.0	144991.0	143642.0	607436.0	5884.0	0	0.0	1670946.0	501	0.01	0.03	49.78	831806.0	1327.0	225319	0.35
5317STDY7838866	1.42	440.0	2.0	1.05	1.71	98.5	145.16	0.01	0.45	150.0	0.0	408.0	170.0	42206.0	91.0	0	0.0	2966510.0	0	0.03	0.0	0.07	2087.0	268.0	2922126	0.0
5317STDY7838867	27.79	186207.0	724.0	1.3	1.43	26.3	146.67	0.01	0.42	150.0	214.0	185683.0	184066.0	521501.0	5347.0	0	0.0	1876742.0	188	0.01	0.01	45.62	856208.0	1203.0	493498	0.28
5317STDY7838868	38.03	149143.0	450.0	1.22	1.55	15.35	146.78	0.01	0.45	150.0	108.0	148473.0	147355.0	546690.0	4241.0	0	0.0	1437682.0	575	0.01	0.04	46.29	665530.0	1230.0	220646	0.29
5317STDY7838869	24.53	46514.0	156.0	1.22	1.38	18.65	145.35	0.01	0.47	150.0	2.0	46252.0	45385.0	286562.0	3689.0	0	0.0	1168373.0	117	0.01	0.01	56.5	660126.0	971.0	217879	0.32
5317STDY7838870	3.92	3391.0	12.0	1.24	1.4	95.18	143.4	0.02	1.0	150.0	42.0	3095.0	1125.0	49977.0	980.0	0	0.0	1275544.0	128	0.01	0.01	0.82	10521.0	2212.0	1213938	0.08
5317STDY7838871	25.75	140211.0	1204.0	1.25	1.56	34.59	146.21	0.01	0.45	150.0	0.0	139571.0	135208.0	516773.0	4633.0	0	0.0	2006997.0	401	0.01	0.02	39.41	791005.0	3799.0	694185	0.23
5317STDY7838872	37.18	140729.0	630.0	1.22	1.54	11.46	146.04	0.01	0.44	150.0	73.0	140109.0	138545.0	599582.0	5108.0	0	0.0	1612539.0	161	0.01	0.01	51.03	822880.0	1481.0	184808	0.32
5317STDY7838873	36.84	79108.0	586.0	1.2	1.34	12.34	145.51	0.01	0.43	150.0	2.0	78693.0	77469.0	515415.0	3610.0	0	0.0	1399204.0	280	0.01	0.02	50.55	707325.0	1051.0	172574	0.26
5317STDY7838874	30.5	56184.0	154.0	1.4	1.38	23.47	144.31	0.01	0.4	150.0	1.0	55986.0	54552.0	332579.0	4387.0	0	0.0	1090557.0	545	0.01	0.05	45.58	497047.0	1477.0	255999	0.4
5317STDY7838875	7.52	24809.0	853.0	1.15	1.3	88.82	146.49	0.01	0.42	150.0	0.0	24719.0	23880.0	99495.0	2439.0	0	0.0	1323010.0	0	0.01	0.0	3.47	45916.0	76.0	1175160	0.18
5317STDY7838876	63.05	225990.0	1235.0	1.21	1.51	8.09	147.06	0.01	0.44	150.0	99.0	225532.0	223769.0	726661.0	1833.0	0	0.0	1152550.0	115	0.01	0.01	28.7	330756.0	887.0	93185	0.16
5317STDY7838877	12.39	9405.0	15.0	1.24	1.32	38.92	144.37	0.01	0.51	150.0	28.0	9292.0	8888.0	99659.0	4001.0	0	0.0	804032.0	0	0.02	0.0	48.18	387403.0	474.0	312969	0.5
5317STDY7838878	7.05	7139.0	73.0	1.26	1.7	66.08	143.99	0.01	0.45	150.0	0.0	7025.0	6955.0	92191.0	1955.0	0	0.0	1307564.0	0	0.02	0.0	26.72	349339.0	111.0	864079	0.15
5317STDY7838879	1.99	2971.0	105.0	1.92	1.12	91.79	144.1	0.0	0.76	150.0	0.0	2847.0	2828.0	36604.0	3180.0	0	0.0	1836856.0	551	0.03	0.03	6.01	110461.0	38.0	1686060	0.17
5317STDY7838880	22.33	348.0	3.0	1.47	1.27	51.31	145.44	0.01	0.68	150.0	0.0	344.0	343.0	1326.0	31.0	0	0.0	5938.0	0	0.01	0.0	25.83	1534.0	2.0	3047	0.52
5317STDY7838881	23.2	195.0	1.0	1.0	1.22	53.57	145.75	0.01	0.69	150.0	0.0	193.0	192.0	912.0	18.0	0	0.0	3931.0	1	0.01	0.03	22.74	894.0	2.0	2106	0.46
5317STDY7838882	23.01	220.0	2.0	1.25	1.33	49.84	146.12	0.01	0.58	150.0	1.0	214.0	215.0	806.0	9.0	0	0.0	3503.0	0	0.0	0.0	26.89	942.0	2.0	1746	0.26
5317STDY7838883	45.08	77265.0	323.0	1.19	1.44	19.18	146.4	0.01	0.42	150.0	22.0	76992.0	76298.0	323335.0	1577.0	0	0.0	717245.0	72	0.01	0.01	35.5	254635.0	622.0	137626	0.22
5317STDY7838884	35.45	148913.0	1369.0	1.26	1.36	10.7	146.31	0.01	0.41	150.0	3.0	148284.0	146480.0	640502.0	6209.0	0	0.0	1807011.0	181	0.01	0.01	53.5	966701.0	1061.0	193418	0.34
5317STDY7838885	35.21	168455.0	642.0	1.28	1.45	10.02	146.71	0.01	0.41	150.0	101.0	167734.0	166405.0	677364.0	6963.0	0	0.0	1923865.0	385	0.01	0.02	54.39	1046412.0	1307.0	192741	0.36
5317STDY7838886	30.88	745.0	11.0	1.39	2.06	60.74	143.61	0.02	0.56	150.0	1.0	604.0	441.0	40218.0	415.0	0	0.0	130238.0	182	0.02	0.14	7.92	10313.0	292.0	79110	0.32
5317STDY7838887	2.77	859.0	22.0	1.19	1.62	81.83	143.91	0.01	0.5	150.0	2.0	821.0	686.0	29668.0	1616.0	0	0.0	1069779.0	0	0.01	0.0	15.24	163033.0	149.0	875462	0.15
5317STDY7838888	27.02	27308.0	265.0	1.53	1.21	51.14	143.84	0.01	0.65	150.0	3.0	26575.0	21186.0	228708.0	6002.0	0	0.0	846412.0	169	0.02	0.02	21.11	178656.0	5854.0	432877	0.71
5317STDY7838889	32.64	45150.0	608.0	1.26	1.27	14.3	145.35	0.01	0.42	150.0	1.0	44963.0	44045.0	313655.0	6380.0	0	0.0	961100.0	192	0.01	0.02	52.38	503400.0	496.0	137473	0.66
5317STDY7838890	51.59	198040.0	867.0	1.32	1.47	14.47	146.08	0.01	0.41	150.0	19.0	197399.0	195957.0	658405.0	4248.0	0	0.0	1276196.0	128	0.01	0.01	33.6	428798.0	1197.0	184617	0.33
5317STDY7838891	15.38	47.0	0.0	1.5	1.67	61.91	145.65	0.01	0.68	150.0	0.0	45.0	46.0	397.0	11.0	0	0.0	2581.0	0	0.02	0.0	22.28	575.0	1.0	1598	0.43
5317STDY7838892	29.57	85001.0	367.0	1.16	1.41	24.09	146.13	0.01	0.43	150.0	10.0	84495.0	83380.0	479173.0	3312.0	0	0.0	1620489.0	162	0.01	0.01	46.12	747385.0	1244.0	390457	0.2
5317STDY7838893	25.08	170.0	0.0	1.27	1.0	49.58	145.51	0.0	0.69	150.0	0.0	170.0	170.0	694.0	4.0	0	0.0	2767.0	0	0.01	0.0	25.19	697.0	0.0	1372	0.14
5317STDY7838894	26.19	158.0	0.0	1.27	1.2	41.27	146.34	0.01	0.59	150.0	0.0	157.0	157.0	573.0	8.0	0	0.0	2188.0	1	0.02	0.05	32.13	703.0	1.0	903	0.37
5317STDY7838895	6.11	10967.0	74.0	1.32	1.99	66.49	144.41	0.03	0.51	150.0	0.0	10756.0	9910.0	134319.0	3586.0	0	0.0	2199112.0	0	0.01	0.0	27.24	598990.0	983.0	1462217	0.16
5317STDY7838896	34.5	131164.0	1434.0	1.33	1.51	9.17	145.88	0.01	0.44	150.0	87.0	130674.0	128249.0	623509.0	5434.0	0	0.0	1807520.0	361	0.01	0.02	56.02	1012612.0	1394.0	165604	0.3
5317STDY7838897	24.84	242.0	3.0	1.56	1.79	43.95	146.13	0.01	0.55	150.0	0.0	238.0	237.0	1215.0	9.0	0	0.0	4892.0	10	0.01	0.2	30.83	1508.0	2.0	2150	0.18
5317STDY7838898	22.06	83719.0	146.0	1.23	1.42	52.96	144.61	0.01	0.43	150.0	3.0	83419.0	82644.0	311736.0	2971.0	0	0.0	1413210.0	0	0.01	0.0	24.77	349993.0	926.0	748510	0.21
5317STDY7838899	22.03	180.0	0.0	1.0	1.33	56.9	146.05	0.01	0.85	150.0	1.0	177.0	178.0	956.0	12.0	0	0.0	4339.0	1	0.01	0.02	20.77	901.0	1.0	2469	0.28
5317STDY7838900	1.75	2808.0	1629.0	1.73	1.29	93.95	139.92	0.0	0.74	150.0	0.0	2753.0	1063.0	15958.0	4066.0	0	0.0	912900.0	0	0.01	0.0	3.85	35158.0	116.0	857718	0.45
5317STDY7838901	45.57	196871.0	853.0	1.19	1.57	16.8	146.42	0.01	0.4	150.0	3.0	196404.0	194795.0	779043.0	2933.0	0	0.0	1709690.0	855	0.01	0.05	37.41	639582.0	1220.0	287277	0.17
5317STDY7838902	20.24	74.0	0.0	1.2	1.4	52.66	145.29	0.01	0.52	150.0	0.0	74.0	74.0	499.0	9.0	0	0.0	2465.0	5	0.01	0.2	26.53	654.0	0.0	1298	0.37
5317STDY7838903	13.41	44.0	0.0	2.33	1.0	77.0	144.99	0.01	0.68	150.0	0.0	43.0	44.0	277.0	13.0	0	0.0	2065.0	3	0.02	0.15	8.81	182.0	0.0	1590	0.63
5317STDY7838904	2.85	4423.0	795.0	1.22	2.3	90.21	142.7	0.03	0.87	150.0	3.0	4205.0	3181.0	33376.0	5293.0	0	0.0	1169300.0	1286	0.03	0.11	6.37	74478.0	444.0	1054867	0.45
5317STDY7838905	28.29	224.0	1.0	1.23	1.33	48.21	145.92	0.01	0.55	150.0	0.0	223.0	223.0	1180.0	15.0	0	0.0	4171.0	3	0.01	0.07	23.06	962.0	0.0	2011	0.36
5317STDY7838906	31.08	289.0	1.0	1.09	1.64	39.24	146.02	0.01	0.52	150.0	1.0	288.0	287.0	1188.0	11.0	0	0.0	3823.0	0	0.01	0.0	29.4	1124.0	0.0	1500	0.29
5317STDY7838907	22.29	191.0	0.0	1.64	1.4	64.82	145.86	0.01	0.74	150.0	0.0	186.0	187.0	692.0	9.0	0	0.0	3104.0	1	0.02	0.03	12.56	390.0	4.0	2012	0.29
5317STDY7838908	18.61	186.0	1.0	1.25	1.1	67.05	145.17	0.01	0.91	150.0	0.0	183.0	183.0	865.0	14.0	0	0.0	4647.0	6	0.0	0.13	13.9	646.0	2.0	3116	0.3
5317STDY7838909	55.97	291023.0	1196.0	1.31	1.59	15.63	146.1	0.01	0.38	150.0	226.0	290168.0	286230.0	791678.0	2461.0	0	0.0	1414396.0	141	0.01	0.01	28.22	399094.0	3371.0	221022	0.17
5317STDY7838910	2.09	3138.0	1568.0	1.34	1.26	88.21	142.9	0.0	0.65	150.0	0.0	3051.0	1331.0	31340.0	5990.0	0	0.0	1501721.0	150	0.01	0.01	9.3	139603.0	239.0	1324638	0.4
5317STDY7838911	50.63	169258.0	462.0	1.65	1.56	36.72	145.53	0.02	0.43	150.0	1227.0	168406.0	164560.0	803266.0	3389.0	0	0.0	1586504.0	159	0.02	0.01	12.43	197173.0	3009.0	582517	0.21
5317STDY7838912	9.55	1553.0	5.0	1.05	2.07	86.78	143.78	0.01	0.54	150.0	0.0	1395.0	1276.0	39715.0	4410.0	0	0.0	415761.0	4573	0.02	1.1	1.51	6276.0	272.0	360787	1.06
5317STDY7838913	74.46	89057.0	130.0	1.16	1.34	19.77	146.3	0.01	0.46	150.0	0.0	88941.0	88779.0	261651.0	440.0	0	0.0	351412.0	176	0.01	0.05	5.59	19660.0	148.0	69485	0.13
5317STDY7838914	2.97	2586.0	1299.0	1.2	1.19	95.69	142.38	0.0	0.63	150.0	0.0	2508.0	1262.0	33490.0	5733.0	0	0.0	1126700.0	113	0.0	0.01	0.83	9304.0	25.0	1078060	0.51
5317STDY7838915	1.55	6224.0	2101.0	1.12	1.0	96.39	141.56	0.06	1.06	150.0	1.0	6085.0	3267.0	17303.0	10214.0	0	0.0	1115725.0	335	0.0	0.03	1.12	12507.0	855.0	1075366	0.92
5317STDY7838916	51.68	388114.0	2024.0	1.22	1.49	19.87	146.38	0.01	0.41	150.0	321.0	386832.0	382682.0	974832.0	5639.0	0	0.0	1886187.0	377	0.01	0.02	28.12	530474.0	3087.0	374865	0.3
5317STDY7838917	40.1	36717.0	215.0	1.38	1.41	11.07	146.3	0.01	0.41	150.0	14.0	36575.0	36138.0	200938.0	1502.0	0	0.0	501072.0	100	0.01	0.02	48.51	243048.0	350.0	55484	0.3
5317STDY7838918	40.17	47442.0	259.0	1.36	1.44	10.95	146.29	0.01	0.39	150.0	18.0	47248.0	46782.0	258706.0	1884.0	0	0.0	644070.0	129	0.01	0.02	48.57	312811.0	383.0	70540	0.29
5317STDY7838919	46.45	241507.0	860.0	1.28	1.49	18.52	147.02	0.01	0.42	150.0	283.0	240928.0	238251.0	689227.0	3342.0	0	0.0	1483666.0	594	0.01	0.04	34.76	515654.0	2113.0	274849	0.23
5317STDY7838920	19.67	246.0	3.0	1.24	2.31	56.6	145.94	0.02	0.71	150.0	1.0	243.0	242.0	882.0	21.0	0	0.0	4484.0	0	0.02	0.0	23.26	1043.0	0.0	2538	0.47
5317STDY7838921	37.63	148188.0	479.0	1.17	1.37	32.78	145.73	0.01	0.41	150.0	10.0	147806.0	145889.0	551884.0	3626.0	0	0.0	1466449.0	440	0.01	0.03	29.31	429869.0	1810.0	480630	0.25
5317STDY7838922	4.95	6953.0	702.0	1.85	3.16	66.03	143.09	0.06	0.66	150.0	0.0	6796.0	5939.0	61618.0	4893.0	0	0.0	1245712.0	125	0.01	0.01	28.62	356518.0	312.0	822558	0.39
