Data Source,femur full RNA plate 3_001
,,,,,FSC,SSC,*530/30 (488),*585/29 (561),*750LP (561),*720/40 (640),*425/26 (405),*780/60 (640)
Well,Population,Events,% Total,% Parent,Median,Median,Median,Median,Median,Median,Median,Median
A1,All Events,1,100.00%,NaN,34280,14436,232,246,115,1,56,1743
A1,Cells,1,100.00%,100.00%,34280,14436,232,246,115,1,56,1743
A1,Singles,1,100.00%,100.00%,34280,14436,232,246,115,1,56,1743
A1,lineage neg,1,100.00%,100.00%,34280,14436,232,246,115,1,56,1743
A1,CD34+CD38-,1,100.00%,100.00%,34280,14436,232,246,115,1,56,1743
A1,CD52+CD62L+,1,100.00%,100.00%,34280,14436,232,246,115,1,56,1743
A1,CD133+,1,100.00%,100.00%,34280,14436,232,246,115,1,56,1743
A2,All Events,1,100.00%,NaN,38399,13895,147,44,108,8,209,713
A2,Cells,1,100.00%,100.00%,38399,13895,147,44,108,8,209,713
A2,Singles,1,100.00%,100.00%,38399,13895,147,44,108,8,209,713
A2,lineage neg,1,100.00%,100.00%,38399,13895,147,44,108,8,209,713
A2,CD34+CD38-,1,100.00%,100.00%,38399,13895,147,44,108,8,209,713
A2,CD52+CD62L+,1,100.00%,100.00%,38399,13895,147,44,108,8,209,713
A2,CD133+,1,100.00%,100.00%,38399,13895,147,44,108,8,209,713
A3,All Events,1,100.00%,NaN,36906,14171,439,466,75,1,150,2353
A3,Cells,1,100.00%,100.00%,36906,14171,439,466,75,1,150,2353
A3,Singles,1,100.00%,100.00%,36906,14171,439,466,75,1,150,2353
A3,lineage neg,1,100.00%,100.00%,36906,14171,439,466,75,1,150,2353
A3,CD34+CD38-,1,100.00%,100.00%,36906,14171,439,466,75,1,150,2353
A3,CD52+CD62L+,1,100.00%,100.00%,36906,14171,439,466,75,1,150,2353
A3,CD133+,1,100.00%,100.00%,36906,14171,439,466,75,1,150,2353
A4,All Events,1,100.00%,NaN,38164,12637,142,59,105,1,267,630
A4,Cells,1,100.00%,100.00%,38164,12637,142,59,105,1,267,630
A4,Singles,1,100.00%,100.00%,38164,12637,142,59,105,1,267,630
A4,lineage neg,1,100.00%,100.00%,38164,12637,142,59,105,1,267,630
A4,CD34+CD38-,1,100.00%,100.00%,38164,12637,142,59,105,1,267,630
A4,CD52+CD62L+,1,100.00%,100.00%,38164,12637,142,59,105,1,267,630
A4,CD133+,1,100.00%,100.00%,38164,12637,142,59,105,1,267,630
A5,All Events,1,100.00%,NaN,40456,15891,193,110,117,1,730,1201
A5,Cells,1,100.00%,100.00%,40456,15891,193,110,117,1,730,1201
A5,Singles,1,100.00%,100.00%,40456,15891,193,110,117,1,730,1201
A5,lineage neg,1,100.00%,100.00%,40456,15891,193,110,117,1,730,1201
A5,CD34+CD38-,1,100.00%,100.00%,40456,15891,193,110,117,1,730,1201
A5,CD52+CD62L+,1,100.00%,100.00%,40456,15891,193,110,117,1,730,1201
A5,CD133+,1,100.00%,100.00%,40456,15891,193,110,117,1,730,1201
A6,All Events,1,100.00%,NaN,41295,23954,609,749,112,2,190,3271
A6,Cells,1,100.00%,100.00%,41295,23954,609,749,112,2,190,3271
A6,Singles,1,100.00%,100.00%,41295,23954,609,749,112,2,190,3271
A6,lineage neg,1,100.00%,100.00%,41295,23954,609,749,112,2,190,3271
A6,CD34+CD38-,1,100.00%,100.00%,41295,23954,609,749,112,2,190,3271
A6,CD52+CD62L+,1,100.00%,100.00%,41295,23954,609,749,112,2,190,3271
A6,CD133+,1,100.00%,100.00%,41295,23954,609,749,112,2,190,3271
A7,All Events,1,100.00%,NaN,36950,13632,203,286,92,12,520,1057
A7,Cells,1,100.00%,100.00%,36950,13632,203,286,92,12,520,1057
A7,Singles,1,100.00%,100.00%,36950,13632,203,286,92,12,520,1057
A7,lineage neg,1,100.00%,100.00%,36950,13632,203,286,92,12,520,1057
A7,CD34+CD38-,1,100.00%,100.00%,36950,13632,203,286,92,12,520,1057
A7,CD52+CD62L+,1,100.00%,100.00%,36950,13632,203,286,92,12,520,1057
A7,CD133+,1,100.00%,100.00%,36950,13632,203,286,92,12,520,1057
A8,All Events,1,100.00%,NaN,35327,15844,244,436,91,9,130,2851
A8,Cells,1,100.00%,100.00%,35327,15844,244,436,91,9,130,2851
A8,Singles,1,100.00%,100.00%,35327,15844,244,436,91,9,130,2851
A8,lineage neg,1,100.00%,100.00%,35327,15844,244,436,91,9,130,2851
A8,CD34+CD38-,1,100.00%,100.00%,35327,15844,244,436,91,9,130,2851
A8,CD52+CD62L+,1,100.00%,100.00%,35327,15844,244,436,91,9,130,2851
A8,CD133+,1,100.00%,100.00%,35327,15844,244,436,91,9,130,2851
A9,All Events,10,100.00%,NaN,38724,16060,283,218,73,3,176,2137
A9,Cells,10,100.00%,100.00%,38724,16060,283,218,73,3,176,2137
A9,Singles,10,100.00%,100.00%,38724,16060,283,218,73,3,176,2137
A9,lineage neg,10,100.00%,100.00%,38724,16060,283,218,73,3,176,2137
A9,CD34+CD38-,10,100.00%,100.00%,38724,16060,283,218,73,3,176,2137
A9,CD52+CD62L+,10,100.00%,100.00%,38724,16060,283,218,73,3,176,2137
A9,CD133+,10,100.00%,100.00%,38724,16060,283,218,73,3,176,2137
A10,All Events,10,100.00%,NaN,37908,14336,226,293,74,8,355,1620
A10,Cells,10,100.00%,100.00%,37908,14336,226,293,74,8,355,1620
A10,Singles,10,100.00%,100.00%,37908,14336,226,293,74,8,355,1620
A10,lineage neg,10,100.00%,100.00%,37908,14336,226,293,74,8,355,1620
A10,CD34+CD38-,10,100.00%,100.00%,37908,14336,226,293,74,8,355,1620
A10,CD52+CD62L+,10,100.00%,100.00%,37908,14336,226,293,74,8,355,1620
A10,CD133+,10,100.00%,100.00%,37908,14336,226,293,74,8,355,1620
A11,All Events,1,100.00%,NaN,37461,15862,145,142,85,11,74,1572
A11,Cells,1,100.00%,100.00%,37461,15862,145,142,85,11,74,1572
A11,Singles,1,100.00%,100.00%,37461,15862,145,142,85,11,74,1572
A11,lineage neg,1,100.00%,100.00%,37461,15862,145,142,85,11,74,1572
A11,CD34+CD38-,1,100.00%,100.00%,37461,15862,145,142,85,11,74,1572
A11,CD52+CD62L+,1,100.00%,100.00%,37461,15862,145,142,85,11,74,1572
A11,CD133+,1,100.00%,100.00%,37461,15862,145,142,85,11,74,1572
A12,All Events,1,100.00%,NaN,37773,14772,439,526,6,1,345,3095
A12,Cells,1,100.00%,100.00%,37773,14772,439,526,6,1,345,3095
A12,Singles,1,100.00%,100.00%,37773,14772,439,526,6,1,345,3095
A12,lineage neg,1,100.00%,100.00%,37773,14772,439,526,6,1,345,3095
A12,CD34+CD38-,1,100.00%,100.00%,37773,14772,439,526,6,1,345,3095
A12,CD52+CD62L+,1,100.00%,100.00%,37773,14772,439,526,6,1,345,3095
A12,CD133+,1,100.00%,100.00%,37773,14772,439,526,6,1,345,3095
B1,All Events,1,100.00%,NaN,31404,12277,455,264,103,5,245,2519
B1,Cells,1,100.00%,100.00%,31404,12277,455,264,103,5,245,2519
B1,Singles,1,100.00%,100.00%,31404,12277,455,264,103,5,245,2519
B1,lineage neg,1,100.00%,100.00%,31404,12277,455,264,103,5,245,2519
B1,CD34+CD38-,1,100.00%,100.00%,31404,12277,455,264,103,5,245,2519
B1,CD52+CD62L+,1,100.00%,100.00%,31404,12277,455,264,103,5,245,2519
B1,CD133+,1,100.00%,100.00%,31404,12277,455,264,103,5,245,2519
B2,All Events,1,100.00%,NaN,35543,13180,199,125,86,12,492,1174
B2,Cells,1,100.00%,100.00%,35543,13180,199,125,86,12,492,1174
B2,Singles,1,100.00%,100.00%,35543,13180,199,125,86,12,492,1174
B2,lineage neg,1,100.00%,100.00%,35543,13180,199,125,86,12,492,1174
B2,CD34+CD38-,1,100.00%,100.00%,35543,13180,199,125,86,12,492,1174
B2,CD52+CD62L+,1,100.00%,100.00%,35543,13180,199,125,86,12,492,1174
B2,CD133+,1,100.00%,100.00%,35543,13180,199,125,86,12,492,1174
B3,All Events,1,100.00%,NaN,33642,13030,421,167,6,3,184,1567
B3,Cells,1,100.00%,100.00%,33642,13030,421,167,6,3,184,1567
B3,Singles,1,100.00%,100.00%,33642,13030,421,167,6,3,184,1567
B3,lineage neg,1,100.00%,100.00%,33642,13030,421,167,6,3,184,1567
B3,CD34+CD38-,1,100.00%,100.00%,33642,13030,421,167,6,3,184,1567
B3,CD52+CD62L+,1,100.00%,100.00%,33642,13030,421,167,6,3,184,1567
B3,CD133+,1,100.00%,100.00%,33642,13030,421,167,6,3,184,1567
B4,All Events,1,100.00%,NaN,37416,18062,635,557,110,1,58,4833
B4,Cells,1,100.00%,100.00%,37416,18062,635,557,110,1,58,4833
B4,Singles,1,100.00%,100.00%,37416,18062,635,557,110,1,58,4833
B4,lineage neg,1,100.00%,100.00%,37416,18062,635,557,110,1,58,4833
B4,CD34+CD38-,1,100.00%,100.00%,37416,18062,635,557,110,1,58,4833
B4,CD52+CD62L+,1,100.00%,100.00%,37416,18062,635,557,110,1,58,4833
B4,CD133+,1,100.00%,100.00%,37416,18062,635,557,110,1,58,4833
B5,All Events,1,100.00%,NaN,47033,20930,406,550,51,1,830,3232
B5,Cells,1,100.00%,100.00%,47033,20930,406,550,51,1,830,3232
B5,Singles,1,100.00%,100.00%,47033,20930,406,550,51,1,830,3232
B5,lineage neg,1,100.00%,100.00%,47033,20930,406,550,51,1,830,3232
B5,CD34+CD38-,1,100.00%,100.00%,47033,20930,406,550,51,1,830,3232
B5,CD52+CD62L+,1,100.00%,100.00%,47033,20930,406,550,51,1,830,3232
B5,CD133+,1,100.00%,100.00%,47033,20930,406,550,51,1,830,3232
B6,All Events,1,100.00%,NaN,37722,14149,425,310,74,12,85,3115
B6,Cells,1,100.00%,100.00%,37722,14149,425,310,74,12,85,3115
B6,Singles,1,100.00%,100.00%,37722,14149,425,310,74,12,85,3115
B6,lineage neg,1,100.00%,100.00%,37722,14149,425,310,74,12,85,3115
B6,CD34+CD38-,1,100.00%,100.00%,37722,14149,425,310,74,12,85,3115
B6,CD52+CD62L+,1,100.00%,100.00%,37722,14149,425,310,74,12,85,3115
B6,CD133+,1,100.00%,100.00%,37722,14149,425,310,74,12,85,3115
B7,All Events,1,100.00%,NaN,38256,18174,344,157,85,15,59,2519
B7,Cells,1,100.00%,100.00%,38256,18174,344,157,85,15,59,2519
B7,Singles,1,100.00%,100.00%,38256,18174,344,157,85,15,59,2519
B7,lineage neg,1,100.00%,100.00%,38256,18174,344,157,85,15,59,2519
B7,CD34+CD38-,1,100.00%,100.00%,38256,18174,344,157,85,15,59,2519
B7,CD52+CD62L+,1,100.00%,100.00%,38256,18174,344,157,85,15,59,2519
B7,CD133+,1,100.00%,100.00%,38256,18174,344,157,85,15,59,2519
B8,All Events,1,100.00%,NaN,38561,15150,173,519,15,1,56,2197
B8,Cells,1,100.00%,100.00%,38561,15150,173,519,15,1,56,2197
B8,Singles,1,100.00%,100.00%,38561,15150,173,519,15,1,56,2197
B8,lineage neg,1,100.00%,100.00%,38561,15150,173,519,15,1,56,2197
B8,CD34+CD38-,1,100.00%,100.00%,38561,15150,173,519,15,1,56,2197
B8,CD52+CD62L+,1,100.00%,100.00%,38561,15150,173,519,15,1,56,2197
B8,CD133+,1,100.00%,100.00%,38561,15150,173,519,15,1,56,2197
B9,All Events,1,100.00%,NaN,35111,13316,146,225,88,5,587,1308
B9,Cells,1,100.00%,100.00%,35111,13316,146,225,88,5,587,1308
B9,Singles,1,100.00%,100.00%,35111,13316,146,225,88,5,587,1308
B9,lineage neg,1,100.00%,100.00%,35111,13316,146,225,88,5,587,1308
B9,CD34+CD38-,1,100.00%,100.00%,35111,13316,146,225,88,5,587,1308
B9,CD52+CD62L+,1,100.00%,100.00%,35111,13316,146,225,88,5,587,1308
B9,CD133+,1,100.00%,100.00%,35111,13316,146,225,88,5,587,1308
B10,All Events,1,100.00%,NaN,43215,19652,165,576,58,2,371,2548
B10,Cells,1,100.00%,100.00%,43215,19652,165,576,58,2,371,2548
B10,Singles,1,100.00%,100.00%,43215,19652,165,576,58,2,371,2548
B10,lineage neg,1,100.00%,100.00%,43215,19652,165,576,58,2,371,2548
B10,CD34+CD38-,1,100.00%,100.00%,43215,19652,165,576,58,2,371,2548
B10,CD52+CD62L+,1,100.00%,100.00%,43215,19652,165,576,58,2,371,2548
B10,CD133+,1,100.00%,100.00%,43215,19652,165,576,58,2,371,2548
B11,All Events,1,100.00%,NaN,32234,14150,400,444,69,7,476,2260
B11,Cells,1,100.00%,100.00%,32234,14150,400,444,69,7,476,2260
B11,Singles,1,100.00%,100.00%,32234,14150,400,444,69,7,476,2260
B11,lineage neg,1,100.00%,100.00%,32234,14150,400,444,69,7,476,2260
B11,CD34+CD38-,1,100.00%,100.00%,32234,14150,400,444,69,7,476,2260
B11,CD52+CD62L+,1,100.00%,100.00%,32234,14150,400,444,69,7,476,2260
B11,CD133+,1,100.00%,100.00%,32234,14150,400,444,69,7,476,2260
B12,All Events,1,100.00%,NaN,43101,21723,424,580,82,5,99,4022
B12,Cells,1,100.00%,100.00%,43101,21723,424,580,82,5,99,4022
B12,Singles,1,100.00%,100.00%,43101,21723,424,580,82,5,99,4022
B12,lineage neg,1,100.00%,100.00%,43101,21723,424,580,82,5,99,4022
B12,CD34+CD38-,1,100.00%,100.00%,43101,21723,424,580,82,5,99,4022
B12,CD52+CD62L+,1,100.00%,100.00%,43101,21723,424,580,82,5,99,4022
B12,CD133+,1,100.00%,100.00%,43101,21723,424,580,82,5,99,4022
C1,All Events,1,100.00%,NaN,37839,13836,246,192,114,1,96,1596
C1,Cells,1,100.00%,100.00%,37839,13836,246,192,114,1,96,1596
C1,Singles,1,100.00%,100.00%,37839,13836,246,192,114,1,96,1596
C1,lineage neg,1,100.00%,100.00%,37839,13836,246,192,114,1,96,1596
C1,CD34+CD38-,1,100.00%,100.00%,37839,13836,246,192,114,1,96,1596
C1,CD52+CD62L+,1,100.00%,100.00%,37839,13836,246,192,114,1,96,1596
C1,CD133+,1,100.00%,100.00%,37839,13836,246,192,114,1,96,1596
C2,All Events,1,100.00%,NaN,38293,14964,260,312,33,1,135,1538
C2,Cells,1,100.00%,100.00%,38293,14964,260,312,33,1,135,1538
C2,Singles,1,100.00%,100.00%,38293,14964,260,312,33,1,135,1538
C2,lineage neg,1,100.00%,100.00%,38293,14964,260,312,33,1,135,1538
C2,CD34+CD38-,1,100.00%,100.00%,38293,14964,260,312,33,1,135,1538
C2,CD52+CD62L+,1,100.00%,100.00%,38293,14964,260,312,33,1,135,1538
C2,CD133+,1,100.00%,100.00%,38293,14964,260,312,33,1,135,1538
C3,All Events,1,100.00%,NaN,41189,16373,275,280,116,8,187,1411
C3,Cells,1,100.00%,100.00%,41189,16373,275,280,116,8,187,1411
C3,Singles,1,100.00%,100.00%,41189,16373,275,280,116,8,187,1411
C3,lineage neg,1,100.00%,100.00%,41189,16373,275,280,116,8,187,1411
C3,CD34+CD38-,1,100.00%,100.00%,41189,16373,275,280,116,8,187,1411
C3,CD52+CD62L+,1,100.00%,100.00%,41189,16373,275,280,116,8,187,1411
C3,CD133+,1,100.00%,100.00%,41189,16373,275,280,116,8,187,1411
C4,All Events,1,100.00%,NaN,35456,13771,114,79,117,1,327,367
C4,Cells,1,100.00%,100.00%,35456,13771,114,79,117,1,327,367
C4,Singles,1,100.00%,100.00%,35456,13771,114,79,117,1,327,367
C4,lineage neg,1,100.00%,100.00%,35456,13771,114,79,117,1,327,367
C4,CD34+CD38-,1,100.00%,100.00%,35456,13771,114,79,117,1,327,367
C4,CD52+CD62L+,1,100.00%,100.00%,35456,13771,114,79,117,1,327,367
C4,CD133+,1,100.00%,100.00%,35456,13771,114,79,117,1,327,367
C5,All Events,1,100.00%,NaN,31942,14477,179,142,73,1,557,1465
C5,Cells,1,100.00%,100.00%,31942,14477,179,142,73,1,557,1465
C5,Singles,1,100.00%,100.00%,31942,14477,179,142,73,1,557,1465
C5,lineage neg,1,100.00%,100.00%,31942,14477,179,142,73,1,557,1465
C5,CD34+CD38-,1,100.00%,100.00%,31942,14477,179,142,73,1,557,1465
C5,CD52+CD62L+,1,100.00%,100.00%,31942,14477,179,142,73,1,557,1465
C5,CD133+,1,100.00%,100.00%,31942,14477,179,142,73,1,557,1465
C6,All Events,1,100.00%,NaN,34125,12770,574,431,110,1,250,3652
C6,Cells,1,100.00%,100.00%,34125,12770,574,431,110,1,250,3652
C6,Singles,1,100.00%,100.00%,34125,12770,574,431,110,1,250,3652
C6,lineage neg,1,100.00%,100.00%,34125,12770,574,431,110,1,250,3652
C6,CD34+CD38-,1,100.00%,100.00%,34125,12770,574,431,110,1,250,3652
C6,CD52+CD62L+,1,100.00%,100.00%,34125,12770,574,431,110,1,250,3652
C6,CD133+,1,100.00%,100.00%,34125,12770,574,431,110,1,250,3652
C7,All Events,1,100.00%,NaN,32217,14682,386,306,89,1,397,2475
C7,Cells,1,100.00%,100.00%,32217,14682,386,306,89,1,397,2475
C7,Singles,1,100.00%,100.00%,32217,14682,386,306,89,1,397,2475
C7,lineage neg,1,100.00%,100.00%,32217,14682,386,306,89,1,397,2475
C7,CD34+CD38-,1,100.00%,100.00%,32217,14682,386,306,89,1,397,2475
C7,CD52+CD62L+,1,100.00%,100.00%,32217,14682,386,306,89,1,397,2475
C7,CD133+,1,100.00%,100.00%,32217,14682,386,306,89,1,397,2475
C8,All Events,1,100.00%,NaN,42190,22852,126,58,16,10,248,1177
C8,Cells,1,100.00%,100.00%,42190,22852,126,58,16,10,248,1177
C8,Singles,1,100.00%,100.00%,42190,22852,126,58,16,10,248,1177
C8,lineage neg,1,100.00%,100.00%,42190,22852,126,58,16,10,248,1177
C8,CD34+CD38-,1,100.00%,100.00%,42190,22852,126,58,16,10,248,1177
C8,CD52+CD62L+,1,100.00%,100.00%,42190,22852,126,58,16,10,248,1177
C8,CD133+,1,100.00%,100.00%,42190,22852,126,58,16,10,248,1177
C9,All Events,1,100.00%,NaN,38571,14473,224,181,74,8,159,1357
C9,Cells,1,100.00%,100.00%,38571,14473,224,181,74,8,159,1357
C9,Singles,1,100.00%,100.00%,38571,14473,224,181,74,8,159,1357
C9,lineage neg,1,100.00%,100.00%,38571,14473,224,181,74,8,159,1357
C9,CD34+CD38-,1,100.00%,100.00%,38571,14473,224,181,74,8,159,1357
C9,CD52+CD62L+,1,100.00%,100.00%,38571,14473,224,181,74,8,159,1357
C9,CD133+,1,100.00%,100.00%,38571,14473,224,181,74,8,159,1357
C10,All Events,1,100.00%,NaN,38981,14869,264,242,55,16,167,1797
C10,Cells,1,100.00%,100.00%,38981,14869,264,242,55,16,167,1797
C10,Singles,1,100.00%,100.00%,38981,14869,264,242,55,16,167,1797
C10,lineage neg,1,100.00%,100.00%,38981,14869,264,242,55,16,167,1797
C10,CD34+CD38-,1,100.00%,100.00%,38981,14869,264,242,55,16,167,1797
C10,CD52+CD62L+,1,100.00%,100.00%,38981,14869,264,242,55,16,167,1797
C10,CD133+,1,100.00%,100.00%,38981,14869,264,242,55,16,167,1797
C11,All Events,1,100.00%,NaN,32202,15115,284,426,36,1,61,2509
C11,Cells,1,100.00%,100.00%,32202,15115,284,426,36,1,61,2509
C11,Singles,1,100.00%,100.00%,32202,15115,284,426,36,1,61,2509
C11,lineage neg,1,100.00%,100.00%,32202,15115,284,426,36,1,61,2509
C11,CD34+CD38-,1,100.00%,100.00%,32202,15115,284,426,36,1,61,2509
C11,CD52+CD62L+,1,100.00%,100.00%,32202,15115,284,426,36,1,61,2509
C11,CD133+,1,100.00%,100.00%,32202,15115,284,426,36,1,61,2509
C12,All Events,1,100.00%,NaN,40817,12582,635,242,66,1,73,3222
C12,Cells,1,100.00%,100.00%,40817,12582,635,242,66,1,73,3222
C12,Singles,1,100.00%,100.00%,40817,12582,635,242,66,1,73,3222
C12,lineage neg,1,100.00%,100.00%,40817,12582,635,242,66,1,73,3222
C12,CD34+CD38-,1,100.00%,100.00%,40817,12582,635,242,66,1,73,3222
C12,CD52+CD62L+,1,100.00%,100.00%,40817,12582,635,242,66,1,73,3222
C12,CD133+,1,100.00%,100.00%,40817,12582,635,242,66,1,73,3222
D1,All Events,1,100.00%,NaN,35359,12798,132,87,72,1,192,752
D1,Cells,1,100.00%,100.00%,35359,12798,132,87,72,1,192,752
D1,Singles,1,100.00%,100.00%,35359,12798,132,87,72,1,192,752
D1,lineage neg,1,100.00%,100.00%,35359,12798,132,87,72,1,192,752
D1,CD34+CD38-,1,100.00%,100.00%,35359,12798,132,87,72,1,192,752
D1,CD52+CD62L+,1,100.00%,100.00%,35359,12798,132,87,72,1,192,752
D1,CD133+,1,100.00%,100.00%,35359,12798,132,87,72,1,192,752
D2,All Events,1,100.00%,NaN,44959,19263,344,315,92,10,373,2368
D2,Cells,1,100.00%,100.00%,44959,19263,344,315,92,10,373,2368
D2,Singles,1,100.00%,100.00%,44959,19263,344,315,92,10,373,2368
D2,lineage neg,1,100.00%,100.00%,44959,19263,344,315,92,10,373,2368
D2,CD34+CD38-,1,100.00%,100.00%,44959,19263,344,315,92,10,373,2368
D2,CD52+CD62L+,1,100.00%,100.00%,44959,19263,344,315,92,10,373,2368
D2,CD133+,1,100.00%,100.00%,44959,19263,344,315,92,10,373,2368
D3,All Events,1,100.00%,NaN,40901,14401,315,585,24,9,96,3144
D3,Cells,1,100.00%,100.00%,40901,14401,315,585,24,9,96,3144
D3,Singles,1,100.00%,100.00%,40901,14401,315,585,24,9,96,3144
D3,lineage neg,1,100.00%,100.00%,40901,14401,315,585,24,9,96,3144
D3,CD34+CD38-,1,100.00%,100.00%,40901,14401,315,585,24,9,96,3144
D3,CD52+CD62L+,1,100.00%,100.00%,40901,14401,315,585,24,9,96,3144
D3,CD133+,1,100.00%,100.00%,40901,14401,315,585,24,9,96,3144
D4,All Events,1,100.00%,NaN,35931,16210,186,75,107,1,503,1289
D4,Cells,1,100.00%,100.00%,35931,16210,186,75,107,1,503,1289
D4,Singles,1,100.00%,100.00%,35931,16210,186,75,107,1,503,1289
D4,lineage neg,1,100.00%,100.00%,35931,16210,186,75,107,1,503,1289
D4,CD34+CD38-,1,100.00%,100.00%,35931,16210,186,75,107,1,503,1289
D4,CD52+CD62L+,1,100.00%,100.00%,35931,16210,186,75,107,1,503,1289
D4,CD133+,1,100.00%,100.00%,35931,16210,186,75,107,1,503,1289
D5,All Events,1,100.00%,NaN,38264,13706,489,270,95,1,76,1801
D5,Cells,1,100.00%,100.00%,38264,13706,489,270,95,1,76,1801
D5,Singles,1,100.00%,100.00%,38264,13706,489,270,95,1,76,1801
D5,lineage neg,1,100.00%,100.00%,38264,13706,489,270,95,1,76,1801
D5,CD34+CD38-,1,100.00%,100.00%,38264,13706,489,270,95,1,76,1801
D5,CD52+CD62L+,1,100.00%,100.00%,38264,13706,489,270,95,1,76,1801
D5,CD133+,1,100.00%,100.00%,38264,13706,489,270,95,1,76,1801
D6,All Events,1,100.00%,NaN,33782,16083,206,290,80,1,161,2295
D6,Cells,1,100.00%,100.00%,33782,16083,206,290,80,1,161,2295
D6,Singles,1,100.00%,100.00%,33782,16083,206,290,80,1,161,2295
D6,lineage neg,1,100.00%,100.00%,33782,16083,206,290,80,1,161,2295
D6,CD34+CD38-,1,100.00%,100.00%,33782,16083,206,290,80,1,161,2295
D6,CD52+CD62L+,1,100.00%,100.00%,33782,16083,206,290,80,1,161,2295
D6,CD133+,1,100.00%,100.00%,33782,16083,206,290,80,1,161,2295
D7,All Events,1,100.00%,NaN,36536,14775,227,328,101,1,698,2548
D7,Cells,1,100.00%,100.00%,36536,14775,227,328,101,1,698,2548
D7,Singles,1,100.00%,100.00%,36536,14775,227,328,101,1,698,2548
D7,lineage neg,1,100.00%,100.00%,36536,14775,227,328,101,1,698,2548
D7,CD34+CD38-,1,100.00%,100.00%,36536,14775,227,328,101,1,698,2548
D7,CD52+CD62L+,1,100.00%,100.00%,36536,14775,227,328,101,1,698,2548
D7,CD133+,1,100.00%,100.00%,36536,14775,227,328,101,1,698,2548
D8,All Events,1,100.00%,NaN,30800,16073,344,422,89,4,124,2495
D8,Cells,1,100.00%,100.00%,30800,16073,344,422,89,4,124,2495
D8,Singles,1,100.00%,100.00%,30800,16073,344,422,89,4,124,2495
D8,lineage neg,1,100.00%,100.00%,30800,16073,344,422,89,4,124,2495
D8,CD34+CD38-,1,100.00%,100.00%,30800,16073,344,422,89,4,124,2495
D8,CD52+CD62L+,1,100.00%,100.00%,30800,16073,344,422,89,4,124,2495
D8,CD133+,1,100.00%,100.00%,30800,16073,344,422,89,4,124,2495
D9,All Events,1,100.00%,NaN,41761,16475,216,206,61,1,63,1596
D9,Cells,1,100.00%,100.00%,41761,16475,216,206,61,1,63,1596
D9,Singles,1,100.00%,100.00%,41761,16475,216,206,61,1,63,1596
D9,lineage neg,1,100.00%,100.00%,41761,16475,216,206,61,1,63,1596
D9,CD34+CD38-,1,100.00%,100.00%,41761,16475,216,206,61,1,63,1596
D9,CD52+CD62L+,1,100.00%,100.00%,41761,16475,216,206,61,1,63,1596
D9,CD133+,1,100.00%,100.00%,41761,16475,216,206,61,1,63,1596
D10,All Events,1,100.00%,NaN,38976,14848,331,503,76,12,167,2495
D10,Cells,1,100.00%,100.00%,38976,14848,331,503,76,12,167,2495
D10,Singles,1,100.00%,100.00%,38976,14848,331,503,76,12,167,2495
D10,lineage neg,1,100.00%,100.00%,38976,14848,331,503,76,12,167,2495
D10,CD34+CD38-,1,100.00%,100.00%,38976,14848,331,503,76,12,167,2495
D10,CD52+CD62L+,1,100.00%,100.00%,38976,14848,331,503,76,12,167,2495
D10,CD133+,1,100.00%,100.00%,38976,14848,331,503,76,12,167,2495
D11,All Events,1,100.00%,NaN,37096,13897,487,187,47,14,87,1284
D11,Cells,1,100.00%,100.00%,37096,13897,487,187,47,14,87,1284
D11,Singles,1,100.00%,100.00%,37096,13897,487,187,47,14,87,1284
D11,lineage neg,1,100.00%,100.00%,37096,13897,487,187,47,14,87,1284
D11,CD34+CD38-,1,100.00%,100.00%,37096,13897,487,187,47,14,87,1284
D11,CD52+CD62L+,1,100.00%,100.00%,37096,13897,487,187,47,14,87,1284
D11,CD133+,1,100.00%,100.00%,37096,13897,487,187,47,14,87,1284
D12,All Events,1,100.00%,NaN,34566,15264,188,176,99,1,136,1699
D12,Cells,1,100.00%,100.00%,34566,15264,188,176,99,1,136,1699
D12,Singles,1,100.00%,100.00%,34566,15264,188,176,99,1,136,1699
D12,lineage neg,1,100.00%,100.00%,34566,15264,188,176,99,1,136,1699
D12,CD34+CD38-,1,100.00%,100.00%,34566,15264,188,176,99,1,136,1699
D12,CD52+CD62L+,1,100.00%,100.00%,34566,15264,188,176,99,1,136,1699
D12,CD133+,1,100.00%,100.00%,34566,15264,188,176,99,1,136,1699
E1,All Events,1,100.00%,NaN,30704,14285,129,81,65,1,207,659
E1,Cells,1,100.00%,100.00%,30704,14285,129,81,65,1,207,659
E1,Singles,1,100.00%,100.00%,30704,14285,129,81,65,1,207,659
E1,lineage neg,1,100.00%,100.00%,30704,14285,129,81,65,1,207,659
E1,CD34+CD38-,1,100.00%,100.00%,30704,14285,129,81,65,1,207,659
E1,CD52+CD62L+,1,100.00%,100.00%,30704,14285,129,81,65,1,207,659
E1,CD133+,1,100.00%,100.00%,30704,14285,129,81,65,1,207,659
E2,All Events,1,100.00%,NaN,40734,18809,227,213,87,15,141,1357
E2,Cells,1,100.00%,100.00%,40734,18809,227,213,87,15,141,1357
E2,Singles,1,100.00%,100.00%,40734,18809,227,213,87,15,141,1357
E2,lineage neg,1,100.00%,100.00%,40734,18809,227,213,87,15,141,1357
E2,CD34+CD38-,1,100.00%,100.00%,40734,18809,227,213,87,15,141,1357
E2,CD52+CD62L+,1,100.00%,100.00%,40734,18809,227,213,87,15,141,1357
E2,CD133+,1,100.00%,100.00%,40734,18809,227,213,87,15,141,1357
E3,All Events,1,100.00%,NaN,39950,15908,339,402,36,3,261,1870
E3,Cells,1,100.00%,100.00%,39950,15908,339,402,36,3,261,1870
E3,Singles,1,100.00%,100.00%,39950,15908,339,402,36,3,261,1870
E3,lineage neg,1,100.00%,100.00%,39950,15908,339,402,36,3,261,1870
E3,CD34+CD38-,1,100.00%,100.00%,39950,15908,339,402,36,3,261,1870
E3,CD52+CD62L+,1,100.00%,100.00%,39950,15908,339,402,36,3,261,1870
E3,CD133+,1,100.00%,100.00%,39950,15908,339,402,36,3,261,1870
E4,All Events,1,100.00%,NaN,38275,14091,187,213,86,1,153,1723
E4,Cells,1,100.00%,100.00%,38275,14091,187,213,86,1,153,1723
E4,Singles,1,100.00%,100.00%,38275,14091,187,213,86,1,153,1723
E4,lineage neg,1,100.00%,100.00%,38275,14091,187,213,86,1,153,1723
E4,CD34+CD38-,1,100.00%,100.00%,38275,14091,187,213,86,1,153,1723
E4,CD52+CD62L+,1,100.00%,100.00%,38275,14091,187,213,86,1,153,1723
E4,CD133+,1,100.00%,100.00%,38275,14091,187,213,86,1,153,1723
E5,All Events,1,100.00%,NaN,41351,20322,115,124,37,8,964,1757
E5,Cells,1,100.00%,100.00%,41351,20322,115,124,37,8,964,1757
E5,Singles,1,100.00%,100.00%,41351,20322,115,124,37,8,964,1757
E5,lineage neg,1,100.00%,100.00%,41351,20322,115,124,37,8,964,1757
E5,CD34+CD38-,1,100.00%,100.00%,41351,20322,115,124,37,8,964,1757
E5,CD52+CD62L+,1,100.00%,100.00%,41351,20322,115,124,37,8,964,1757
E5,CD133+,1,100.00%,100.00%,41351,20322,115,124,37,8,964,1757
E6,All Events,1,100.00%,NaN,29956,9204,122,87,83,15,278,333
E6,Cells,1,100.00%,100.00%,29956,9204,122,87,83,15,278,333
E6,Singles,1,100.00%,100.00%,29956,9204,122,87,83,15,278,333
E6,lineage neg,1,100.00%,100.00%,29956,9204,122,87,83,15,278,333
E6,CD34+CD38-,1,100.00%,100.00%,29956,9204,122,87,83,15,278,333
E6,CD52+CD62L+,1,100.00%,100.00%,29956,9204,122,87,83,15,278,333
E6,CD133+,1,100.00%,100.00%,29956,9204,122,87,83,15,278,333
E7,All Events,1,100.00%,NaN,34146,15427,197,197,83,7,360,1108
E7,Cells,1,100.00%,100.00%,34146,15427,197,197,83,7,360,1108
E7,Singles,1,100.00%,100.00%,34146,15427,197,197,83,7,360,1108
E7,lineage neg,1,100.00%,100.00%,34146,15427,197,197,83,7,360,1108
E7,CD34+CD38-,1,100.00%,100.00%,34146,15427,197,197,83,7,360,1108
E7,CD52+CD62L+,1,100.00%,100.00%,34146,15427,197,197,83,7,360,1108
E7,CD133+,1,100.00%,100.00%,34146,15427,197,197,83,7,360,1108
E8,All Events,1,100.00%,NaN,37749,14359,323,326,69,8,59,1347
E8,Cells,1,100.00%,100.00%,37749,14359,323,326,69,8,59,1347
E8,Singles,1,100.00%,100.00%,37749,14359,323,326,69,8,59,1347
E8,lineage neg,1,100.00%,100.00%,37749,14359,323,326,69,8,59,1347
E8,CD34+CD38-,1,100.00%,100.00%,37749,14359,323,326,69,8,59,1347
E8,CD52+CD62L+,1,100.00%,100.00%,37749,14359,323,326,69,8,59,1347
E8,CD133+,1,100.00%,100.00%,37749,14359,323,326,69,8,59,1347
E9,All Events,1,100.00%,NaN,37354,15105,627,289,100,1,51,3808
E9,Cells,1,100.00%,100.00%,37354,15105,627,289,100,1,51,3808
E9,Singles,1,100.00%,100.00%,37354,15105,627,289,100,1,51,3808
E9,lineage neg,1,100.00%,100.00%,37354,15105,627,289,100,1,51,3808
E9,CD34+CD38-,1,100.00%,100.00%,37354,15105,627,289,100,1,51,3808
E9,CD52+CD62L+,1,100.00%,100.00%,37354,15105,627,289,100,1,51,3808
E9,CD133+,1,100.00%,100.00%,37354,15105,627,289,100,1,51,3808
E10,All Events,1,100.00%,NaN,33938,16993,395,219,96,15,144,1738
E10,Cells,1,100.00%,100.00%,33938,16993,395,219,96,15,144,1738
E10,Singles,1,100.00%,100.00%,33938,16993,395,219,96,15,144,1738
E10,lineage neg,1,100.00%,100.00%,33938,16993,395,219,96,15,144,1738
E10,CD34+CD38-,1,100.00%,100.00%,33938,16993,395,219,96,15,144,1738
E10,CD52+CD62L+,1,100.00%,100.00%,33938,16993,395,219,96,15,144,1738
E10,CD133+,1,100.00%,100.00%,33938,16993,395,219,96,15,144,1738
E11,All Events,1,100.00%,NaN,30233,14031,134,106,61,2,144,597
E11,Cells,1,100.00%,100.00%,30233,14031,134,106,61,2,144,597
E11,Singles,1,100.00%,100.00%,30233,14031,134,106,61,2,144,597
E11,lineage neg,1,100.00%,100.00%,30233,14031,134,106,61,2,144,597
E11,CD34+CD38-,1,100.00%,100.00%,30233,14031,134,106,61,2,144,597
E11,CD52+CD62L+,1,100.00%,100.00%,30233,14031,134,106,61,2,144,597
E11,CD133+,1,100.00%,100.00%,30233,14031,134,106,61,2,144,597
E12,All Events,1,100.00%,NaN,28194,12232,272,563,58,1,397,2685
E12,Cells,1,100.00%,100.00%,28194,12232,272,563,58,1,397,2685
E12,Singles,1,100.00%,100.00%,28194,12232,272,563,58,1,397,2685
E12,lineage neg,1,100.00%,100.00%,28194,12232,272,563,58,1,397,2685
E12,CD34+CD38-,1,100.00%,100.00%,28194,12232,272,563,58,1,397,2685
E12,CD52+CD62L+,1,100.00%,100.00%,28194,12232,272,563,58,1,397,2685
E12,CD133+,1,100.00%,100.00%,28194,12232,272,563,58,1,397,2685
F1,All Events,1,100.00%,NaN,34457,13106,212,144,31,3,352,918
F1,Cells,1,100.00%,100.00%,34457,13106,212,144,31,3,352,918
F1,Singles,1,100.00%,100.00%,34457,13106,212,144,31,3,352,918
F1,lineage neg,1,100.00%,100.00%,34457,13106,212,144,31,3,352,918
F1,CD34+CD38-,1,100.00%,100.00%,34457,13106,212,144,31,3,352,918
F1,CD52+CD62L+,1,100.00%,100.00%,34457,13106,212,144,31,3,352,918
F1,CD133+,1,100.00%,100.00%,34457,13106,212,144,31,3,352,918
F2,All Events,1,100.00%,NaN,33798,16642,348,615,21,4,108,2363
F2,Cells,1,100.00%,100.00%,33798,16642,348,615,21,4,108,2363
F2,Singles,1,100.00%,100.00%,33798,16642,348,615,21,4,108,2363
F2,lineage neg,1,100.00%,100.00%,33798,16642,348,615,21,4,108,2363
F2,CD34+CD38-,1,100.00%,100.00%,33798,16642,348,615,21,4,108,2363
F2,CD52+CD62L+,1,100.00%,100.00%,33798,16642,348,615,21,4,108,2363
F2,CD133+,1,100.00%,100.00%,33798,16642,348,615,21,4,108,2363
F3,All Events,1,100.00%,NaN,39564,11685,118,32,41,15,150,363
F3,Cells,1,100.00%,100.00%,39564,11685,118,32,41,15,150,363
F3,Singles,1,100.00%,100.00%,39564,11685,118,32,41,15,150,363
F3,lineage neg,1,100.00%,100.00%,39564,11685,118,32,41,15,150,363
F3,CD34+CD38-,1,100.00%,100.00%,39564,11685,118,32,41,15,150,363
F3,CD52+CD62L+,1,100.00%,100.00%,39564,11685,118,32,41,15,150,363
F3,CD133+,1,100.00%,100.00%,39564,11685,118,32,41,15,150,363
F4,All Events,1,100.00%,NaN,30718,13731,525,204,73,8,261,1909
F4,Cells,1,100.00%,100.00%,30718,13731,525,204,73,8,261,1909
F4,Singles,1,100.00%,100.00%,30718,13731,525,204,73,8,261,1909
F4,lineage neg,1,100.00%,100.00%,30718,13731,525,204,73,8,261,1909
F4,CD34+CD38-,1,100.00%,100.00%,30718,13731,525,204,73,8,261,1909
F4,CD52+CD62L+,1,100.00%,100.00%,30718,13731,525,204,73,8,261,1909
F4,CD133+,1,100.00%,100.00%,30718,13731,525,204,73,8,261,1909
F5,All Events,1,100.00%,NaN,31996,15634,184,140,80,1,605,849
F5,Cells,1,100.00%,100.00%,31996,15634,184,140,80,1,605,849
F5,Singles,1,100.00%,100.00%,31996,15634,184,140,80,1,605,849
F5,lineage neg,1,100.00%,100.00%,31996,15634,184,140,80,1,605,849
F5,CD34+CD38-,1,100.00%,100.00%,31996,15634,184,140,80,1,605,849
F5,CD52+CD62L+,1,100.00%,100.00%,31996,15634,184,140,80,1,605,849
F5,CD133+,1,100.00%,100.00%,31996,15634,184,140,80,1,605,849
F6,All Events,1,100.00%,NaN,36099,16533,470,504,49,2,152,3544
F6,Cells,1,100.00%,100.00%,36099,16533,470,504,49,2,152,3544
F6,Singles,1,100.00%,100.00%,36099,16533,470,504,49,2,152,3544
F6,lineage neg,1,100.00%,100.00%,36099,16533,470,504,49,2,152,3544
F6,CD34+CD38-,1,100.00%,100.00%,36099,16533,470,504,49,2,152,3544
F6,CD52+CD62L+,1,100.00%,100.00%,36099,16533,470,504,49,2,152,3544
F6,CD133+,1,100.00%,100.00%,36099,16533,470,504,49,2,152,3544
F7,All Events,1,100.00%,NaN,30949,12077,237,331,79,1,498,2148
F7,Cells,1,100.00%,100.00%,30949,12077,237,331,79,1,498,2148
F7,Singles,1,100.00%,100.00%,30949,12077,237,331,79,1,498,2148
F7,lineage neg,1,100.00%,100.00%,30949,12077,237,331,79,1,498,2148
F7,CD34+CD38-,1,100.00%,100.00%,30949,12077,237,331,79,1,498,2148
F7,CD52+CD62L+,1,100.00%,100.00%,30949,12077,237,331,79,1,498,2148
F7,CD133+,1,100.00%,100.00%,30949,12077,237,331,79,1,498,2148
F8,All Events,1,100.00%,NaN,37736,12454,333,489,103,12,406,3261
F8,Cells,1,100.00%,100.00%,37736,12454,333,489,103,12,406,3261
F8,Singles,1,100.00%,100.00%,37736,12454,333,489,103,12,406,3261
F8,lineage neg,1,100.00%,100.00%,37736,12454,333,489,103,12,406,3261
F8,CD34+CD38-,1,100.00%,100.00%,37736,12454,333,489,103,12,406,3261
F8,CD52+CD62L+,1,100.00%,100.00%,37736,12454,333,489,103,12,406,3261
F8,CD133+,1,100.00%,100.00%,37736,12454,333,489,103,12,406,3261
F9,All Events,1,100.00%,NaN,40594,14523,478,293,5,9,57,2949
F9,Cells,1,100.00%,100.00%,40594,14523,478,293,5,9,57,2949
F9,Singles,1,100.00%,100.00%,40594,14523,478,293,5,9,57,2949
F9,lineage neg,1,100.00%,100.00%,40594,14523,478,293,5,9,57,2949
F9,CD34+CD38-,1,100.00%,100.00%,40594,14523,478,293,5,9,57,2949
F9,CD52+CD62L+,1,100.00%,100.00%,40594,14523,478,293,5,9,57,2949
F9,CD133+,1,100.00%,100.00%,40594,14523,478,293,5,9,57,2949
F10,All Events,1,100.00%,NaN,34367,12626,135,371,32,1,73,1665
F10,Cells,1,100.00%,100.00%,34367,12626,135,371,32,1,73,1665
F10,Singles,1,100.00%,100.00%,34367,12626,135,371,32,1,73,1665
F10,lineage neg,1,100.00%,100.00%,34367,12626,135,371,32,1,73,1665
F10,CD34+CD38-,1,100.00%,100.00%,34367,12626,135,371,32,1,73,1665
F10,CD52+CD62L+,1,100.00%,100.00%,34367,12626,135,371,32,1,73,1665
F10,CD133+,1,100.00%,100.00%,34367,12626,135,371,32,1,73,1665
F11,All Events,1,100.00%,NaN,40720,17553,444,471,16,5,102,3525
F11,Cells,1,100.00%,100.00%,40720,17553,444,471,16,5,102,3525
F11,Singles,1,100.00%,100.00%,40720,17553,444,471,16,5,102,3525
F11,lineage neg,1,100.00%,100.00%,40720,17553,444,471,16,5,102,3525
F11,CD34+CD38-,1,100.00%,100.00%,40720,17553,444,471,16,5,102,3525
F11,CD52+CD62L+,1,100.00%,100.00%,40720,17553,444,471,16,5,102,3525
F11,CD133+,1,100.00%,100.00%,40720,17553,444,471,16,5,102,3525
F12,All Events,1,100.00%,NaN,35043,14498,300,312,56,15,196,1125
F12,Cells,1,100.00%,100.00%,35043,14498,300,312,56,15,196,1125
F12,Singles,1,100.00%,100.00%,35043,14498,300,312,56,15,196,1125
F12,lineage neg,1,100.00%,100.00%,35043,14498,300,312,56,15,196,1125
F12,CD34+CD38-,1,100.00%,100.00%,35043,14498,300,312,56,15,196,1125
F12,CD52+CD62L+,1,100.00%,100.00%,35043,14498,300,312,56,15,196,1125
F12,CD133+,1,100.00%,100.00%,35043,14498,300,312,56,15,196,1125
G1,All Events,1,100.00%,NaN,43813,26727,230,270,54,3,129,1596
G1,Cells,1,100.00%,100.00%,43813,26727,230,270,54,3,129,1596
G1,Singles,1,100.00%,100.00%,43813,26727,230,270,54,3,129,1596
G1,lineage neg,1,100.00%,100.00%,43813,26727,230,270,54,3,129,1596
G1,CD34+CD38-,1,100.00%,100.00%,43813,26727,230,270,54,3,129,1596
G1,CD52+CD62L+,1,100.00%,100.00%,43813,26727,230,270,54,3,129,1596
G1,CD133+,1,100.00%,100.00%,43813,26727,230,270,54,3,129,1596
G2,All Events,1,100.00%,NaN,38295,14176,119,142,40,10,487,784
G2,Cells,1,100.00%,100.00%,38295,14176,119,142,40,10,487,784
G2,Singles,1,100.00%,100.00%,38295,14176,119,142,40,10,487,784
G2,lineage neg,1,100.00%,100.00%,38295,14176,119,142,40,10,487,784
G2,CD34+CD38-,1,100.00%,100.00%,38295,14176,119,142,40,10,487,784
G2,CD52+CD62L+,1,100.00%,100.00%,38295,14176,119,142,40,10,487,784
G2,CD133+,1,100.00%,100.00%,38295,14176,119,142,40,10,487,784
G3,All Events,1,100.00%,NaN,36039,20989,215,305,16,1,63,2446
G3,Cells,1,100.00%,100.00%,36039,20989,215,305,16,1,63,2446
G3,Singles,1,100.00%,100.00%,36039,20989,215,305,16,1,63,2446
G3,lineage neg,1,100.00%,100.00%,36039,20989,215,305,16,1,63,2446
G3,CD34+CD38-,1,100.00%,100.00%,36039,20989,215,305,16,1,63,2446
G3,CD52+CD62L+,1,100.00%,100.00%,36039,20989,215,305,16,1,63,2446
G3,CD133+,1,100.00%,100.00%,36039,20989,215,305,16,1,63,2446
G4,All Events,1,100.00%,NaN,34396,11446,635,262,73,12,246,3115
G4,Cells,1,100.00%,100.00%,34396,11446,635,262,73,12,246,3115
G4,Singles,1,100.00%,100.00%,34396,11446,635,262,73,12,246,3115
G4,lineage neg,1,100.00%,100.00%,34396,11446,635,262,73,12,246,3115
G4,CD34+CD38-,1,100.00%,100.00%,34396,11446,635,262,73,12,246,3115
G4,CD52+CD62L+,1,100.00%,100.00%,34396,11446,635,262,73,12,246,3115
G4,CD133+,1,100.00%,100.00%,34396,11446,635,262,73,12,246,3115
G5,All Events,1,100.00%,NaN,40205,12026,414,299,61,14,73,3281
G5,Cells,1,100.00%,100.00%,40205,12026,414,299,61,14,73,3281
G5,Singles,1,100.00%,100.00%,40205,12026,414,299,61,14,73,3281
G5,lineage neg,1,100.00%,100.00%,40205,12026,414,299,61,14,73,3281
G5,CD34+CD38-,1,100.00%,100.00%,40205,12026,414,299,61,14,73,3281
G5,CD52+CD62L+,1,100.00%,100.00%,40205,12026,414,299,61,14,73,3281
G5,CD133+,1,100.00%,100.00%,40205,12026,414,299,61,14,73,3281
G6,All Events,1,100.00%,NaN,36126,20496,127,76,76,6,97,971
G6,Cells,1,100.00%,100.00%,36126,20496,127,76,76,6,97,971
G6,Singles,1,100.00%,100.00%,36126,20496,127,76,76,6,97,971
G6,lineage neg,1,100.00%,100.00%,36126,20496,127,76,76,6,97,971
G6,CD34+CD38-,1,100.00%,100.00%,36126,20496,127,76,76,6,97,971
G6,CD52+CD62L+,1,100.00%,100.00%,36126,20496,127,76,76,6,97,971
G6,CD133+,1,100.00%,100.00%,36126,20496,127,76,76,6,97,971
G7,All Events,1,100.00%,NaN,37678,10005,181,472,26,4,117,1221
G7,Cells,1,100.00%,100.00%,37678,10005,181,472,26,4,117,1221
G7,Singles,1,100.00%,100.00%,37678,10005,181,472,26,4,117,1221
G7,lineage neg,1,100.00%,100.00%,37678,10005,181,472,26,4,117,1221
G7,CD34+CD38-,1,100.00%,100.00%,37678,10005,181,472,26,4,117,1221
G7,CD52+CD62L+,1,100.00%,100.00%,37678,10005,181,472,26,4,117,1221
G7,CD133+,1,100.00%,100.00%,37678,10005,181,472,26,4,117,1221
G8,All Events,1,100.00%,NaN,36507,15792,312,327,66,15,118,1616
G8,Cells,1,100.00%,100.00%,36507,15792,312,327,66,15,118,1616
G8,Singles,1,100.00%,100.00%,36507,15792,312,327,66,15,118,1616
G8,lineage neg,1,100.00%,100.00%,36507,15792,312,327,66,15,118,1616
G8,CD34+CD38-,1,100.00%,100.00%,36507,15792,312,327,66,15,118,1616
G8,CD52+CD62L+,1,100.00%,100.00%,36507,15792,312,327,66,15,118,1616
G8,CD133+,1,100.00%,100.00%,36507,15792,312,327,66,15,118,1616
G9,All Events,1,100.00%,NaN,39668,15015,178,212,74,1,222,1904
G9,Cells,1,100.00%,100.00%,39668,15015,178,212,74,1,222,1904
G9,Singles,1,100.00%,100.00%,39668,15015,178,212,74,1,222,1904
G9,lineage neg,1,100.00%,100.00%,39668,15015,178,212,74,1,222,1904
G9,CD34+CD38-,1,100.00%,100.00%,39668,15015,178,212,74,1,222,1904
G9,CD52+CD62L+,1,100.00%,100.00%,39668,15015,178,212,74,1,222,1904
G9,CD133+,1,100.00%,100.00%,39668,15015,178,212,74,1,222,1904
G10,All Events,1,100.00%,NaN,34723,13581,198,145,44,1,188,798
G10,Cells,1,100.00%,100.00%,34723,13581,198,145,44,1,188,798
G10,Singles,1,100.00%,100.00%,34723,13581,198,145,44,1,188,798
G10,lineage neg,1,100.00%,100.00%,34723,13581,198,145,44,1,188,798
G10,CD34+CD38-,1,100.00%,100.00%,34723,13581,198,145,44,1,188,798
G10,CD52+CD62L+,1,100.00%,100.00%,34723,13581,198,145,44,1,188,798
G10,CD133+,1,100.00%,100.00%,34723,13581,198,145,44,1,188,798
G11,All Events,1,100.00%,NaN,39949,15090,173,156,8,1,301,1738
G11,Cells,1,100.00%,100.00%,39949,15090,173,156,8,1,301,1738
G11,Singles,1,100.00%,100.00%,39949,15090,173,156,8,1,301,1738
G11,lineage neg,1,100.00%,100.00%,39949,15090,173,156,8,1,301,1738
G11,CD34+CD38-,1,100.00%,100.00%,39949,15090,173,156,8,1,301,1738
G11,CD52+CD62L+,1,100.00%,100.00%,39949,15090,173,156,8,1,301,1738
G11,CD133+,1,100.00%,100.00%,39949,15090,173,156,8,1,301,1738
G12,All Events,1,100.00%,NaN,38785,15682,248,162,58,1,225,981
G12,Cells,1,100.00%,100.00%,38785,15682,248,162,58,1,225,981
G12,Singles,1,100.00%,100.00%,38785,15682,248,162,58,1,225,981
G12,lineage neg,1,100.00%,100.00%,38785,15682,248,162,58,1,225,981
G12,CD34+CD38-,1,100.00%,100.00%,38785,15682,248,162,58,1,225,981
G12,CD52+CD62L+,1,100.00%,100.00%,38785,15682,248,162,58,1,225,981
G12,CD133+,1,100.00%,100.00%,38785,15682,248,162,58,1,225,981
H1,All Events,1,100.00%,NaN,35602,13789,302,492,47,2,101,2065
H1,Cells,1,100.00%,100.00%,35602,13789,302,492,47,2,101,2065
H1,Singles,1,100.00%,100.00%,35602,13789,302,492,47,2,101,2065
H1,lineage neg,1,100.00%,100.00%,35602,13789,302,492,47,2,101,2065
H1,CD34+CD38-,1,100.00%,100.00%,35602,13789,302,492,47,2,101,2065
H1,CD52+CD62L+,1,100.00%,100.00%,35602,13789,302,492,47,2,101,2065
H1,CD133+,1,100.00%,100.00%,35602,13789,302,492,47,2,101,2065
H2,All Events,1,100.00%,NaN,40421,15577,111,83,74,4,262,1221
H2,Cells,1,100.00%,100.00%,40421,15577,111,83,74,4,262,1221
H2,Singles,1,100.00%,100.00%,40421,15577,111,83,74,4,262,1221
H2,lineage neg,1,100.00%,100.00%,40421,15577,111,83,74,4,262,1221
H2,CD34+CD38-,1,100.00%,100.00%,40421,15577,111,83,74,4,262,1221
H2,CD52+CD62L+,1,100.00%,100.00%,40421,15577,111,83,74,4,262,1221
H2,CD133+,1,100.00%,100.00%,40421,15577,111,83,74,4,262,1221
H3,All Events,1,100.00%,NaN,38553,13000,109,173,75,8,278,837
H3,Cells,1,100.00%,100.00%,38553,13000,109,173,75,8,278,837
H3,Singles,1,100.00%,100.00%,38553,13000,109,173,75,8,278,837
H3,lineage neg,1,100.00%,100.00%,38553,13000,109,173,75,8,278,837
H3,CD34+CD38-,1,100.00%,100.00%,38553,13000,109,173,75,8,278,837
H3,CD52+CD62L+,1,100.00%,100.00%,38553,13000,109,173,75,8,278,837
H3,CD133+,1,100.00%,100.00%,38553,13000,109,173,75,8,278,837
H4,All Events,1,100.00%,NaN,34003,13279,181,61,119,13,153,1145
H4,Cells,1,100.00%,100.00%,34003,13279,181,61,119,13,153,1145
H4,Singles,1,100.00%,100.00%,34003,13279,181,61,119,13,153,1145
H4,lineage neg,1,100.00%,100.00%,34003,13279,181,61,119,13,153,1145
H4,CD34+CD38-,1,100.00%,100.00%,34003,13279,181,61,119,13,153,1145
H4,CD52+CD62L+,1,100.00%,100.00%,34003,13279,181,61,119,13,153,1145
H4,CD133+,1,100.00%,100.00%,34003,13279,181,61,119,13,153,1145
H5,All Events,1,100.00%,NaN,32633,12259,251,153,51,16,212,1811
H5,Cells,1,100.00%,100.00%,32633,12259,251,153,51,16,212,1811
H5,Singles,1,100.00%,100.00%,32633,12259,251,153,51,16,212,1811
H5,lineage neg,1,100.00%,100.00%,32633,12259,251,153,51,16,212,1811
H5,CD34+CD38-,1,100.00%,100.00%,32633,12259,251,153,51,16,212,1811
H5,CD52+CD62L+,1,100.00%,100.00%,32633,12259,251,153,51,16,212,1811
H5,CD133+,1,100.00%,100.00%,32633,12259,251,153,51,16,212,1811
H6,All Events,1,100.00%,NaN,31183,14206,244,564,19,1,597,2812
H6,Cells,1,100.00%,100.00%,31183,14206,244,564,19,1,597,2812
H6,Singles,1,100.00%,100.00%,31183,14206,244,564,19,1,597,2812
H6,lineage neg,1,100.00%,100.00%,31183,14206,244,564,19,1,597,2812
H6,CD34+CD38-,1,100.00%,100.00%,31183,14206,244,564,19,1,597,2812
H6,CD52+CD62L+,1,100.00%,100.00%,31183,14206,244,564,19,1,597,2812
H6,CD133+,1,100.00%,100.00%,31183,14206,244,564,19,1,597,2812
H7,All Events,1,100.00%,NaN,40068,13526,236,135,28,15,53,1367
H7,Cells,1,100.00%,100.00%,40068,13526,236,135,28,15,53,1367
H7,Singles,1,100.00%,100.00%,40068,13526,236,135,28,15,53,1367
H7,lineage neg,1,100.00%,100.00%,40068,13526,236,135,28,15,53,1367
H7,CD34+CD38-,1,100.00%,100.00%,40068,13526,236,135,28,15,53,1367
H7,CD52+CD62L+,1,100.00%,100.00%,40068,13526,236,135,28,15,53,1367
H7,CD133+,1,100.00%,100.00%,40068,13526,236,135,28,15,53,1367
H8,All Events,1,100.00%,NaN,31774,14400,366,453,46,1,157,2011
H8,Cells,1,100.00%,100.00%,31774,14400,366,453,46,1,157,2011
H8,Singles,1,100.00%,100.00%,31774,14400,366,453,46,1,157,2011
H8,lineage neg,1,100.00%,100.00%,31774,14400,366,453,46,1,157,2011
H8,CD34+CD38-,1,100.00%,100.00%,31774,14400,366,453,46,1,157,2011
H8,CD52+CD62L+,1,100.00%,100.00%,31774,14400,366,453,46,1,157,2011
H8,CD133+,1,100.00%,100.00%,31774,14400,366,453,46,1,157,2011
H9,All Events,1,100.00%,NaN,30170,15522,541,604,46,11,51,3105
H9,Cells,1,100.00%,100.00%,30170,15522,541,604,46,11,51,3105
H9,Singles,1,100.00%,100.00%,30170,15522,541,604,46,11,51,3105
H9,lineage neg,1,100.00%,100.00%,30170,15522,541,604,46,11,51,3105
H9,CD34+CD38-,1,100.00%,100.00%,30170,15522,541,604,46,11,51,3105
H9,CD52+CD62L+,1,100.00%,100.00%,30170,15522,541,604,46,11,51,3105
H9,CD133+,1,100.00%,100.00%,30170,15522,541,604,46,11,51,3105
H10,All Events,1,100.00%,NaN,36260,16706,459,435,102,1,52,3535
H10,Cells,1,100.00%,100.00%,36260,16706,459,435,102,1,52,3535
H10,Singles,1,100.00%,100.00%,36260,16706,459,435,102,1,52,3535
H10,lineage neg,1,100.00%,100.00%,36260,16706,459,435,102,1,52,3535
H10,CD34+CD38-,1,100.00%,100.00%,36260,16706,459,435,102,1,52,3535
H10,CD52+CD62L+,1,100.00%,100.00%,36260,16706,459,435,102,1,52,3535
H10,CD133+,1,100.00%,100.00%,36260,16706,459,435,102,1,52,3535
H11,All Events,0,NaN,NaN,NaN,NaN,NaN,NaN,NaN,NaN,NaN,NaN
H11,Cells,0,NaN,NaN,NaN,NaN,NaN,NaN,NaN,NaN,NaN,NaN
H11,Singles,0,NaN,NaN,NaN,NaN,NaN,NaN,NaN,NaN,NaN,NaN
H11,lineage neg,0,NaN,NaN,NaN,NaN,NaN,NaN,NaN,NaN,NaN,NaN
H11,CD34+CD38-,0,NaN,NaN,NaN,NaN,NaN,NaN,NaN,NaN,NaN,NaN
H11,CD52+CD62L+,0,NaN,NaN,NaN,NaN,NaN,NaN,NaN,NaN,NaN,NaN
H11,CD133+,0,NaN,NaN,NaN,NaN,NaN,NaN,NaN,NaN,NaN,NaN
H12,All Events,0,NaN,NaN,NaN,NaN,NaN,NaN,NaN,NaN,NaN,NaN
H12,Cells,0,NaN,NaN,NaN,NaN,NaN,NaN,NaN,NaN,NaN,NaN
H12,Singles,0,NaN,NaN,NaN,NaN,NaN,NaN,NaN,NaN,NaN,NaN
H12,lineage neg,0,NaN,NaN,NaN,NaN,NaN,NaN,NaN,NaN,NaN,NaN
H12,CD34+CD38-,0,NaN,NaN,NaN,NaN,NaN,NaN,NaN,NaN,NaN,NaN
H12,CD52+CD62L+,0,NaN,NaN,NaN,NaN,NaN,NaN,NaN,NaN,NaN,NaN
H12,CD133+,0,NaN,NaN,NaN,NaN,NaN,NaN,NaN,NaN,NaN,NaN
